%!PS-Adobe-3.0 EPSF-3.0
%%Creator: MATLAB, The MathWorks, Inc. Version 8.1.0.604 (R2013a). Operating System: Microsoft Windows 8.
%%Title: E:\UofA\Thesis\ICRA 2016\am_8.eps
%%CreationDate: 09/15/2015  17:54:29
%%DocumentNeededFonts: Times-Bold
%%+ Helvetica
%%DocumentProcessColors: Cyan Magenta Yellow Black
%%LanguageLevel: 2
%%Pages: 1
%%BoundingBox:  -243   193   857   598
%%EndComments

%%BeginProlog
% MathWorks dictionary
/MathWorks 160 dict begin
% definition operators
/bdef {bind def} bind def
/ldef {load def} bind def
/xdef {exch def} bdef
/xstore {exch store} bdef
% operator abbreviations
/c  /clip ldef
/cc /concat ldef
/cp /closepath ldef
/gr /grestore ldef
/gs /gsave ldef
/mt /moveto ldef
/np /newpath ldef
/cm /currentmatrix ldef
/sm /setmatrix ldef
/rm /rmoveto ldef
/rl /rlineto ldef
/s {show newpath} bdef
/sc {setcmykcolor} bdef
/sr /setrgbcolor ldef
/sg /setgray ldef
/w /setlinewidth ldef
/j /setlinejoin ldef
/cap /setlinecap ldef
/rc {rectclip} bdef
/rf {rectfill} bdef
% page state control
/pgsv () def
/bpage {/pgsv save def} bdef
/epage {pgsv restore} bdef
/bplot /gsave ldef
/eplot {stroke grestore} bdef
% orientation switch
/portraitMode 0 def /landscapeMode 1 def /rotateMode 2 def
% coordinate system mappings
/dpi2point 0 def
% font control
/FontSize 0 def
/FMS {/FontSize xstore findfont [FontSize 0 0 FontSize neg 0 0]
  makefont setfont} bdef
/ISOLatin1Encoding where {pop /WindowsLatin1Encoding 256 array bdef
ISOLatin1Encoding WindowsLatin1Encoding copy pop
/.notdef/.notdef/quotesinglbase/florin/quotedblbase/ellipsis/dagger
/daggerdbl/circumflex/perthousand/Scaron/guilsinglleft/OE/.notdef/.notdef
/.notdef/.notdef/quoteleft/quoteright/quotedblleft/quotedblright/bullet
/endash/emdash/tilde/trademark/scaron/guilsinglright/oe/.notdef/.notdef
/Ydieresis WindowsLatin1Encoding 128 32 getinterval astore pop}
{/WindowsLatin1Encoding StandardEncoding bdef} ifelse
/reencode {exch dup where {pop load} {pop StandardEncoding} ifelse
  exch dup 3 1 roll findfont dup length dict begin
  { 1 index /FID ne {def}{pop pop} ifelse } forall
  /Encoding exch def currentdict end definefont pop} bdef
/isroman {findfont /CharStrings get /Agrave known} bdef
/FMSR {3 1 roll 1 index dup isroman {reencode} {pop pop} ifelse
  exch FMS} bdef
/csm {1 dpi2point div -1 dpi2point div scale neg translate
 dup landscapeMode eq {pop -90 rotate}
  {rotateMode eq {90 rotate} if} ifelse} bdef
% line types: solid, dotted, dashed, dotdash
/SO { [] 0 setdash } bdef
/DO { [.5 dpi2point mul 4 dpi2point mul] 0 setdash } bdef
/DA { [6 dpi2point mul] 0 setdash } bdef
/DD { [.5 dpi2point mul 4 dpi2point mul 6 dpi2point mul 4
  dpi2point mul] 0 setdash } bdef
% macros for lines and objects
/L {lineto stroke} bdef
/MP {3 1 roll moveto 1 sub {rlineto} repeat} bdef
/AP {{rlineto} repeat} bdef
/PDlw -1 def
/W {/PDlw currentlinewidth def setlinewidth} def
/PP {closepath eofill} bdef
/DP {closepath stroke} bdef
/MR {4 -2 roll moveto dup  0 exch rlineto exch 0 rlineto
  neg 0 exch rlineto closepath} bdef
/FR {MR stroke} bdef
/PR {MR fill} bdef
/L1i {{currentfile picstr readhexstring pop} image} bdef
/tMatrix matrix def
/MakeOval {newpath tMatrix currentmatrix pop translate scale
0 0 1 0 360 arc tMatrix setmatrix} bdef
/FO {MakeOval stroke} bdef
/PO {MakeOval fill} bdef
/PD {currentlinewidth 2 div 0 360 arc fill
   PDlw -1 eq not {PDlw w /PDlw -1 def} if} def
/FA {newpath tMatrix currentmatrix pop translate scale
  0 0 1 5 -2 roll arc tMatrix setmatrix stroke} bdef
/PA {newpath tMatrix currentmatrix pop	translate 0 0 moveto scale
  0 0 1 5 -2 roll arc closepath tMatrix setmatrix fill} bdef
/FAn {newpath tMatrix currentmatrix pop translate scale
  0 0 1 5 -2 roll arcn tMatrix setmatrix stroke} bdef
/PAn {newpath tMatrix currentmatrix pop translate 0 0 moveto scale
  0 0 1 5 -2 roll arcn closepath tMatrix setmatrix fill} bdef
/vradius 0 def /hradius 0 def /lry 0 def
/lrx 0 def /uly 0 def /ulx 0 def /rad 0 def
/MRR {/vradius xdef /hradius xdef /lry xdef /lrx xdef /uly xdef
  /ulx xdef newpath tMatrix currentmatrix pop ulx hradius add uly
  vradius add translate hradius vradius scale 0 0 1 180 270 arc 
  tMatrix setmatrix lrx hradius sub uly vradius add translate
  hradius vradius scale 0 0 1 270 360 arc tMatrix setmatrix
  lrx hradius sub lry vradius sub translate hradius vradius scale
  0 0 1 0 90 arc tMatrix setmatrix ulx hradius add lry vradius sub
  translate hradius vradius scale 0 0 1 90 180 arc tMatrix setmatrix
  closepath} bdef
/FRR {MRR stroke } bdef
/PRR {MRR fill } bdef
/MlrRR {/lry xdef /lrx xdef /uly xdef /ulx xdef /rad lry uly sub 2 div def
  newpath tMatrix currentmatrix pop ulx rad add uly rad add translate
  rad rad scale 0 0 1 90 270 arc tMatrix setmatrix lrx rad sub lry rad
  sub translate rad rad scale 0 0 1 270 90 arc tMatrix setmatrix
  closepath} bdef
/FlrRR {MlrRR stroke } bdef
/PlrRR {MlrRR fill } bdef
/MtbRR {/lry xdef /lrx xdef /uly xdef /ulx xdef /rad lrx ulx sub 2 div def
  newpath tMatrix currentmatrix pop ulx rad add uly rad add translate
  rad rad scale 0 0 1 180 360 arc tMatrix setmatrix lrx rad sub lry rad
  sub translate rad rad scale 0 0 1 0 180 arc tMatrix setmatrix
  closepath} bdef
/FtbRR {MtbRR stroke } bdef
/PtbRR {MtbRR fill } bdef
/stri 6 array def /dtri 6 array def
/smat 6 array def /dmat 6 array def
/tmat1 6 array def /tmat2 6 array def /dif 3 array def
/asub {/ind2 exch def /ind1 exch def dup dup
  ind1 get exch ind2 get sub exch } bdef
/tri_to_matrix {
  2 0 asub 3 1 asub 4 0 asub 5 1 asub
  dup 0 get exch 1 get 7 -1 roll astore } bdef
/compute_transform {
  dmat dtri tri_to_matrix tmat1 invertmatrix 
  smat stri tri_to_matrix tmat2 concatmatrix } bdef
/ds {stri astore pop} bdef
/dt {dtri astore pop} bdef
/db {2 copy /cols xdef /rows xdef mul dup 3 mul string
  currentfile 
  3 index 0 eq {/ASCIIHexDecode filter}
  {/ASCII85Decode filter 3 index 2 eq {/RunLengthDecode filter} if }
  ifelse exch readstring pop
  dup 0 3 index getinterval /rbmap xdef
  dup 2 index dup getinterval /gbmap xdef
  1 index dup 2 mul exch getinterval /bbmap xdef pop pop}bdef
/it {gs np dtri aload pop moveto lineto lineto cp c
  cols rows 8 compute_transform 
  rbmap gbmap bbmap true 3 colorimage gr}bdef
/il {newpath moveto lineto stroke}bdef
currentdict end def
%%EndProlog

%%BeginSetup
MathWorks begin

0 cap

end
%%EndSetup

%%Page: 1 1
%%BeginPageSetup
%%PageBoundingBox:  -243   193   857   598
MathWorks begin
bpage
%%EndPageSetup

%%BeginObject: obj1
bplot

/dpi2point 12 def
portraitMode -2916 7176 csm

    0     0 13202  4860 rc
87 dict begin %Colortable dictionary
/c0 { 0.000000 0.000000 0.000000 sr} bdef
/c1 { 1.000000 1.000000 1.000000 sr} bdef
/c2 { 0.900000 0.000000 0.000000 sr} bdef
/c3 { 0.000000 0.820000 0.000000 sr} bdef
/c4 { 0.000000 0.000000 0.800000 sr} bdef
/c5 { 0.910000 0.820000 0.320000 sr} bdef
/c6 { 1.000000 0.260000 0.820000 sr} bdef
/c7 { 0.000000 0.820000 0.820000 sr} bdef
c0
1 j
1 sg
   0    0 13203 4861 rf
6 w
0 sg
%%IncludeResource: font Times-Bold
/Times-Bold /WindowsLatin1Encoding 168 FMSR

5790  228 mt 
(AM Success Rates with 8DOF) s
1 sg
0 4055 3663 0 0 -4055 9431 4419 4 MP
PP
-3663 0 0 4055 3663 0 0 -4055 9431 4419 5 MP stroke
4 w
DO
0 sg
9431 4419 mt 9431  364 L
9431  364 mt 9431  364 L
10346 4419 mt 10346  364 L
10346  364 mt 10346  364 L
11262 4419 mt 11262  364 L
11262  364 mt 11262  364 L
12178 4419 mt 12178  364 L
12178  364 mt 12178  364 L
13094 4419 mt 13094  364 L
13094  364 mt 13094  364 L
9431 4419 mt 13094 4419 L
13094 4419 mt 13094 4419 L
9431 4013 mt 13094 4013 L
13094 4013 mt 13094 4013 L
9431 3608 mt 13094 3608 L
13094 3608 mt 13094 3608 L
9431 3202 mt 13094 3202 L
13094 3202 mt 13094 3202 L
9431 2797 mt 13094 2797 L
13094 2797 mt 13094 2797 L
9431 2391 mt 13094 2391 L
13094 2391 mt 13094 2391 L
9431 1985 mt 13094 1985 L
13094 1985 mt 13094 1985 L
9431 1580 mt 13094 1580 L
13094 1580 mt 13094 1580 L
9431 1175 mt 13094 1175 L
13094 1175 mt 13094 1175 L
9431  769 mt 13094  769 L
13094  769 mt 13094  769 L
9431  364 mt 13094  364 L
13094  364 mt 13094  364 L
SO
6 w
9431 4419 mt 13094 4419 L
9431 4419 mt 9431  364 L
9431 4419 mt 9431 4378 L
9389 4610 mt 
(0) s
10346 4419 mt 10346 4378 L
10304 4610 mt 
(5) s
11262 4419 mt 11262 4378 L
11178 4610 mt 
(10) s
12178 4419 mt 12178 4378 L
12094 4610 mt 
(15) s
13094 4419 mt 13094 4378 L
13010 4610 mt 
(20) s
9431 4419 mt 9471 4419 L
9312 4481 mt 
(0) s
9431 4013 mt 9471 4013 L
9186 4075 mt 
(0.1) s
9431 3608 mt 9471 3608 L
9186 3670 mt 
(0.2) s
9431 3202 mt 9471 3202 L
9186 3264 mt 
(0.3) s
9431 2797 mt 9471 2797 L
9186 2859 mt 
(0.4) s
9431 2391 mt 9471 2391 L
9186 2453 mt 
(0.5) s
9431 1985 mt 9471 1985 L
9186 2047 mt 
(0.6) s
9431 1580 mt 9471 1580 L
9186 1642 mt 
(0.7) s
9431 1175 mt 9471 1175 L
9186 1237 mt 
(0.8) s
9431  769 mt 9471  769 L
9186  831 mt 
(0.9) s
9431  364 mt 9471  364 L
9312  426 mt 
(1) s
11056  645 mt 
(NNIC) s
gs 9431 364 3664 4056 rc
36 w
/c8 { 1.000000 0.647059 0.000000 sr} bdef
c8
36 0 35 -1 35 0 35 -1 35 0 35 0 36 -1 35 -1 
35 -1 35 0 35 -1 35 0 35 -1 36 -1 35 -1 35 -1 
35 -1 35 -1 35 -1 36 0 35 -2 35 -1 35 -1 35 -3 
35 -1 35 -1 36 -2 35 -1 35 -1 35 -2 35 -1 35 -2 
35 -2 36 -3 35 -4 35 -5 35 -2 35 -2 35 -2 36 -2 
35 -2 35 -2 35 -4 35 -3 35 -3 35 -3 36 -3 35 -2 
35 -4 35 -3 35 -4 35 -3 35 -3 36 -5 35 -4 35 -4 
35 -4 35 -3 35 -4 36 -5 35 -4 35 -5 35 -5 35 -4 
35 -5 35 -6 36 -5 35 -5 35 -6 35 -6 35 -7 35 -8 
35 -7 36 -7 35 -10 35 -7 35 -10 35 -9 35 -11 35 -9 
36 -12 35 -14 35 -16 35 -17 35 -20 35 -22 36 -24 35 -27 
35 -31 35 -31 35 -37 35 -44 35 -51 36 -60 35 -65 35 -75 
35 -97 35 -99 35 -109 9614 2282 100 MP stroke
/c9 { 0.000000 1.000000 0.000000 sr} bdef
c9
36 -1 35 0 35 0 35 -1 35 -1 35 0 36 -1 35 0 
35 -1 35 -1 35 0 35 -1 35 -1 36 0 35 -1 35 -2 
35 -1 35 -1 35 -1 36 0 35 -1 35 -2 35 -1 35 0 
35 -2 35 -1 36 -1 35 -1 35 -1 35 -1 35 -2 35 -1 
35 -1 36 -2 35 -2 35 -3 35 -2 35 -1 35 -1 36 -2 
35 -2 35 -2 35 -1 35 -2 35 -2 35 -2 36 -2 35 -3 
35 -2 35 -3 35 -4 35 -3 35 -4 36 -4 35 -4 35 -4 
35 -4 35 -4 35 -5 36 -4 35 -5 35 -7 35 -6 35 -8 
35 -7 35 -7 36 -6 35 -5 35 -6 35 -8 35 -6 35 -9 
35 -6 36 -9 35 -7 35 -8 35 -10 35 -9 35 -10 35 -11 
36 -11 35 -13 35 -17 35 -17 35 -17 35 -23 36 -23 35 -26 
35 -29 35 -29 35 -34 35 -40 35 -47 36 -57 35 -62 35 -71 
35 -79 35 -98 35 -122 9614 2544 100 MP stroke
/c10 { 0.000000 0.000000 1.000000 sr} bdef
c10
36 -1 35 0 35 -1 35 -1 35 0 35 -1 36 -2 35 0 
35 -1 35 -2 35 -1 35 0 35 -2 36 0 35 -2 35 -1 
35 -1 35 -1 35 -1 36 -1 35 -1 35 -1 35 -1 35 -2 
35 -2 35 -1 36 -5 35 -2 35 -1 35 -1 35 -1 35 -1 
35 -1 36 -2 35 -1 35 0 35 -2 35 -1 35 -1 36 -3 
35 -1 35 -1 35 -2 35 -2 35 -2 35 -3 36 -3 35 -2 
35 -2 35 -4 35 -3 35 -3 35 -3 36 -3 35 -5 35 -5 
35 -6 35 -4 35 -5 36 -4 35 -4 35 -4 35 -5 35 -5 
35 -6 35 -5 36 -7 35 -8 35 -7 35 -9 35 -10 35 -11 
35 -10 36 -11 35 -10 35 -9 35 -11 35 -12 35 -13 35 -14 
36 -14 35 -18 35 -18 35 -20 35 -20 35 -23 36 -26 35 -28 
35 -36 35 -40 35 -44 35 -48 35 -48 36 -58 35 -70 35 -78 
35 -86 35 -108 35 -122 9614 2834 100 MP stroke
/c11 { 1.000000 0.000000 0.000000 sr} bdef
c11
36 -1 35 -1 35 -1 35 -1 35 -2 35 0 36 -1 35 -1 
35 -1 35 -1 35 -2 35 0 35 -1 36 -1 35 -2 35 -1 
35 -1 35 -1 35 -2 36 -1 35 -1 35 -2 35 -1 35 -1 
35 -2 35 -3 36 -2 35 -2 35 -1 35 -1 35 -2 35 -1 
35 -2 36 -1 35 -2 35 -1 35 -1 35 -1 35 -2 36 -1 
35 -1 35 -2 35 -2 35 -2 35 -2 35 -3 36 -3 35 -3 
35 -4 35 -4 35 -3 35 -3 35 -4 36 -5 35 -5 35 -5 
35 -5 35 -4 35 -6 36 -5 35 -5 35 -7 35 -5 35 -5 
35 -5 35 -7 36 -7 35 -7 35 -6 35 -8 35 -7 35 -8 
35 -7 36 -8 35 -10 35 -8 35 -10 35 -10 35 -11 35 -11 
36 -13 35 -13 35 -18 35 -18 35 -19 35 -25 36 -25 35 -27 
35 -32 35 -32 35 -44 35 -52 35 -63 36 -80 35 -78 35 -94 
35 -111 35 -125 35 -137 9614 2373 100 MP stroke
DA
c8
36 0 35 -1 35 0 35 -2 35 -1 35 0 36 -1 35 0 
35 -1 35 -1 35 -1 35 -3 35 -3 36 -1 35 -2 35 -1 
35 -1 35 0 35 -4 36 -4 35 -2 35 -3 35 0 35 0 
35 -2 35 -3 36 -2 35 -5 35 -1 35 -1 35 -3 35 0 
35 0 36 0 35 -5 35 -1 35 -3 35 0 35 -3 36 0 
35 -3 35 -8 35 -4 35 -3 35 -2 35 -8 36 -6 35 -6 
35 -8 35 -3 35 -12 35 -5 35 -4 36 -8 35 -6 35 -6 
35 -4 35 -4 35 -4 36 -4 35 -4 35 -6 35 -7 35 -5 
35 -5 35 -3 36 -6 35 -7 35 -4 35 -10 35 -8 35 -5 
35 -6 36 -2 35 -6 35 -7 35 -3 35 -8 35 -8 35 -16 
36 -4 35 -5 35 0 35 -17 35 -13 35 -13 36 -15 35 -18 
35 -13 35 -27 35 -44 35 -44 35 -133 36 -291 35 -165 35 -128 
35 -111 35 -78 35 -72 9614 3450 100 MP stroke
c9
36 0 35 0 35 0 35 0 35 0 35 -1 36 0 35 -3 
35 -5 35 -2 35 -5 35 0 35 -5 36 -1 35 -6 35 -1 
35 -2 35 0 35 -1 36 -3 35 -2 35 -3 35 0 35 -4 
35 -4 35 -3 36 0 35 -2 35 -6 35 -11 35 -3 35 -1 
35 -2 36 -2 35 -3 35 -2 35 -3 35 -4 35 -1 36 -4 
35 -1 35 -8 35 -5 35 -2 35 -8 35 -5 36 -9 35 -10 
35 -5 35 -13 35 -12 35 -11 35 -5 36 -10 35 -11 35 -12 
35 -8 35 -9 35 -17 36 -7 35 -6 35 -10 35 -8 35 -3 
35 -8 35 -7 36 -10 35 -8 35 -19 35 -5 35 -16 35 -10 
35 -12 36 -14 35 -6 35 -17 35 -23 35 -23 35 -20 35 -18 
36 -15 35 -39 35 -21 35 -34 35 -27 35 -35 36 -50 35 -47 
35 -39 35 -47 35 -65 35 -86 35 -195 36 -302 35 -185 35 -112 
35 -133 35 -81 35 -82 9614 3575 100 MP stroke
c10
36 0 35 -1 35 0 35 0 35 -3 35 -2 36 0 35 -1 
35 -3 35 -1 35 -2 35 -1 35 -3 36 -4 35 -2 35 -1 
35 -2 35 0 35 -1 36 -3 35 -1 35 0 35 -1 35 -1 
35 -2 35 -2 36 0 35 -1 35 -5 35 -4 35 -2 35 0 
35 -5 36 -2 35 -2 35 -4 35 -4 35 -3 35 -3 36 -1 
35 0 35 -4 35 0 35 -2 35 -1 35 -1 36 -5 35 -8 
35 -5 35 -6 35 -10 35 -11 35 -11 36 -8 35 -17 35 -10 
35 -10 35 -7 35 -10 36 -13 35 -6 35 -6 35 -6 35 -10 
35 -8 35 -5 36 -6 35 -4 35 -5 35 -5 35 -3 35 -7 
35 -6 36 -11 35 -9 35 -11 35 -13 35 -4 35 -9 35 -11 
36 -6 35 -14 35 -24 35 -39 35 -41 35 -25 36 -47 35 -67 
35 -58 35 -67 35 -82 35 -92 35 -242 36 -283 35 -172 35 -115 
35 -92 35 -92 35 -74 9614 3540 100 MP stroke
c11
36 -3 35 0 35 0 35 0 35 0 35 -1 36 0 35 -3 
35 -2 35 -1 35 -4 35 -5 35 -3 36 0 35 -3 35 -5 
35 -1 35 -1 35 -1 36 -6 35 -2 35 -3 35 -2 35 -1 
35 -2 35 -1 36 0 35 -1 35 -3 35 -6 35 -2 35 -5 
35 -5 36 -5 35 -7 35 -3 35 0 35 -4 35 -1 36 -5 
35 0 35 -6 35 -6 35 -1 35 -1 35 -8 36 -5 35 -10 
35 -12 35 -22 35 -13 35 -9 35 -11 36 -9 35 -6 35 -8 
35 -8 35 -4 35 -13 36 -16 35 -12 35 -8 35 -5 35 -3 
35 -9 35 -16 36 -7 35 -5 35 -9 35 -8 35 -13 35 -6 
35 -14 36 -18 35 -13 35 -15 35 -9 35 -13 35 -28 35 -18 
36 -19 35 -28 35 -21 35 -29 35 -21 35 -40 36 -58 35 -48 
35 -51 35 -60 35 -46 35 -69 35 -227 36 -349 35 -181 35 -139 
35 -100 35 -86 35 -87 9614 3304 100 MP stroke
gr

36 w
c11
DA
0 sg
10667 4781 mt 
(Error Threshold) s
9095 2852 mt  -90 rotate
(Success Rate) s
90 rotate
SO
6 w
1 sg
0 4037 4004 0 0 -4037 4869 4401 4 MP
PP
-4004 0 0 4037 4004 0 0 -4037 4869 4401 5 MP stroke
4 w
DO
0 sg
4869 4401 mt 4869  364 L
4869  364 mt 4869  364 L
5870 4401 mt 5870  364 L
5870  364 mt 5870  364 L
6871 4401 mt 6871  364 L
6871  364 mt 6871  364 L
7872 4401 mt 7872  364 L
7872  364 mt 7872  364 L
8873 4401 mt 8873  364 L
8873  364 mt 8873  364 L
4869 4401 mt 8873 4401 L
8873 4401 mt 8873 4401 L
4869 3997 mt 8873 3997 L
8873 3997 mt 8873 3997 L
4869 3593 mt 8873 3593 L
8873 3593 mt 8873 3593 L
4869 3189 mt 8873 3189 L
8873 3189 mt 8873 3189 L
4869 2786 mt 8873 2786 L
8873 2786 mt 8873 2786 L
4869 2382 mt 8873 2382 L
8873 2382 mt 8873 2382 L
4869 1978 mt 8873 1978 L
8873 1978 mt 8873 1978 L
4869 1575 mt 8873 1575 L
8873 1575 mt 8873 1575 L
4869 1171 mt 8873 1171 L
8873 1171 mt 8873 1171 L
4869  767 mt 8873  767 L
8873  767 mt 8873  767 L
4869  364 mt 8873  364 L
8873  364 mt 8873  364 L
SO
6 w
4869 4401 mt 8873 4401 L
4869 4401 mt 4869  364 L
4869 4401 mt 4869 4360 L
4827 4592 mt 
(0) s
5870 4401 mt 5870 4360 L
5828 4592 mt 
(5) s
6871 4401 mt 6871 4360 L
6787 4592 mt 
(10) s
7872 4401 mt 7872 4360 L
7788 4592 mt 
(15) s
8873 4401 mt 8873 4360 L
8789 4592 mt 
(20) s
4869 4401 mt 4909 4401 L
4750 4463 mt 
(0) s
4869 3997 mt 4909 3997 L
4624 4059 mt 
(0.1) s
4869 3593 mt 4909 3593 L
4624 3655 mt 
(0.2) s
4869 3189 mt 4909 3189 L
4624 3251 mt 
(0.3) s
4869 2786 mt 4909 2786 L
4624 2848 mt 
(0.4) s
4869 2382 mt 4909 2382 L
4624 2444 mt 
(0.5) s
4869 1978 mt 4909 1978 L
4624 2040 mt 
(0.6) s
4869 1575 mt 4909 1575 L
4624 1637 mt 
(0.7) s
4869 1171 mt 4909 1171 L
4624 1233 mt 
(0.8) s
4869  767 mt 4909  767 L
4624  829 mt 
(0.9) s
4869  364 mt 4909  364 L
4750  426 mt 
(1) s
6637  617 mt 
(FCLK) s
gs 4869 364 4005 4038 rc
36 w
c8
39 -2 38 -1 39 -1 38 -2 39 -1 38 -1 38 -1 39 -1 
38 -1 39 -1 38 -2 39 -1 38 -2 38 -1 39 -1 38 -2 
39 -1 38 -1 39 -1 38 -1 38 -1 39 -2 38 -1 39 -1 
38 -1 38 -2 39 -1 38 -1 39 -2 38 -3 39 -2 38 -2 
38 -2 39 -3 38 -2 39 -2 38 -2 39 -2 38 -1 38 -5 
39 -2 38 -2 39 -2 38 -1 39 -2 38 -3 38 -2 39 -2 
38 -4 39 -3 38 -4 38 -5 39 -4 38 -6 39 -6 38 -6 
39 -6 38 -4 38 -7 39 -7 38 -7 39 -7 38 -8 39 -7 
38 -7 38 -7 39 -7 38 -9 39 -11 38 -8 38 -10 39 -10 
38 -10 39 -11 38 -12 39 -14 38 -15 38 -16 39 -19 38 -18 
39 -20 38 -20 39 -21 38 -25 38 -25 39 -30 38 -35 39 -35 
38 -41 38 -47 39 -54 38 -65 39 -69 38 -78 39 -77 38 -98 
38 -106 39 -126 38 -141 5069 2278 100 MP stroke
c9
39 -1 38 -1 39 0 38 -1 39 -2 38 -1 38 -1 39 -1 
38 -1 39 -1 38 0 39 -1 38 -2 38 0 39 -1 38 -1 
39 -1 38 -1 39 -1 38 -3 38 -2 39 -2 38 -1 39 -1 
38 -2 38 -1 39 -1 38 -1 39 -1 38 -2 39 -1 38 -1 
38 -1 39 -1 38 -2 39 -1 38 -2 39 -1 38 -3 38 -3 
39 -3 38 -3 39 -3 38 -2 39 -2 38 -3 38 -3 39 -4 
38 -4 39 -4 38 -6 38 -5 39 -7 38 -6 39 -5 38 -7 
39 -8 38 -8 38 -9 39 -8 38 -10 39 -17 38 -16 39 -11 
38 -11 38 -11 39 -9 38 -9 39 -13 38 -12 38 -11 39 -9 
38 -9 39 -10 38 -10 39 -12 38 -12 38 -14 39 -11 38 -15 
39 -17 38 -17 39 -20 38 -21 38 -26 39 -29 38 -30 39 -34 
38 -37 38 -40 39 -50 38 -64 39 -67 38 -79 39 -74 38 -87 
38 -101 39 -128 38 -142 5069 2438 100 MP stroke
c10
39 -2 38 -2 39 -3 38 -2 39 -2 38 -3 38 -3 39 -2 
38 -17 39 -4 38 -3 39 -3 38 -4 38 -5 39 -5 38 -4 
39 -4 38 -4 39 -4 38 -4 38 -3 39 -4 38 -3 39 -4 
38 -6 38 -3 39 -4 38 -4 39 -2 38 -4 39 -2 38 -3 
38 -3 39 -4 38 -3 39 -2 38 -4 39 -3 38 -3 38 -4 
39 -4 38 -3 39 -5 38 -7 39 -7 38 -7 38 -4 39 -5 
38 -5 39 -5 38 -4 38 -6 39 -11 38 -17 39 -10 38 -9 
39 -9 38 -10 38 -8 39 -8 38 -6 39 -8 38 -7 39 -6 
38 -8 38 -8 39 -8 38 -11 39 -8 38 -10 38 -10 39 -11 
38 -13 39 -13 38 -14 39 -17 38 -16 38 -15 39 -19 38 -19 
39 -19 38 -23 39 -23 38 -25 38 -36 39 -36 38 -35 39 -38 
38 -49 38 -46 39 -51 38 -61 39 -68 38 -76 39 -68 38 -78 
38 -89 39 -112 38 -136 5069 2693 100 MP stroke
c11
39 -1 38 0 39 -1 38 -1 39 -1 38 0 38 -1 39 -1 
38 0 39 -1 38 -2 39 0 38 -1 38 -1 39 -1 38 -1 
39 -2 38 0 39 -1 38 -2 38 -1 39 -2 38 -1 39 -2 
38 -1 38 -2 39 -2 38 -2 39 -2 38 -2 39 -2 38 -2 
38 -2 39 -2 38 -3 39 -1 38 -2 39 -2 38 -1 38 -2 
39 -2 38 -2 39 -2 38 -2 39 -2 38 -3 38 -3 39 -4 
38 -5 39 -4 38 -5 38 -4 39 -6 38 -7 39 -7 38 -5 
39 -7 38 -7 38 -8 39 -7 38 -8 39 -7 38 -8 39 -8 
38 -9 38 -10 39 -17 38 -12 39 -8 38 -9 38 -10 39 -10 
38 -9 39 -11 38 -13 39 -13 38 -14 38 -15 39 -17 38 -16 
39 -18 38 -19 39 -23 38 -23 38 -22 39 -28 38 -31 39 -33 
38 -40 38 -45 39 -52 38 -60 39 -67 38 -75 39 -84 38 -94 
38 -104 39 -135 38 -153 5069 2366 100 MP stroke
DA
c8
39 -3 38 -2 39 -1 38 -10 39 0 38 -1 38 -9 39 -2 
38 -3 39 -5 38 -4 39 -3 38 -2 38 -1 39 -5 38 -4 
39 -3 38 -6 39 0 38 -7 38 -3 39 0 38 0 39 -2 
38 -7 38 0 39 0 38 -1 39 -2 38 -6 39 0 38 0 
38 0 39 -3 38 -2 39 -1 38 0 39 -1 38 -1 38 -5 
39 -2 38 -2 39 -2 38 -5 39 -2 38 -3 38 -5 39 -12 
38 -12 39 -9 38 -10 38 -10 39 -9 38 -5 39 -6 38 -6 
39 -6 38 -5 38 -6 39 -5 38 -6 39 -7 38 -5 39 -6 
38 -5 38 -5 39 -6 38 -4 39 -6 38 -6 38 -5 39 -5 
38 -3 39 -4 38 -7 39 -5 38 -4 38 -4 39 -8 38 -5 
39 -4 38 -7 39 -10 38 -7 38 -12 39 -15 38 -15 39 -30 
38 -29 38 -19 39 -33 38 -14 39 -82 38 -179 39 -123 38 -83 
38 -53 39 -50 38 -37 5069 3386 100 MP stroke
c9
39 -1 38 -2 39 0 38 -3 39 -2 38 -1 38 0 39 0 
38 -2 39 -3 38 -3 39 -2 38 -4 38 -1 39 -3 38 0 
39 -2 38 0 39 -1 38 -4 38 -1 39 -1 38 0 39 -1 
38 -5 38 -2 39 -3 38 0 39 -4 38 -4 39 -3 38 0 
38 0 39 -4 38 -5 39 -1 38 -1 39 -1 38 -4 38 -1 
39 -1 38 -7 39 -8 38 -5 39 -3 38 -3 38 -10 39 -8 
38 -12 39 -32 38 -8 38 -14 39 -7 38 -7 39 -4 38 -8 
39 -5 38 -10 38 -12 39 -4 38 -6 39 -8 38 -3 39 -6 
38 -6 38 -5 39 -5 38 -4 39 -4 38 -6 38 -14 39 -15 
38 -19 39 -11 38 -7 39 -7 38 -5 38 -5 39 -4 38 -10 
39 -4 38 -6 39 -8 38 -7 38 -13 39 -8 38 -13 39 -9 
38 -11 38 -13 39 -16 38 -11 39 -8 38 -49 39 -52 38 -38 
38 -31 39 -31 38 -31 5069 3425 100 MP stroke
c10
39 -1 38 -2 39 -1 38 -2 39 -1 38 0 38 -1 39 -4 
38 -9 39 -6 38 -5 39 -5 38 -7 38 -7 39 -4 38 0 
39 -3 38 -4 39 -3 38 -4 38 -6 39 -5 38 -1 39 -5 
38 -5 38 -6 39 -8 38 0 39 -5 38 -3 39 -2 38 0 
38 0 39 -4 38 -2 39 -1 38 -3 39 -6 38 -3 38 -5 
39 -2 38 -4 39 -4 38 -2 39 -2 38 -4 38 -4 39 -16 
38 -13 39 -8 38 -10 38 -8 39 -6 38 -9 39 -9 38 -4 
39 -6 38 -5 38 -8 39 -3 38 -7 39 -7 38 -8 39 -6 
38 -5 38 -8 39 -9 38 -7 39 -10 38 -11 38 -6 39 -10 
38 -9 39 -11 38 -8 39 -11 38 -8 38 -11 39 -10 38 -10 
39 -5 38 -12 39 -8 38 -13 38 -9 39 -14 38 -22 39 -23 
38 -27 38 -28 39 -21 38 -23 39 -77 38 -171 39 -97 38 -80 
38 -70 39 -52 38 -59 5069 3563 100 MP stroke
c11
39 0 38 -3 39 0 38 0 39 -2 38 -1 38 0 39 0 
38 -2 39 -7 38 -5 39 -2 38 -7 38 0 39 -6 38 0 
39 -2 38 -3 39 0 38 -6 38 -1 39 0 38 0 39 -1 
38 -7 38 -1 39 -1 38 0 39 -1 38 -4 39 0 38 0 
38 0 39 -1 38 -3 39 -3 38 0 39 -1 38 -2 38 -1 
39 -1 38 -2 39 0 38 -8 39 0 38 -3 38 -3 39 -7 
38 -7 39 -9 38 -8 38 -9 39 -7 38 -15 39 -8 38 -4 
39 -7 38 -4 38 -6 39 -4 38 -8 39 -7 38 -3 39 -4 
38 -7 38 -5 39 -4 38 -4 39 -4 38 -8 38 -2 39 -5 
38 -3 39 -4 38 -6 39 -5 38 -4 38 -4 39 -7 38 -7 
39 -4 38 -7 39 -8 38 -10 38 -9 39 -10 38 -14 39 -14 
38 -16 38 -12 39 -15 38 -11 39 -69 38 -171 39 -99 38 -76 
38 -52 39 -46 38 -53 5069 3300 100 MP stroke
gr

36 w
c11
DA
0 sg
6276 4763 mt 
(Error Threshold) s
4533 2843 mt  -90 rotate
(Success Rate) s
90 rotate
SO
6 w
1 sg
0 4046 3814 0 0 -4046 504 4410 4 MP
PP
-3814 0 0 4046 3814 0 0 -4046 504 4410 5 MP stroke
4 w
DO
0 sg
 504 4410 mt  504  364 L
 504  364 mt  504  364 L
1457 4410 mt 1457  364 L
1457  364 mt 1457  364 L
2411 4410 mt 2411  364 L
2411  364 mt 2411  364 L
3364 4410 mt 3364  364 L
3364  364 mt 3364  364 L
4318 4410 mt 4318  364 L
4318  364 mt 4318  364 L
 504 4410 mt 4318 4410 L
4318 4410 mt 4318 4410 L
 504 4005 mt 4318 4005 L
4318 4005 mt 4318 4005 L
 504 3600 mt 4318 3600 L
4318 3600 mt 4318 3600 L
 504 3196 mt 4318 3196 L
4318 3196 mt 4318 3196 L
 504 2791 mt 4318 2791 L
4318 2791 mt 4318 2791 L
 504 2387 mt 4318 2387 L
4318 2387 mt 4318 2387 L
 504 1982 mt 4318 1982 L
4318 1982 mt 4318 1982 L
 504 1577 mt 4318 1577 L
4318 1577 mt 4318 1577 L
 504 1173 mt 4318 1173 L
4318 1173 mt 4318 1173 L
 504  768 mt 4318  768 L
4318  768 mt 4318  768 L
 504  364 mt 4318  364 L
4318  364 mt 4318  364 L
SO
6 w
 504 4410 mt 4318 4410 L
 504 4410 mt  504  364 L
 504 4410 mt  504 4369 L
 462 4601 mt 
(0) s
1457 4410 mt 1457 4369 L
1415 4601 mt 
(5) s
2411 4410 mt 2411 4369 L
2327 4601 mt 
(10) s
3364 4410 mt 3364 4369 L
3280 4601 mt 
(15) s
4318 4410 mt 4318 4369 L
4234 4601 mt 
(20) s
 504 4410 mt  544 4410 L
 385 4472 mt 
(0) s
 504 4005 mt  544 4005 L
 259 4067 mt 
(0.1) s
 504 3600 mt  544 3600 L
 259 3662 mt 
(0.2) s
 504 3196 mt  544 3196 L
 259 3258 mt 
(0.3) s
 504 2791 mt  544 2791 L
 259 2853 mt 
(0.4) s
 504 2387 mt  544 2387 L
 259 2449 mt 
(0.5) s
 504 1982 mt  544 1982 L
 259 2044 mt 
(0.6) s
 504 1577 mt  544 1577 L
 259 1639 mt 
(0.7) s
 504 1173 mt  544 1173 L
 259 1235 mt 
(0.8) s
 504  768 mt  544  768 L
 259  830 mt 
(0.9) s
 504  364 mt  544  364 L
 385  426 mt 
(1) s
2233  617 mt 
(ESM) s
gs 504 364 3815 4047 rc
36 w
c8
37 0 37 -1 36 0 37 -1 36 0 37 0 37 -1 36 0 
37 -1 36 0 37 -2 37 0 36 -2 37 0 36 -2 37 -1 
37 -1 36 -1 37 -2 36 -1 37 -2 37 -2 36 -2 37 -1 
36 -1 37 -1 37 -2 36 -1 37 -2 36 -1 37 -1 37 -1 
36 -2 37 -1 36 -2 37 -1 37 -2 36 -2 37 -1 36 -3 
37 -3 37 -3 36 -2 37 -2 36 -1 37 -3 37 -2 36 -2 
37 -3 36 -3 37 -3 37 -4 36 -4 37 -4 36 -4 37 -4 
37 -4 36 -4 37 -5 36 -4 37 -7 37 -5 36 -5 37 -6 
36 -4 37 -6 37 -6 36 -5 37 -8 36 -10 37 -10 37 -9 
36 -9 37 -11 36 -11 37 -12 37 -11 36 -15 37 -14 36 -14 
37 -16 37 -16 36 -17 37 -23 36 -22 37 -27 37 -28 36 -32 
37 -35 36 -36 37 -50 37 -57 36 -66 37 -79 36 -80 37 -90 
37 -109 36 -118 37 -132 694 2199 100 MP stroke
c9
37 0 37 0 36 0 37 -1 36 0 37 -1 37 0 36 -1 
37 -1 36 0 37 -1 37 -1 36 -1 37 -1 36 -1 37 -1 
37 -1 36 0 37 -1 36 -1 37 -2 37 -2 36 -3 37 -2 
36 -2 37 -4 37 -3 36 -1 37 -2 36 -1 37 -2 37 -1 
36 -2 37 -1 36 -1 37 -2 37 0 36 -1 37 -2 36 -1 
37 -1 37 -1 36 -2 37 -2 36 -2 37 -3 37 -3 36 -3 
37 -3 36 -4 37 -6 37 -7 36 -5 37 -5 36 -6 37 -6 
37 -6 36 -5 37 -7 36 -5 37 -8 37 -8 36 -7 37 -8 
36 -7 37 -11 37 -9 36 -10 37 -11 36 -9 37 -9 37 -13 
36 -17 37 -14 36 -13 37 -15 37 -16 36 -16 37 -15 36 -18 
37 -18 37 -19 36 -24 37 -25 36 -22 37 -32 37 -34 36 -36 
37 -32 36 -38 37 -49 37 -70 36 -75 37 -80 36 -88 37 -102 
37 -114 36 -132 37 -153 694 2330 100 MP stroke
c10
37 -1 37 -2 36 -3 37 -3 36 -2 37 -1 37 -1 36 -2 
37 -2 36 -1 37 -1 37 -1 36 -1 37 -2 36 -2 37 -2 
37 -1 36 -1 37 -1 36 -1 37 -1 37 -2 36 -2 37 -2 
36 -3 37 -5 37 -1 36 -2 37 -2 36 -2 37 -2 37 -2 
36 -2 37 -2 36 -3 37 -2 37 -3 36 -3 37 -3 36 -3 
37 -4 37 -4 36 -4 37 -4 36 -4 37 -4 37 -4 36 -4 
37 -4 36 -7 37 -5 37 -6 36 -5 37 -5 36 -8 37 -5 
37 -5 36 -6 37 -5 36 -6 37 -7 37 -8 36 -6 37 -8 
36 -7 37 -7 37 -9 36 -9 37 -9 36 -8 37 -7 37 -10 
36 -11 37 -11 36 -12 37 -12 37 -14 36 -15 37 -18 36 -20 
37 -19 37 -22 36 -21 37 -18 36 -22 37 -28 37 -42 36 -38 
37 -47 36 -49 37 -56 37 -62 36 -72 37 -73 36 -85 37 -87 
37 -97 36 -98 37 -118 694 2661 100 MP stroke
c11
37 0 37 -1 36 0 37 -1 36 0 37 -1 37 -1 36 0 
37 -1 36 0 37 -1 37 -1 36 0 37 -1 36 -1 37 -1 
37 -1 36 -1 37 -1 36 -1 37 -1 37 -1 36 -1 37 -2 
36 -1 37 -2 37 -2 36 -1 37 -2 36 -1 37 -2 37 -1 
36 -1 37 -2 36 -2 37 -1 37 -4 36 -2 37 -2 36 -2 
37 -1 37 -3 36 -2 37 -4 36 -4 37 -6 37 -5 36 -5 
37 -4 36 -4 37 -4 37 -5 36 -5 37 -4 36 -7 37 -5 
37 -5 36 -8 37 -6 36 -7 37 -8 37 -7 36 -8 37 -7 
36 -7 37 -11 37 -8 36 -7 37 -9 36 -9 37 -9 37 -11 
36 -9 37 -12 36 -10 37 -14 37 -11 36 -13 37 -12 36 -14 
37 -15 37 -17 36 -18 37 -21 36 -21 37 -27 37 -29 36 -29 
37 -35 36 -37 37 -48 37 -57 36 -65 37 -81 36 -85 37 -98 
37 -118 36 -125 37 -161 694 2302 100 MP stroke
DA
c8
37 -3 37 -4 36 -3 37 0 36 -1 37 -4 37 -2 36 -5 
37 -5 36 -7 37 -3 37 -1 36 -2 37 0 36 -2 37 -1 
37 -6 36 -2 37 0 36 -5 37 0 37 0 36 0 37 0 
36 -6 37 -5 37 0 36 -12 37 0 36 -11 37 0 37 0 
36 -2 37 -2 36 -9 37 -1 37 -2 36 -7 37 -3 36 -4 
37 -3 37 -1 36 -6 37 -7 36 -2 37 -3 37 -5 36 -6 
37 -7 36 -11 37 -10 37 -13 36 -8 37 -7 36 -9 37 -7 
37 -9 36 -5 37 -11 36 -5 37 -5 37 -6 36 -4 37 -5 
36 -9 37 -4 37 -5 36 -3 37 -5 36 -4 37 -4 37 -5 
36 -4 37 -3 36 -9 37 -8 37 -5 36 -2 37 -6 36 -6 
37 -7 37 -7 36 -4 37 -10 36 -13 37 -9 37 -11 36 -12 
37 -17 36 -16 37 -13 37 -12 36 -107 37 -285 36 -127 37 -86 
37 -64 36 -54 37 -54 694 3241 100 MP stroke
c9
37 0 37 0 36 -2 37 0 36 -5 37 -1 37 -2 36 -5 
37 -7 36 -2 37 -6 37 -1 36 -5 37 -1 36 -4 37 -1 
37 -2 36 -2 37 -1 36 -3 37 -2 37 -3 36 -2 37 -1 
36 -6 37 -1 37 0 36 -1 37 -1 36 -6 37 -2 37 0 
36 0 37 -6 36 -6 37 -1 37 0 36 -1 37 0 36 -1 
37 -1 37 -3 36 -1 37 -8 36 -1 37 -2 37 -4 36 -7 
37 -6 36 -5 37 -19 37 -12 36 -8 37 -9 36 -6 37 -4 
37 -5 36 -7 37 -8 36 -3 37 -7 37 -7 36 -4 37 -2 
36 -11 37 -5 37 -3 36 -7 37 -4 36 -5 37 -6 37 -6 
36 -1 37 -6 36 -8 37 -4 37 -6 36 -3 37 -4 36 -6 
37 -7 37 -5 36 -7 37 -6 36 -10 37 -9 37 -11 36 -10 
37 -13 36 -16 37 -17 37 -20 36 -78 37 -161 36 -106 37 -77 
37 -79 36 -71 37 -48 694 3319 100 MP stroke
c10
37 0 37 0 36 -3 37 -3 36 -5 37 -7 37 -2 36 -1 
37 -6 36 -18 37 -7 37 -1 36 -4 37 -7 36 -4 37 -1 
37 -7 36 -3 37 -7 36 -3 37 -3 37 0 36 -1 37 -1 
36 -5 37 -2 37 0 36 -6 37 -4 36 -3 37 -4 37 -2 
36 -1 37 -5 36 -5 37 -1 37 -3 36 -2 37 -1 36 -1 
37 -2 37 -3 36 -1 37 -4 36 -5 37 -2 37 -2 36 -5 
37 -10 36 -8 37 -8 37 -12 36 -12 37 -13 36 -6 37 -8 
37 -7 36 -6 37 -6 36 -7 37 -7 37 -8 36 -4 37 -5 
36 -9 37 -7 37 -5 36 -3 37 -7 36 -9 37 -4 37 -5 
36 -4 37 -7 36 -10 37 -7 37 -4 36 -4 37 -9 36 -8 
37 -7 37 -16 36 -11 37 -29 36 -31 37 -22 37 -35 36 -31 
37 -34 36 -38 37 -42 37 -27 36 -165 37 -272 36 -137 37 -113 
37 -78 36 -73 37 -57 694 3549 100 MP stroke
c11
37 0 37 -2 36 0 37 -2 36 0 37 -5 37 0 36 -2 
37 -3 36 -2 37 -9 37 -5 36 -6 37 -6 36 -4 37 -4 
37 -9 36 -3 37 -3 36 -8 37 -2 37 0 36 0 37 0 
36 -4 37 -3 37 0 36 0 37 -1 36 -4 37 -2 37 0 
36 0 37 -2 36 -2 37 -1 37 -2 36 -6 37 -3 36 -4 
37 -4 37 -7 36 0 37 -5 36 -8 37 -3 37 -4 36 -16 
37 -10 36 -8 37 -16 37 -12 36 -14 37 -9 36 -5 37 -5 
37 -6 36 -4 37 -7 36 -5 37 -5 37 -6 36 -4 37 -3 
36 -15 37 -10 37 -4 36 -3 37 -5 36 -5 37 -7 37 -4 
36 -3 37 -14 36 -12 37 -6 37 -9 36 -2 37 -5 36 -13 
37 -10 37 -10 36 -8 37 -11 36 -12 37 -13 37 -16 36 -17 
37 -31 36 -38 37 -20 37 -20 36 -141 37 -242 36 -134 37 -99 
37 -79 36 -64 37 -68 694 3264 100 MP stroke
gr

36 w
c11
DA
0 sg
1816 4772 mt 
(Error Threshold) s
 168 2848 mt  -90 rotate
(Success Rate) s
90 rotate
%%IncludeResource: font Helvetica
/Helvetica /WindowsLatin1Encoding 120 FMSR

 487 4453 mt 
( ) s
4302  406 mt 
( ) s
SO
6 w
1 sg
0 750 864 0 0 -750 12134 3960 4 MP
PP
-864 0 0 750 864 0 0 -750 12134 3960 5 MP stroke
4 w
DO
SO
6 w
0 sg
12134 3210 mt 12998 3210 L
12134 3960 mt 12998 3960 L
12998 3960 mt 12998 3210 L
12134 3960 mt 12134 3210 L
12134 3960 mt 12998 3960 L
12134 3960 mt 12134 3210 L
12134 3210 mt 12998 3210 L
12134 3960 mt 12998 3960 L
12998 3960 mt 12998 3210 L
12134 3960 mt 12134 3210 L
%%IncludeResource: font Times-Bold
/Times-Bold /WindowsLatin1Encoding 120 FMSR

12603 3363 mt 
(RSCV) s
gs 12134 3210 865 751 rc
36 w
c8
360 0 12206 3319 2 MP stroke
gr

36 w
c8
0 sg
12603 3540 mt 
(SCV) s
gs 12134 3210 865 751 rc
c9
360 0 12206 3496 2 MP stroke
gr

c9
0 sg
12603 3717 mt 
(SSD) s
gs 12134 3210 865 751 rc
c10
360 0 12206 3673 2 MP stroke
gr

c10
0 sg
12603 3894 mt 
(NCC) s
gs 12134 3210 865 751 rc
c11
360 0 12206 3850 2 MP stroke
6 w
gr

6 w
c11

end %%Color Dict

eplot
%%EndObject

epage
end

showpage

%%Trailer
%%EOF
