\relax 
\providecommand\hyper@newdestlabel[2]{}
\providecommand\HyperFirstAtBeginDocument{\AtBeginDocument}
\HyperFirstAtBeginDocument{\ifx\hyper@anchor\@undefined
\global\let\oldcontentsline\contentsline
\gdef\contentsline#1#2#3#4{\oldcontentsline{#1}{#2}{#3}}
\global\let\oldnewlabel\newlabel
\gdef\newlabel#1#2{\newlabelxx{#1}#2}
\gdef\newlabelxx#1#2#3#4#5#6{\oldnewlabel{#1}{{#2}{#3}}}
\AtEndDocument{\ifx\hyper@anchor\@undefined
\let\contentsline\oldcontentsline
\let\newlabel\oldnewlabel
\fi}
\fi}
\global\let\hyper@last\relax 
\gdef\HyperFirstAtBeginDocument#1{#1}
\providecommand\HyField@AuxAddToFields[1]{}
\providecommand\HyField@AuxAddToCoFields[2]{}
\citation{Javed2002_app_surveillance}
\citation{Mobus2004_app_targeted_systems}
\citation{Lin2009_augmented_reality}
\citation{Smal2008_app_medical}
\citation{Wu13benchmark}
\citation{Smeulders2014_tracking_survey}
\citation{Kristan2015_vot15}
\citation{Lucas81lucasKanade}
\citation{Baker04lucasKanade_paper}
\citation{Roy2015_tmt}
\citation{Lucas81lucasKanade}
\citation{Baker04lucasKanade_paper}
\citation{Benhimane07_esm_journal}
\citation{Baker04lucasKanade_paper}
\citation{lk}
\citation{Richa11_scv_original}
\citation{Benhimane07_esm_journal}
\citation{Dame10_mi_ict}
\citation{Briechle2001_ncc_template_matching}
\citation{Baker04lucasKanade_paper}
\citation{Briechle2001_ncc_template_matching}
\citation{cvprBenchmark}
\@writefile{toc}{\contentsline {section}{\numberline {I}Introduction}{1}{section.1}}
\newlabel{introduction}{{I}{1}{Introduction}{section.1}{}}
\@writefile{brf}{\backcite{Javed2002_app_surveillance}{{1}{I}{section.1}}}
\@writefile{brf}{\backcite{Mobus2004_app_targeted_systems}{{1}{I}{section.1}}}
\@writefile{brf}{\backcite{Lin2009_augmented_reality}{{1}{I}{section.1}}}
\@writefile{brf}{\backcite{Smal2008_app_medical}{{1}{I}{section.1}}}
\@writefile{brf}{\backcite{Wu13benchmark, Smeulders2014_tracking_survey, Kristan2015_vot15}{{1}{I}{section.1}}}
\@writefile{brf}{\backcite{Lucas81lucasKanade, Baker04lucasKanade_paper}{{1}{I}{section.1}}}
\@writefile{brf}{\backcite{Roy2015_tmt}{{1}{I}{section.1}}}
\@writefile{brf}{\backcite{Lucas81lucasKanade, Baker04lucasKanade_paper, Benhimane07_esm_journal}{{1}{I}{section.1}}}
\@writefile{brf}{\backcite{Baker04lucasKanade_paper}{{1}{I}{section.1}}}
\@writefile{brf}{\backcite{lk}{{1}{I}{section.1}}}
\@writefile{brf}{\backcite{Richa11_scv_original}{{1}{I}{section.1}}}
\@writefile{brf}{\backcite{Benhimane07_esm_journal}{{1}{I}{section.1}}}
\@writefile{brf}{\backcite{Dame10_mi_ict}{{1}{I}{section.1}}}
\@writefile{brf}{\backcite{Briechle2001_ncc_template_matching}{{1}{I}{section.1}}}
\@writefile{brf}{\backcite{Baker04lucasKanade_paper}{{1}{I}{section.1}}}
\@writefile{brf}{\backcite{Briechle2001_ncc_template_matching}{{1}{I}{section.1}}}
\@writefile{brf}{\backcite{cvprBenchmark}{{1}{I}{section.1}}}
\citation{lk}
\citation{ic}
\citation{ic}
\citation{esm}
\citation{esm}
\citation{szeliski}
\citation{ic}
\citation{nnic}
\citation{flann}
\citation{hager1998}
\citation{lk}
\citation{szeliski}
\citation{ic}
\citation{esm}
\citation{nnic}
\citation{nnic}
\citation{ncc2012}
\citation{scv}
\citation{nnic}
\citation{hager}
\@writefile{toc}{\contentsline {section}{\numberline {II}Descriptions of submodules}{2}{section.2}}
\@writefile{lof}{\contentsline {figure}{\numberline {1}{\ignorespaces Modular breakdown of a registration based tracker assuming there is no dynamic update to the appearance model. This shows how different components work, as formulated in Eq \ref  {reg_tracking}}}{2}{figure.1}}
\newlabel{flow}{{1}{2}{Modular breakdown of a registration based tracker assuming there is no dynamic update to the appearance model. This shows how different components work, as formulated in Eq \ref {reg_tracking}}{figure.1}{}}
\newlabel{reg_tracking}{{1}{2}{Descriptions of submodules}{equation.2.1}{}}
\@writefile{toc}{\contentsline {subsection}{\numberline {\unhbox \voidb@x \hbox {II-A}}Search Method}{2}{subsection.2.1}}
\newlabel{searchMethod}{{\unhbox \voidb@x \hbox {II-A}}{2}{Search Method}{subsection.2.1}{}}
\@writefile{brf}{\backcite{lk}{{2}{\unhbox \voidb@x \hbox {II-A}}{subsection.2.1}}}
\@writefile{brf}{\backcite{ic}{{2}{\unhbox \voidb@x \hbox {II-A}}{subsection.2.1}}}
\@writefile{brf}{\backcite{ic}{{2}{\unhbox \voidb@x \hbox {II-A}}{subsection.2.1}}}
\@writefile{brf}{\backcite{esm}{{2}{\unhbox \voidb@x \hbox {II-A}}{subsection.2.1}}}
\@writefile{brf}{\backcite{esm}{{2}{\unhbox \voidb@x \hbox {II-A}}{subsection.2.1}}}
\@writefile{brf}{\backcite{szeliski, ic}{{2}{\unhbox \voidb@x \hbox {II-A}}{subsection.2.1}}}
\@writefile{brf}{\backcite{nnic}{{2}{\unhbox \voidb@x \hbox {II-A}}{subsection.2.1}}}
\@writefile{brf}{\backcite{flann}{{2}{\unhbox \voidb@x \hbox {II-A}}{subsection.2.1}}}
\@writefile{lot}{\contentsline {table}{\numberline {I}{\ignorespaces Search Methods for Tracking}}{2}{table.1}}
\newlabel{search}{{I}{2}{Search Methods for Tracking}{table.1}{}}
\@writefile{brf}{\backcite{hager1998}{{2}{I}{table.1}}}
\@writefile{brf}{\backcite{lk}{{2}{I}{table.1}}}
\@writefile{brf}{\backcite{szeliski}{{2}{I}{table.1}}}
\@writefile{brf}{\backcite{ic}{{2}{I}{table.1}}}
\@writefile{brf}{\backcite{esm}{{2}{I}{table.1}}}
\@writefile{brf}{\backcite{nnic}{{2}{I}{table.1}}}
\@writefile{brf}{\backcite{nnic}{{2}{I}{table.1}}}
\@writefile{toc}{\contentsline {subsection}{\numberline {\unhbox \voidb@x \hbox {II-B}}Appearance Model}{2}{subsection.2.2}}
\newlabel{appearanceModel}{{\unhbox \voidb@x \hbox {II-B}}{2}{Appearance Model}{subsection.2.2}{}}
\@writefile{brf}{\backcite{ncc2012}{{2}{\unhbox \voidb@x \hbox {II-B}}{subsection.2.2}}}
\@writefile{brf}{\backcite{scv}{{2}{\unhbox \voidb@x \hbox {II-B}}{subsection.2.2}}}
\@writefile{brf}{\backcite{nnic,hager}{{2}{\unhbox \voidb@x \hbox {II-B}}{subsection.2.2}}}
\@writefile{brf}{\backcite{}{{2}{\unhbox \voidb@x \hbox {II-B}}{subsection.2.2}}}
\citation{Ruthotto2010_thes_ncc_equivalence}
\citation{Jain2005_ncc_z_score}
\citation{ic}
\citation{lk}
\citation{scv}
\citation{esm}
\citation{nnic}
\citation{Santner2010_ncc}
\citation{esm}
\citation{nnic}
\citation{ncc}
\citation{ncc}
\citation{ncc}
\citation{esm}
\citation{lk}
\citation{ic}
\citation{Hartley:2003:MVG:861369}
\citation{szeliski}
\citation{Hartley:2003:MVG:861369}
\citation{uofa}
\citation{gauglitz}
\citation{nnic}
\citation{metaio}
\citation{bakerMatthews}
\@writefile{brf}{\backcite{Ruthotto2010_thes_ncc_equivalence}{{3}{\unhbox \voidb@x \hbox {II-B}}{subsection.2.2}}}
\@writefile{brf}{\backcite{Jain2005_ncc_z_score}{{3}{\unhbox \voidb@x \hbox {II-B}}{subsection.2.2}}}
\@writefile{lot}{\contentsline {table}{\numberline {II}{\ignorespaces Appearance Models for Tracking}}{3}{table.2}}
\newlabel{tab_appearance}{{II}{3}{Appearance Models for Tracking}{table.2}{}}
\@writefile{brf}{\backcite{ic,lk}{{3}{II}{table.2}}}
\@writefile{brf}{\backcite{scv}{{3}{II}{table.2}}}
\@writefile{brf}{\backcite{esm,nnic}{{3}{II}{table.2}}}
\@writefile{brf}{\backcite{Santner2010_ncc}{{3}{II}{table.2}}}
\@writefile{brf}{\backcite{esm,nnic}{{3}{II}{table.2}}}
\@writefile{brf}{\backcite{ncc}{{3}{II}{table.2}}}
\@writefile{brf}{\backcite{ncc}{{3}{II}{table.2}}}
\@writefile{brf}{\backcite{ncc}{{3}{II}{table.2}}}
\@writefile{toc}{\contentsline {subsection}{\numberline {\unhbox \voidb@x \hbox {II-C}}State Space Model}{3}{subsection.2.3}}
\newlabel{stateSpace}{{\unhbox \voidb@x \hbox {II-C}}{3}{State Space Model}{subsection.2.3}{}}
\@writefile{brf}{\backcite{esm}{{3}{\unhbox \voidb@x \hbox {II-C}}{subsection.2.3}}}
\@writefile{brf}{\backcite{lk,ic}{{3}{\unhbox \voidb@x \hbox {II-C}}{subsection.2.3}}}
\@writefile{brf}{\backcite{Hartley:2003:MVG:861369}{{3}{\unhbox \voidb@x \hbox {II-C}}{subsection.2.3}}}
\@writefile{brf}{\backcite{szeliski}{{3}{\unhbox \voidb@x \hbox {II-C}}{subsection.2.3}}}
\@writefile{brf}{\backcite{Hartley:2003:MVG:861369}{{3}{\unhbox \voidb@x \hbox {II-C}}{subsection.2.3}}}
\@writefile{toc}{\contentsline {section}{\numberline {III}Experimental Results and Analysis}{3}{section.3}}
\newlabel{experiments}{{III}{3}{Experimental Results and Analysis}{section.3}{}}
\@writefile{toc}{\contentsline {subsection}{\numberline {\unhbox \voidb@x \hbox {III-A}}Dataset and Error Metric}{3}{subsection.3.1}}
\@writefile{brf}{\backcite{uofa}{{3}{1}{Item.1}}}
\@writefile{brf}{\backcite{gauglitz}{{3}{2}{Item.2}}}
\@writefile{brf}{\backcite{nnic,metaio}{{3}{\unhbox \voidb@x \hbox {III-A}}{Item.2}}}
\@writefile{toc}{\contentsline {subsection}{\numberline {\unhbox \voidb@x \hbox {III-B}}Evaluation Measures}{3}{subsection.3.2}}
\@writefile{toc}{\contentsline {subsection}{\numberline {\unhbox \voidb@x \hbox {III-C}}Parameters Used}{3}{subsection.3.3}}
\@writefile{toc}{\contentsline {subsection}{\numberline {\unhbox \voidb@x \hbox {III-D}}Results}{3}{subsection.3.4}}
\newlabel{results}{{\unhbox \voidb@x \hbox {III-D}}{3}{Results}{subsection.3.4}{}}
\newlabel{res_sm}{{\unhbox \voidb@x \hbox {III-D}1}{3}{Search Methods}{subsubsection.3.4.1}{}}
\@writefile{toc}{\contentsline {subsubsection}{\numberline {\unhbox \voidb@x \hbox {III-D}1}Search Methods}{3}{figure.3}}
\@writefile{lof}{\contentsline {figure}{\numberline {2}{\ignorespaces Success Rates for all search methods in the TMT dataset plotted against the error threshold.}}{4}{figure.2}}
\newlabel{fig:sm_rscv_8_tmt}{{2}{4}{Success Rates for all search methods in the TMT dataset plotted against the error threshold}{figure.2}{}}
\@writefile{lof}{\contentsline {figure}{\numberline {3}{\ignorespaces Success Rates for all search methods in the UCSB dataset plotted against the error threshold.}}{4}{figure.3}}
\newlabel{fig:sm_rscv_8_ucsb}{{3}{4}{Success Rates for all search methods in the UCSB dataset plotted against the error threshold}{figure.3}{}}
\@writefile{brf}{\backcite{bakerMatthews}{{4}{\unhbox \voidb@x \hbox {III-D}1}{figure.3}}}
\newlabel{res_am}{{\unhbox \voidb@x \hbox {III-D}2}{4}{Appearance Models}{subsubsection.3.4.2}{}}
\@writefile{toc}{\contentsline {subsubsection}{\numberline {\unhbox \voidb@x \hbox {III-D}2}Appearance Models}{4}{figure.4}}
\newlabel{res_ssm}{{\unhbox \voidb@x \hbox {III-D}3}{4}{State Space Models}{subsubsection.3.4.3}{}}
\citation{vot14}
\@writefile{lof}{\contentsline {figure}{\numberline {4}{\ignorespaces Success Rates for all appearance models in both TMT and UCSB datasets plotted against the error threshold. Results for TMT are shown with \textbf  {solid} lines while those for UCSB are shown with \textbf  {dashed} lines}}{5}{figure.4}}
\newlabel{fig:am_8}{{4}{5}{Success Rates for all appearance models in both TMT and UCSB datasets plotted against the error threshold. Results for TMT are shown with \textbf {solid} lines while those for UCSB are shown with \textbf {dashed} lines}{figure.4}{}}
\@writefile{lof}{\contentsline {figure}{\numberline {6}{\ignorespaces Success Rates for 8 search methods using 2DOF SSM as well as for 3 learning based trackers on (a)TMT and (b)UCSB dataset. The former are shown with \textbf  {solid} lines and the latter in \textbf  {dashed} lines. 2DOF ground truth was used for all evaluations.}}{5}{figure.6}}
\newlabel{fig:sm_rscv_2_gt2_speed}{{6}{5}{Success Rates for 8 search methods using 2DOF SSM as well as for 3 learning based trackers on (a)TMT and (b)UCSB dataset. The former are shown with \textbf {solid} lines and the latter in \textbf {dashed} lines. 2DOF ground truth was used for all evaluations}{figure.6}{}}
\@writefile{toc}{\contentsline {subsubsection}{\numberline {\unhbox \voidb@x \hbox {III-D}3}State Space Models}{5}{figure.8}}
\@writefile{brf}{\backcite{vot14}{{5}{\unhbox \voidb@x \hbox {III-D}3}{figure.8}}}
\citation{vot}
\@writefile{lof}{\contentsline {figure}{\numberline {7}{\ignorespaces Success Rates for all state space models in both TMT and UCSB datasets plotted against the error threshold. Note that 8DOF homography has three different parameterizations whose plots overlap perfectly.}}{6}{figure.7}}
\newlabel{fig:ssm_nesm_rscv}{{7}{6}{Success Rates for all state space models in both TMT and UCSB datasets plotted against the error threshold. Note that 8DOF homography has three different parameterizations whose plots overlap perfectly}{figure.7}{}}
\@writefile{lof}{\contentsline {figure}{\numberline {8}{\ignorespaces Speeds in FPS for the different submodules}}{6}{figure.8}}
\newlabel{fig:speed_plots}{{8}{6}{Speeds in FPS for the different submodules}{figure.8}{}}
\@writefile{brf}{\backcite{vot}{{6}{\unhbox \voidb@x \hbox {III-D}3}{figure.8}}}
\citation{esm}
\citation{esm}
\@writefile{lof}{\contentsline {figure}{\numberline {5}{\ignorespaces Success Rates for all search methods in the TMT dataset plotted against the error threshold using NCC AM and 8DOF SSM.}}{7}{figure.5}}
\newlabel{fig:sm_ncc_8_ucsb}{{5}{7}{Success Rates for all search methods in the TMT dataset plotted against the error threshold using NCC AM and 8DOF SSM}{figure.5}{}}
\@writefile{brf}{\backcite{esm}{{7}{\unhbox \voidb@x \hbox {III-D}3}{figure.8}}}
\@writefile{brf}{\backcite{esm}{{7}{\unhbox \voidb@x \hbox {III-D}3}{figure.8}}}
\newlabel{speeds}{{\unhbox \voidb@x \hbox {III-D}4}{7}{Speed Comparisons}{subsubsection.3.4.4}{}}
\@writefile{toc}{\contentsline {subsubsection}{\numberline {\unhbox \voidb@x \hbox {III-D}4}Speed Comparisons}{7}{subsubsection.3.4.4}}
\@writefile{toc}{\contentsline {section}{\numberline {IV}Conclusions and Future Work}{7}{section.4}}
\bibstyle{ieee}
\bibdata{E:/UofA/Thesis/References/references,egbib}
\bibcite{bakerMatthews}{1}
\bibcite{Baker04lucasKanade_paper}{2}
\bibcite{ic}{3}
\bibcite{esm}{4}
\bibcite{Benhimane07_esm_journal}{5}
\bibcite{Briechle2001_ncc_template_matching}{6}
\bibcite{Dame10_mi_ict}{7}
\bibcite{nnic}{8}
\bibcite{gauglitz}{9}
\bibcite{hager1998}{10}
\bibcite{Hartley:2003:MVG:861369}{11}
\bibcite{Jain2005_ncc_z_score}{12}
\bibcite{Javed2002_app_surveillance}{13}
\bibcite{vot14}{14}
\bibcite{vot}{15}
\bibcite{Kristan2015_vot15}{16}
\bibcite{metaio}{17}
\bibcite{Lin2009_augmented_reality}{18}
\bibcite{Lucas81lucasKanade}{19}
\bibcite{lk}{20}
\bibcite{Mobus2004_app_targeted_systems}{21}
\bibcite{flann}{22}
\bibcite{scv}{23}
\bibcite{Richa11_scv_original}{24}
\bibcite{hager}{25}
\bibcite{Roy2015_tmt}{26}
\bibcite{uofa}{27}
\bibcite{Ruthotto2010_thes_ncc_equivalence}{28}
\bibcite{Santner2010_ncc}{29}
\bibcite{ncc}{30}
\bibcite{ncc2012}{31}
\bibcite{Smal2008_app_medical}{32}
\bibcite{Smeulders2014_tracking_survey}{33}
\bibcite{szeliski}{34}
\bibcite{Wu13benchmark}{35}
\bibcite{cvprBenchmark}{36}
\@writefile{toc}{\contentsline {section}{References}{8}{section*.1}}
