%!PS-Adobe-3.0 EPSF-3.0
%%Creator: MATLAB, The MathWorks, Inc. Version 8.1.0.604 (R2013a). Operating System: Microsoft Windows 8.
%%Title: E:\UofA\Thesis\ICRA 2016\sm_ncc_8_tmt.eps
%%CreationDate: 09/15/2015  16:29:48
%%DocumentNeededFonts: Times-Bold
%%+ Helvetica
%%DocumentProcessColors: Cyan Magenta Yellow Black
%%LanguageLevel: 2
%%Pages: 1
%%BoundingBox:    63   192   547   599
%%EndComments

%%BeginProlog
% MathWorks dictionary
/MathWorks 160 dict begin
% definition operators
/bdef {bind def} bind def
/ldef {load def} bind def
/xdef {exch def} bdef
/xstore {exch store} bdef
% operator abbreviations
/c  /clip ldef
/cc /concat ldef
/cp /closepath ldef
/gr /grestore ldef
/gs /gsave ldef
/mt /moveto ldef
/np /newpath ldef
/cm /currentmatrix ldef
/sm /setmatrix ldef
/rm /rmoveto ldef
/rl /rlineto ldef
/s {show newpath} bdef
/sc {setcmykcolor} bdef
/sr /setrgbcolor ldef
/sg /setgray ldef
/w /setlinewidth ldef
/j /setlinejoin ldef
/cap /setlinecap ldef
/rc {rectclip} bdef
/rf {rectfill} bdef
% page state control
/pgsv () def
/bpage {/pgsv save def} bdef
/epage {pgsv restore} bdef
/bplot /gsave ldef
/eplot {stroke grestore} bdef
% orientation switch
/portraitMode 0 def /landscapeMode 1 def /rotateMode 2 def
% coordinate system mappings
/dpi2point 0 def
% font control
/FontSize 0 def
/FMS {/FontSize xstore findfont [FontSize 0 0 FontSize neg 0 0]
  makefont setfont} bdef
/ISOLatin1Encoding where {pop /WindowsLatin1Encoding 256 array bdef
ISOLatin1Encoding WindowsLatin1Encoding copy pop
/.notdef/.notdef/quotesinglbase/florin/quotedblbase/ellipsis/dagger
/daggerdbl/circumflex/perthousand/Scaron/guilsinglleft/OE/.notdef/.notdef
/.notdef/.notdef/quoteleft/quoteright/quotedblleft/quotedblright/bullet
/endash/emdash/tilde/trademark/scaron/guilsinglright/oe/.notdef/.notdef
/Ydieresis WindowsLatin1Encoding 128 32 getinterval astore pop}
{/WindowsLatin1Encoding StandardEncoding bdef} ifelse
/reencode {exch dup where {pop load} {pop StandardEncoding} ifelse
  exch dup 3 1 roll findfont dup length dict begin
  { 1 index /FID ne {def}{pop pop} ifelse } forall
  /Encoding exch def currentdict end definefont pop} bdef
/isroman {findfont /CharStrings get /Agrave known} bdef
/FMSR {3 1 roll 1 index dup isroman {reencode} {pop pop} ifelse
  exch FMS} bdef
/csm {1 dpi2point div -1 dpi2point div scale neg translate
 dup landscapeMode eq {pop -90 rotate}
  {rotateMode eq {90 rotate} if} ifelse} bdef
% line types: solid, dotted, dashed, dotdash
/SO { [] 0 setdash } bdef
/DO { [.5 dpi2point mul 4 dpi2point mul] 0 setdash } bdef
/DA { [6 dpi2point mul] 0 setdash } bdef
/DD { [.5 dpi2point mul 4 dpi2point mul 6 dpi2point mul 4
  dpi2point mul] 0 setdash } bdef
% macros for lines and objects
/L {lineto stroke} bdef
/MP {3 1 roll moveto 1 sub {rlineto} repeat} bdef
/AP {{rlineto} repeat} bdef
/PDlw -1 def
/W {/PDlw currentlinewidth def setlinewidth} def
/PP {closepath eofill} bdef
/DP {closepath stroke} bdef
/MR {4 -2 roll moveto dup  0 exch rlineto exch 0 rlineto
  neg 0 exch rlineto closepath} bdef
/FR {MR stroke} bdef
/PR {MR fill} bdef
/L1i {{currentfile picstr readhexstring pop} image} bdef
/tMatrix matrix def
/MakeOval {newpath tMatrix currentmatrix pop translate scale
0 0 1 0 360 arc tMatrix setmatrix} bdef
/FO {MakeOval stroke} bdef
/PO {MakeOval fill} bdef
/PD {currentlinewidth 2 div 0 360 arc fill
   PDlw -1 eq not {PDlw w /PDlw -1 def} if} def
/FA {newpath tMatrix currentmatrix pop translate scale
  0 0 1 5 -2 roll arc tMatrix setmatrix stroke} bdef
/PA {newpath tMatrix currentmatrix pop	translate 0 0 moveto scale
  0 0 1 5 -2 roll arc closepath tMatrix setmatrix fill} bdef
/FAn {newpath tMatrix currentmatrix pop translate scale
  0 0 1 5 -2 roll arcn tMatrix setmatrix stroke} bdef
/PAn {newpath tMatrix currentmatrix pop translate 0 0 moveto scale
  0 0 1 5 -2 roll arcn closepath tMatrix setmatrix fill} bdef
/vradius 0 def /hradius 0 def /lry 0 def
/lrx 0 def /uly 0 def /ulx 0 def /rad 0 def
/MRR {/vradius xdef /hradius xdef /lry xdef /lrx xdef /uly xdef
  /ulx xdef newpath tMatrix currentmatrix pop ulx hradius add uly
  vradius add translate hradius vradius scale 0 0 1 180 270 arc 
  tMatrix setmatrix lrx hradius sub uly vradius add translate
  hradius vradius scale 0 0 1 270 360 arc tMatrix setmatrix
  lrx hradius sub lry vradius sub translate hradius vradius scale
  0 0 1 0 90 arc tMatrix setmatrix ulx hradius add lry vradius sub
  translate hradius vradius scale 0 0 1 90 180 arc tMatrix setmatrix
  closepath} bdef
/FRR {MRR stroke } bdef
/PRR {MRR fill } bdef
/MlrRR {/lry xdef /lrx xdef /uly xdef /ulx xdef /rad lry uly sub 2 div def
  newpath tMatrix currentmatrix pop ulx rad add uly rad add translate
  rad rad scale 0 0 1 90 270 arc tMatrix setmatrix lrx rad sub lry rad
  sub translate rad rad scale 0 0 1 270 90 arc tMatrix setmatrix
  closepath} bdef
/FlrRR {MlrRR stroke } bdef
/PlrRR {MlrRR fill } bdef
/MtbRR {/lry xdef /lrx xdef /uly xdef /ulx xdef /rad lrx ulx sub 2 div def
  newpath tMatrix currentmatrix pop ulx rad add uly rad add translate
  rad rad scale 0 0 1 180 360 arc tMatrix setmatrix lrx rad sub lry rad
  sub translate rad rad scale 0 0 1 0 180 arc tMatrix setmatrix
  closepath} bdef
/FtbRR {MtbRR stroke } bdef
/PtbRR {MtbRR fill } bdef
/stri 6 array def /dtri 6 array def
/smat 6 array def /dmat 6 array def
/tmat1 6 array def /tmat2 6 array def /dif 3 array def
/asub {/ind2 exch def /ind1 exch def dup dup
  ind1 get exch ind2 get sub exch } bdef
/tri_to_matrix {
  2 0 asub 3 1 asub 4 0 asub 5 1 asub
  dup 0 get exch 1 get 7 -1 roll astore } bdef
/compute_transform {
  dmat dtri tri_to_matrix tmat1 invertmatrix 
  smat stri tri_to_matrix tmat2 concatmatrix } bdef
/ds {stri astore pop} bdef
/dt {dtri astore pop} bdef
/db {2 copy /cols xdef /rows xdef mul dup 3 mul string
  currentfile 
  3 index 0 eq {/ASCIIHexDecode filter}
  {/ASCII85Decode filter 3 index 2 eq {/RunLengthDecode filter} if }
  ifelse exch readstring pop
  dup 0 3 index getinterval /rbmap xdef
  dup 2 index dup getinterval /gbmap xdef
  1 index dup 2 mul exch getinterval /bbmap xdef pop pop}bdef
/it {gs np dtri aload pop moveto lineto lineto cp c
  cols rows 8 compute_transform 
  rbmap gbmap bbmap true 3 colorimage gr}bdef
/il {newpath moveto lineto stroke}bdef
currentdict end def
%%EndProlog

%%BeginSetup
MathWorks begin

0 cap

end
%%EndSetup

%%Page: 1 1
%%BeginPageSetup
%%PageBoundingBox:    63   192   547   599
MathWorks begin
bpage
%%EndPageSetup

%%BeginObject: obj1
bplot

/dpi2point 12 def
portraitMode 0756 7188 csm

    0     0  5813  4878 rc
90 dict begin %Colortable dictionary
/c0 { 0.000000 0.000000 0.000000 sr} bdef
/c1 { 1.000000 1.000000 1.000000 sr} bdef
/c2 { 0.900000 0.000000 0.000000 sr} bdef
/c3 { 0.000000 0.820000 0.000000 sr} bdef
/c4 { 0.000000 0.000000 0.800000 sr} bdef
/c5 { 0.910000 0.820000 0.320000 sr} bdef
/c6 { 1.000000 0.260000 0.820000 sr} bdef
/c7 { 0.000000 0.820000 0.820000 sr} bdef
c0
1 j
1 sg
   0    0 5814 4879 rf
6 w
0 4062 5084 0 0 -4062 630 4428 4 MP
PP
-5084 0 0 4062 5084 0 0 -4062 630 4428 5 MP stroke
4 w
DO
0 sg
 630 4428 mt  630  366 L
 630  366 mt  630  366 L
1138 4428 mt 1138  366 L
1138  366 mt 1138  366 L
1646 4428 mt 1646  366 L
1646  366 mt 1646  366 L
2155 4428 mt 2155  366 L
2155  366 mt 2155  366 L
2663 4428 mt 2663  366 L
2663  366 mt 2663  366 L
3172 4428 mt 3172  366 L
3172  366 mt 3172  366 L
3680 4428 mt 3680  366 L
3680  366 mt 3680  366 L
4188 4428 mt 4188  366 L
4188  366 mt 4188  366 L
4697 4428 mt 4697  366 L
4697  366 mt 4697  366 L
5205 4428 mt 5205  366 L
5205  366 mt 5205  366 L
5714 4428 mt 5714  366 L
5714  366 mt 5714  366 L
 630 4428 mt 5714 4428 L
5714 4428 mt 5714 4428 L
 630 4021 mt 5714 4021 L
5714 4021 mt 5714 4021 L
 630 3615 mt 5714 3615 L
5714 3615 mt 5714 3615 L
 630 3209 mt 5714 3209 L
5714 3209 mt 5714 3209 L
 630 2803 mt 5714 2803 L
5714 2803 mt 5714 2803 L
 630 2397 mt 5714 2397 L
5714 2397 mt 5714 2397 L
 630 1990 mt 5714 1990 L
5714 1990 mt 5714 1990 L
 630 1584 mt 5714 1584 L
5714 1584 mt 5714 1584 L
 630 1178 mt 5714 1178 L
5714 1178 mt 5714 1178 L
 630  772 mt 5714  772 L
5714  772 mt 5714  772 L
 630  366 mt 5714  366 L
5714  366 mt 5714  366 L
SO
6 w
 630 4428 mt 5714 4428 L
 630 4428 mt  630  366 L
 630 4428 mt  630 4377 L
%%IncludeResource: font Times-Bold
/Times-Bold /WindowsLatin1Encoding 168 FMSR

 588 4619 mt 
(0) s
1138 4428 mt 1138 4377 L
1096 4619 mt 
(2) s
1646 4428 mt 1646 4377 L
1604 4619 mt 
(4) s
2155 4428 mt 2155 4377 L
2113 4619 mt 
(6) s
2663 4428 mt 2663 4377 L
2621 4619 mt 
(8) s
3172 4428 mt 3172 4377 L
3088 4619 mt 
(10) s
3680 4428 mt 3680 4377 L
3596 4619 mt 
(12) s
4188 4428 mt 4188 4377 L
4104 4619 mt 
(14) s
4697 4428 mt 4697 4377 L
4613 4619 mt 
(16) s
5205 4428 mt 5205 4377 L
5121 4619 mt 
(18) s
5714 4428 mt 5714 4377 L
5630 4619 mt 
(20) s
 630 4428 mt  680 4428 L
 385 4490 mt 
(0.4) s
 630 4021 mt  680 4021 L
 301 4083 mt 
(0.45) s
 630 3615 mt  680 3615 L
 385 3677 mt 
(0.5) s
 630 3209 mt  680 3209 L
 301 3271 mt 
(0.55) s
 630 2803 mt  680 2803 L
 385 2865 mt 
(0.6) s
 630 2397 mt  680 2397 L
 301 2459 mt 
(0.65) s
 630 1990 mt  680 1990 L
 385 2052 mt 
(0.7) s
 630 1584 mt  680 1584 L
 301 1646 mt 
(0.75) s
 630 1178 mt  680 1178 L
 385 1240 mt 
(0.8) s
 630  772 mt  680  772 L
 301  834 mt 
(0.85) s
 630  366 mt  680  366 L
 385  428 mt 
(0.9) s
1349  235 mt 
(SM Success Rates for NCC/8DOF on TMT Dataset) s
gs 630 366 5085 4063 rc
36 w
/c8 { 1.000000 0.647059 0.000000 sr} bdef
c8
49 -2 49 -1 49 -2 49 -2 48 -1 49 -1 49 -2 49 -1 
49 -1 48 -2 49 -3 49 -2 49 -2 49 -1 48 -2 49 -3 
49 -2 49 -2 48 -1 49 -3 49 -2 49 -4 49 -4 48 -3 
49 -2 49 -4 49 -4 49 -5 48 -3 49 -4 49 -4 49 -4 
48 -3 49 -5 49 -5 49 -4 49 -4 48 -3 49 -3 49 -4 
49 -4 49 -4 48 -4 49 -3 49 -5 49 -6 48 -6 49 -8 
49 -9 49 -8 49 -11 48 -9 49 -11 49 -13 49 -15 49 -11 
48 -14 49 -13 49 -17 49 -13 48 -16 49 -15 49 -15 49 -17 
49 -18 48 -21 49 -33 49 -25 49 -15 49 -19 48 -19 49 -21 
49 -18 49 -23 48 -25 49 -26 49 -28 49 -30 49 -34 48 -33 
49 -37 49 -38 49 -46 49 -47 48 -43 49 -58 49 -62 49 -66 
48 -80 49 -91 49 -105 49 -120 49 -135 48 -151 49 -169 49 -189 
49 -209 49 -271 48 -308 884 3582 100 MP stroke
/c9 { 0.000000 1.000000 0.000000 sr} bdef
c9
49 -1 49 -1 49 0 49 -2 48 -1 49 -1 49 -1 49 -1 
49 -2 48 -1 49 -3 49 -1 49 -2 49 -2 48 -2 49 -3 
49 -1 49 -2 48 -2 49 -2 49 -3 49 -3 49 -2 48 -3 
49 -3 49 -3 49 -4 49 -4 48 -2 49 -3 49 -3 49 -2 
48 -4 49 -2 49 -3 49 -1 49 -3 48 -2 49 -2 49 -2 
49 -2 49 -4 48 -4 49 -3 49 -3 49 -4 48 -5 49 -5 
49 -6 49 -7 49 -6 48 -5 49 -8 49 -9 49 -7 49 -9 
48 -9 49 -8 49 -10 49 -9 48 -11 49 -10 49 -10 49 -10 
49 -10 48 -13 49 -12 49 -13 49 -13 49 -15 48 -12 49 -17 
49 -13 49 -13 48 -20 49 -16 49 -17 49 -19 49 -21 48 -20 
49 -25 49 -25 49 -33 49 -34 48 -33 49 -45 49 -47 49 -51 
48 -62 49 -68 49 -87 49 -110 49 -130 48 -159 49 -169 49 -190 
49 -223 49 -248 48 -269 884 3713 100 MP stroke
/c10 { 0.000000 0.000000 1.000000 sr} bdef
c10
49 -1 49 -1 49 -1 49 -2 48 -1 49 -1 49 -1 49 -1 
49 -2 48 -1 49 -2 49 -2 49 -1 49 -2 48 -2 49 -2 
49 -2 49 -2 48 -2 49 -2 49 -3 49 -4 49 -3 48 -2 
49 -4 49 -3 49 -3 49 -4 48 -3 49 -6 49 -3 49 -4 
48 -5 49 -6 49 -5 49 -4 49 -5 48 -2 49 -5 49 -5 
49 -7 49 -9 48 -13 49 -10 49 -9 49 -9 48 -8 49 -8 
49 -11 49 -9 49 -11 48 -10 49 -11 49 -13 49 -15 49 -13 
48 -13 49 -15 49 -27 49 -20 48 -19 49 -16 49 -15 49 -18 
49 -18 48 -19 49 -19 49 -22 49 -17 49 -20 48 -19 49 -22 
49 -17 49 -25 48 -23 49 -27 49 -29 49 -29 49 -33 48 -30 
49 -34 49 -34 49 -41 49 -42 48 -35 49 -48 49 -56 49 -59 
48 -72 49 -76 49 -91 49 -117 49 -122 48 -144 49 -154 49 -176 
49 -237 49 -255 48 -297 884 3765 100 MP stroke
/c11 { 1.000000 0.000000 0.000000 sr} bdef
c11
49 -1 49 0 49 -1 49 0 48 -1 49 -1 49 -1 49 0 
49 -1 48 -1 49 -1 49 -1 49 -1 49 -1 48 -2 49 -1 
49 -2 49 -3 48 -3 49 -2 49 -2 49 -3 49 -2 48 -2 
49 -3 49 -2 49 -1 49 -2 48 -3 49 -3 49 -3 49 -2 
48 -3 49 -3 49 -2 49 -3 49 -2 48 -3 49 -4 49 -4 
49 -7 49 -5 48 -6 49 -4 49 -4 49 -3 48 -3 49 -4 
49 -4 49 -4 49 -6 48 -6 49 -5 49 -6 49 -7 49 -6 
48 -7 49 -7 49 -8 49 -7 48 -9 49 -8 49 -10 49 -7 
49 -10 48 -12 49 -10 49 -9 49 -10 49 -10 48 -9 49 -11 
49 -11 49 -10 48 -17 49 -15 49 -17 49 -17 49 -19 48 -18 
49 -25 49 -22 49 -28 49 -25 48 -26 49 -34 49 -42 49 -44 
48 -51 49 -59 49 -65 49 -85 49 -96 48 -117 49 -121 49 -150 
49 -183 49 -198 48 -219 884 4148 100 MP stroke
/c12 { 1.000000 0.000000 1.000000 sr} bdef
c12
49 0 49 -1 49 0 49 -2 48 -1 49 -1 49 -1 49 -2 
49 -1 48 -1 49 -2 49 0 49 -2 49 -2 48 -2 49 -1 
49 -2 49 -3 48 -1 49 -2 49 -2 49 -3 49 -2 48 -2 
49 -4 49 -3 49 -4 49 -3 48 -3 49 -3 49 -3 49 -3 
48 -2 49 -4 49 -3 49 -3 49 -8 48 -3 49 -4 49 -4 
49 -3 49 -5 48 -5 49 -7 49 -8 49 -13 48 -11 49 -9 
49 -8 49 -8 49 -8 48 -9 49 -10 49 -9 49 -13 49 -11 
48 -11 49 -14 49 -14 49 -14 48 -15 49 -15 49 -15 49 -15 
49 -14 48 -22 49 -16 49 -14 49 -17 49 -18 48 -18 49 -23 
49 -19 49 -22 48 -22 49 -27 49 -23 49 -25 49 -25 48 -28 
49 -30 49 -34 49 -37 49 -41 48 -43 49 -54 49 -57 49 -58 
48 -72 49 -75 49 -95 49 -114 49 -131 48 -162 49 -172 49 -197 
49 -235 49 -253 48 -322 884 3445 100 MP stroke
/c13 { 0.627451 0.125490 0.941176 sr} bdef
c13
49 -2 49 -2 49 -2 49 -2 48 -2 49 -4 49 -9 49 -2 
49 -1 48 -4 49 -2 49 -1 49 -2 49 -2 48 -3 49 -2 
49 -3 49 -3 48 -3 49 -2 49 -3 49 -4 49 -2 48 -4 
49 -3 49 -3 49 -3 49 -4 48 -2 49 -3 49 -3 49 -4 
48 -6 49 -7 49 -6 49 -4 49 -5 48 -5 49 -5 49 -7 
49 -6 49 -8 48 -6 49 -6 49 -5 49 -7 48 -7 49 -8 
49 -9 49 -7 49 -9 48 -12 49 -11 49 -10 49 -15 49 -11 
48 -9 49 -10 49 -13 49 -12 48 -13 49 -17 49 -19 49 -22 
49 -23 48 -22 49 -23 49 -26 49 -32 49 -35 48 -33 49 -35 
49 -27 49 -33 48 -35 49 -36 49 -41 49 -47 49 -52 48 -55 
49 -54 49 -59 49 -61 49 -64 48 -64 49 -77 49 -79 49 -80 
48 -80 49 -95 49 -102 49 -111 49 -122 48 -156 49 -171 49 -185 
49 -172 49 -180 48 -187 884 4351 100 MP stroke
/c14 { 0.000000 0.392157 0.000000 sr} bdef
c14
49 -3 49 -2 49 -1 49 -3 48 -3 49 -1 49 -2 49 -1 
49 -3 48 -2 49 -3 49 -1 49 -2 49 -3 48 -3 49 -3 
49 -2 49 -1 48 -3 49 -2 49 -3 49 -3 49 -3 48 -2 
49 -4 49 -5 49 -4 49 -4 48 -2 49 -4 49 -3 49 -2 
48 -3 49 -3 49 -3 49 -2 49 -2 48 -3 49 -3 49 -2 
49 -3 49 -3 48 -5 49 -4 49 -5 49 -5 48 -6 49 -6 
49 -8 49 -8 49 -5 48 -7 49 -8 49 -11 49 -9 49 -10 
48 -10 49 -9 49 -10 49 -10 48 -11 49 -14 49 -10 49 -9 
49 -12 48 -14 49 -13 49 -14 49 -12 49 -17 48 -12 49 -18 
49 -13 49 -17 48 -19 49 -17 49 -20 49 -19 49 -22 48 -23 
49 -25 49 -27 49 -37 49 -36 48 -37 49 -50 49 -50 49 -54 
48 -63 49 -66 49 -88 49 -103 49 -126 48 -161 49 -157 49 -187 
49 -224 49 -249 48 -276 884 3580 100 MP stroke
gr

36 w
c14
0 sg
2577 4790 mt 
(Error Threshold) s
 210 2858 mt  -90 rotate
(Success Rate) s
90 rotate
%%IncludeResource: font Helvetica
/Helvetica /WindowsLatin1Encoding 120 FMSR

 613 4471 mt 
( ) s
5698  408 mt 
( ) s
6 w
1 sg
0 1281 864 0 0 -1281 4700 4050 4 MP
PP
-864 0 0 1281 864 0 0 -1281 4700 4050 5 MP stroke
4 w
DO
SO
6 w
0 sg
4700 2769 mt 5564 2769 L
4700 4050 mt 5564 4050 L
5564 4050 mt 5564 2769 L
4700 4050 mt 4700 2769 L
4700 4050 mt 5564 4050 L
4700 4050 mt 4700 2769 L
4700 2769 mt 5564 2769 L
4700 4050 mt 5564 4050 L
5564 4050 mt 5564 2769 L
4700 4050 mt 4700 2769 L
%%IncludeResource: font Times-Bold
/Times-Bold /WindowsLatin1Encoding 120 FMSR

5169 2922 mt 
(FCLK) s
gs 4700 2769 865 1282 rc
36 w
c8
360 0 4772 2878 2 MP stroke
gr

36 w
c8
0 sg
5169 3099 mt 
(ICLK) s
gs 4700 2769 865 1282 rc
c9
360 0 4772 3055 2 MP stroke
gr

c9
0 sg
5169 3276 mt 
(FALK) s
gs 4700 2769 865 1282 rc
c10
360 0 4772 3232 2 MP stroke
gr

c10
0 sg
5169 3453 mt 
(IALK) s
gs 4700 2769 865 1282 rc
c11
360 0 4772 3409 2 MP stroke
gr

c11
0 sg
5169 3630 mt 
(ESM) s
gs 4700 2769 865 1282 rc
c12
360 0 4772 3586 2 MP stroke
gr

c12
0 sg
5169 3807 mt 
(AESM) s
gs 4700 2769 865 1282 rc
c13
360 0 4772 3763 2 MP stroke
gr

c13
0 sg
5169 3984 mt 
(NNIC) s
gs 4700 2769 865 1282 rc
c14
360 0 4772 3940 2 MP stroke
6 w
gr

6 w
c14

end %%Color Dict

eplot
%%EndObject

epage
end

showpage

%%Trailer
%%EOF
