%!PS-Adobe-3.0 EPSF-3.0
%%Creator: MATLAB, The MathWorks, Inc. Version 8.1.0.604 (R2013a). Operating System: Microsoft Windows 8.
%%Title: E:\UofA\Thesis\ICRA 2016\sm_rscv_2_tmt_gt2.eps
%%CreationDate: 09/15/2015  16:26:19
%%DocumentNeededFonts: Times-Bold
%%+ Helvetica
%%DocumentProcessColors: Cyan Magenta Yellow Black
%%LanguageLevel: 2
%%Pages: 1
%%BoundingBox:    53   192   556   599
%%EndComments

%%BeginProlog
% MathWorks dictionary
/MathWorks 160 dict begin
% definition operators
/bdef {bind def} bind def
/ldef {load def} bind def
/xdef {exch def} bdef
/xstore {exch store} bdef
% operator abbreviations
/c  /clip ldef
/cc /concat ldef
/cp /closepath ldef
/gr /grestore ldef
/gs /gsave ldef
/mt /moveto ldef
/np /newpath ldef
/cm /currentmatrix ldef
/sm /setmatrix ldef
/rm /rmoveto ldef
/rl /rlineto ldef
/s {show newpath} bdef
/sc {setcmykcolor} bdef
/sr /setrgbcolor ldef
/sg /setgray ldef
/w /setlinewidth ldef
/j /setlinejoin ldef
/cap /setlinecap ldef
/rc {rectclip} bdef
/rf {rectfill} bdef
% page state control
/pgsv () def
/bpage {/pgsv save def} bdef
/epage {pgsv restore} bdef
/bplot /gsave ldef
/eplot {stroke grestore} bdef
% orientation switch
/portraitMode 0 def /landscapeMode 1 def /rotateMode 2 def
% coordinate system mappings
/dpi2point 0 def
% font control
/FontSize 0 def
/FMS {/FontSize xstore findfont [FontSize 0 0 FontSize neg 0 0]
  makefont setfont} bdef
/ISOLatin1Encoding where {pop /WindowsLatin1Encoding 256 array bdef
ISOLatin1Encoding WindowsLatin1Encoding copy pop
/.notdef/.notdef/quotesinglbase/florin/quotedblbase/ellipsis/dagger
/daggerdbl/circumflex/perthousand/Scaron/guilsinglleft/OE/.notdef/.notdef
/.notdef/.notdef/quoteleft/quoteright/quotedblleft/quotedblright/bullet
/endash/emdash/tilde/trademark/scaron/guilsinglright/oe/.notdef/.notdef
/Ydieresis WindowsLatin1Encoding 128 32 getinterval astore pop}
{/WindowsLatin1Encoding StandardEncoding bdef} ifelse
/reencode {exch dup where {pop load} {pop StandardEncoding} ifelse
  exch dup 3 1 roll findfont dup length dict begin
  { 1 index /FID ne {def}{pop pop} ifelse } forall
  /Encoding exch def currentdict end definefont pop} bdef
/isroman {findfont /CharStrings get /Agrave known} bdef
/FMSR {3 1 roll 1 index dup isroman {reencode} {pop pop} ifelse
  exch FMS} bdef
/csm {1 dpi2point div -1 dpi2point div scale neg translate
 dup landscapeMode eq {pop -90 rotate}
  {rotateMode eq {90 rotate} if} ifelse} bdef
% line types: solid, dotted, dashed, dotdash
/SO { [] 0 setdash } bdef
/DO { [.5 dpi2point mul 4 dpi2point mul] 0 setdash } bdef
/DA { [6 dpi2point mul] 0 setdash } bdef
/DD { [.5 dpi2point mul 4 dpi2point mul 6 dpi2point mul 4
  dpi2point mul] 0 setdash } bdef
% macros for lines and objects
/L {lineto stroke} bdef
/MP {3 1 roll moveto 1 sub {rlineto} repeat} bdef
/AP {{rlineto} repeat} bdef
/PDlw -1 def
/W {/PDlw currentlinewidth def setlinewidth} def
/PP {closepath eofill} bdef
/DP {closepath stroke} bdef
/MR {4 -2 roll moveto dup  0 exch rlineto exch 0 rlineto
  neg 0 exch rlineto closepath} bdef
/FR {MR stroke} bdef
/PR {MR fill} bdef
/L1i {{currentfile picstr readhexstring pop} image} bdef
/tMatrix matrix def
/MakeOval {newpath tMatrix currentmatrix pop translate scale
0 0 1 0 360 arc tMatrix setmatrix} bdef
/FO {MakeOval stroke} bdef
/PO {MakeOval fill} bdef
/PD {currentlinewidth 2 div 0 360 arc fill
   PDlw -1 eq not {PDlw w /PDlw -1 def} if} def
/FA {newpath tMatrix currentmatrix pop translate scale
  0 0 1 5 -2 roll arc tMatrix setmatrix stroke} bdef
/PA {newpath tMatrix currentmatrix pop	translate 0 0 moveto scale
  0 0 1 5 -2 roll arc closepath tMatrix setmatrix fill} bdef
/FAn {newpath tMatrix currentmatrix pop translate scale
  0 0 1 5 -2 roll arcn tMatrix setmatrix stroke} bdef
/PAn {newpath tMatrix currentmatrix pop translate 0 0 moveto scale
  0 0 1 5 -2 roll arcn closepath tMatrix setmatrix fill} bdef
/vradius 0 def /hradius 0 def /lry 0 def
/lrx 0 def /uly 0 def /ulx 0 def /rad 0 def
/MRR {/vradius xdef /hradius xdef /lry xdef /lrx xdef /uly xdef
  /ulx xdef newpath tMatrix currentmatrix pop ulx hradius add uly
  vradius add translate hradius vradius scale 0 0 1 180 270 arc 
  tMatrix setmatrix lrx hradius sub uly vradius add translate
  hradius vradius scale 0 0 1 270 360 arc tMatrix setmatrix
  lrx hradius sub lry vradius sub translate hradius vradius scale
  0 0 1 0 90 arc tMatrix setmatrix ulx hradius add lry vradius sub
  translate hradius vradius scale 0 0 1 90 180 arc tMatrix setmatrix
  closepath} bdef
/FRR {MRR stroke } bdef
/PRR {MRR fill } bdef
/MlrRR {/lry xdef /lrx xdef /uly xdef /ulx xdef /rad lry uly sub 2 div def
  newpath tMatrix currentmatrix pop ulx rad add uly rad add translate
  rad rad scale 0 0 1 90 270 arc tMatrix setmatrix lrx rad sub lry rad
  sub translate rad rad scale 0 0 1 270 90 arc tMatrix setmatrix
  closepath} bdef
/FlrRR {MlrRR stroke } bdef
/PlrRR {MlrRR fill } bdef
/MtbRR {/lry xdef /lrx xdef /uly xdef /ulx xdef /rad lrx ulx sub 2 div def
  newpath tMatrix currentmatrix pop ulx rad add uly rad add translate
  rad rad scale 0 0 1 180 360 arc tMatrix setmatrix lrx rad sub lry rad
  sub translate rad rad scale 0 0 1 0 180 arc tMatrix setmatrix
  closepath} bdef
/FtbRR {MtbRR stroke } bdef
/PtbRR {MtbRR fill } bdef
/stri 6 array def /dtri 6 array def
/smat 6 array def /dmat 6 array def
/tmat1 6 array def /tmat2 6 array def /dif 3 array def
/asub {/ind2 exch def /ind1 exch def dup dup
  ind1 get exch ind2 get sub exch } bdef
/tri_to_matrix {
  2 0 asub 3 1 asub 4 0 asub 5 1 asub
  dup 0 get exch 1 get 7 -1 roll astore } bdef
/compute_transform {
  dmat dtri tri_to_matrix tmat1 invertmatrix 
  smat stri tri_to_matrix tmat2 concatmatrix } bdef
/ds {stri astore pop} bdef
/dt {dtri astore pop} bdef
/db {2 copy /cols xdef /rows xdef mul dup 3 mul string
  currentfile 
  3 index 0 eq {/ASCIIHexDecode filter}
  {/ASCII85Decode filter 3 index 2 eq {/RunLengthDecode filter} if }
  ifelse exch readstring pop
  dup 0 3 index getinterval /rbmap xdef
  dup 2 index dup getinterval /gbmap xdef
  1 index dup 2 mul exch getinterval /bbmap xdef pop pop}bdef
/it {gs np dtri aload pop moveto lineto lineto cp c
  cols rows 8 compute_transform 
  rbmap gbmap bbmap true 3 colorimage gr}bdef
/il {newpath moveto lineto stroke}bdef
currentdict end def
%%EndProlog

%%BeginSetup
MathWorks begin

0 cap

end
%%EndSetup

%%Page: 1 1
%%BeginPageSetup
%%PageBoundingBox:    53   192   556   599
MathWorks begin
bpage
%%EndPageSetup

%%BeginObject: obj1
bplot

/dpi2point 12 def
portraitMode 0636 7188 csm

    0     0  6040  4878 rc
93 dict begin %Colortable dictionary
/c0 { 0.000000 0.000000 0.000000 sr} bdef
/c1 { 1.000000 1.000000 1.000000 sr} bdef
/c2 { 0.900000 0.000000 0.000000 sr} bdef
/c3 { 0.000000 0.820000 0.000000 sr} bdef
/c4 { 0.000000 0.000000 0.800000 sr} bdef
/c5 { 0.910000 0.820000 0.320000 sr} bdef
/c6 { 1.000000 0.260000 0.820000 sr} bdef
/c7 { 0.000000 0.820000 0.820000 sr} bdef
c0
1 j
1 sg
   0    0 6041 4879 rf
6 w
0 4090 5347 0 0 -4090 558 4455 4 MP
PP
-5347 0 0 4090 5347 0 0 -4090 558 4455 5 MP stroke
4 w
DO
0 sg
 558 4455 mt  558  365 L
 558  365 mt  558  365 L
1092 4455 mt 1092  365 L
1092  365 mt 1092  365 L
1627 4455 mt 1627  365 L
1627  365 mt 1627  365 L
2162 4455 mt 2162  365 L
2162  365 mt 2162  365 L
2696 4455 mt 2696  365 L
2696  365 mt 2696  365 L
3231 4455 mt 3231  365 L
3231  365 mt 3231  365 L
3766 4455 mt 3766  365 L
3766  365 mt 3766  365 L
4300 4455 mt 4300  365 L
4300  365 mt 4300  365 L
4835 4455 mt 4835  365 L
4835  365 mt 4835  365 L
5370 4455 mt 5370  365 L
5370  365 mt 5370  365 L
5905 4455 mt 5905  365 L
5905  365 mt 5905  365 L
 558 4455 mt 5905 4455 L
5905 4455 mt 5905 4455 L
 558 4000 mt 5905 4000 L
5905 4000 mt 5905 4000 L
 558 3546 mt 5905 3546 L
5905 3546 mt 5905 3546 L
 558 3092 mt 5905 3092 L
5905 3092 mt 5905 3092 L
 558 2637 mt 5905 2637 L
5905 2637 mt 5905 2637 L
 558 2183 mt 5905 2183 L
5905 2183 mt 5905 2183 L
 558 1728 mt 5905 1728 L
5905 1728 mt 5905 1728 L
 558 1274 mt 5905 1274 L
5905 1274 mt 5905 1274 L
 558  820 mt 5905  820 L
5905  820 mt 5905  820 L
 558  365 mt 5905  365 L
5905  365 mt 5905  365 L
SO
6 w
 558 4455 mt 5905 4455 L
 558 4455 mt  558  365 L
 558 4455 mt  558 4401 L
%%IncludeResource: font Times-Bold
/Times-Bold /WindowsLatin1Encoding 168 FMSR

 516 4646 mt 
(0) s
1092 4455 mt 1092 4401 L
1050 4646 mt 
(2) s
1627 4455 mt 1627 4401 L
1585 4646 mt 
(4) s
2162 4455 mt 2162 4401 L
2120 4646 mt 
(6) s
2696 4455 mt 2696 4401 L
2654 4646 mt 
(8) s
3231 4455 mt 3231 4401 L
3147 4646 mt 
(10) s
3766 4455 mt 3766 4401 L
3682 4646 mt 
(12) s
4300 4455 mt 4300 4401 L
4216 4646 mt 
(14) s
4835 4455 mt 4835 4401 L
4751 4646 mt 
(16) s
5370 4455 mt 5370 4401 L
5286 4646 mt 
(18) s
5905 4455 mt 5905 4401 L
5821 4646 mt 
(20) s
 558 4455 mt  611 4455 L
 439 4517 mt 
(0) s
 558 4000 mt  611 4000 L
 313 4062 mt 
(0.1) s
 558 3546 mt  611 3546 L
 313 3608 mt 
(0.2) s
 558 3092 mt  611 3092 L
 313 3154 mt 
(0.3) s
 558 2637 mt  611 2637 L
 313 2699 mt 
(0.4) s
 558 2183 mt  611 2183 L
 313 2245 mt 
(0.5) s
 558 1728 mt  611 1728 L
 313 1790 mt 
(0.6) s
 558 1274 mt  611 1274 L
 313 1336 mt 
(0.7) s
 558  820 mt  611  820 L
 313  882 mt 
(0.8) s
 558  365 mt  611  365 L
 313  427 mt 
(0.9) s
1362  235 mt 
(SM Success Rates for RSCV/2DOF on TMT Dataset) s
gs 558 366 5348 4090 rc
36 w
/c8 { 1.000000 0.647059 0.000000 sr} bdef
c8
52 -6 51 -6 51 -7 52 -7 51 -6 51 -4 52 -6 51 -7 
51 -7 52 -5 51 -6 51 -7 52 -5 51 -5 51 -5 51 -5 
52 -5 51 -5 51 -5 52 -5 51 -5 51 -5 52 -6 51 -5 
51 -4 52 -4 51 -3 51 -5 51 -5 52 -5 51 -5 51 -5 
52 -6 51 -7 51 -9 52 -5 51 -5 51 -4 52 -6 51 -6 
51 -6 52 -7 51 -10 51 -13 51 -11 52 -8 51 -10 51 -10 
52 -11 51 -10 51 -10 52 -12 51 -11 51 -15 52 -18 51 -17 
51 -23 51 -18 52 -15 51 -11 51 -14 52 -16 51 -14 51 -11 
52 -11 51 -12 51 -15 52 -11 51 -10 51 -12 51 -10 52 -11 
51 -13 51 -14 52 -14 51 -17 51 -17 52 -17 51 -19 51 -24 
52 -25 51 -41 51 -24 52 -19 51 -21 51 -27 51 -29 52 -34 
51 -33 51 -32 52 -35 51 -38 51 -42 52 -45 51 -66 51 -83 
52 -121 51 -152 51 -156 825 2686 100 MP stroke
/c9 { 0.000000 1.000000 0.000000 sr} bdef
c9
52 -2 51 -1 51 -1 52 -1 51 -2 51 -2 52 -1 51 -2 
51 -2 52 -2 51 -2 51 -3 52 -4 51 -2 51 -3 51 -3 
52 -3 51 -2 51 -4 52 -3 51 -4 51 -3 52 -3 51 -3 
51 -3 52 -11 51 -17 51 -5 51 -5 52 -3 51 -4 51 -4 
52 -4 51 -5 51 -4 52 -4 51 -9 51 -17 52 -17 51 -9 
51 -9 52 -6 51 -9 51 -12 51 -9 52 -7 51 -7 51 -7 
52 -8 51 -9 51 -6 52 -6 51 -6 51 -6 52 -6 51 -6 
51 -11 51 -11 52 -9 51 -13 51 -23 52 -12 51 -10 51 -13 
52 -12 51 -12 51 -21 52 -13 51 -12 51 -15 51 -15 52 -17 
51 -15 51 -17 52 -24 51 -22 51 -34 52 -33 51 -24 51 -30 
52 -28 51 -28 51 -29 52 -25 51 -26 51 -31 51 -33 52 -34 
51 -74 51 -55 52 -62 51 -95 51 -66 52 -60 51 -99 51 -113 
52 -93 51 -98 51 -121 825 3856 100 MP stroke
/c10 { 0.000000 0.000000 1.000000 sr} bdef
c10
52 -5 51 -5 51 -5 52 -3 51 -3 51 -4 52 -3 51 -5 
51 -4 52 -4 51 -3 51 -2 52 -4 51 -3 51 -3 51 -3 
52 -3 51 -4 51 -4 52 -4 51 -5 51 -3 52 -5 51 -5 
51 -6 52 -4 51 -4 51 -5 51 -5 52 -4 51 -3 51 -5 
52 -5 51 -7 51 -8 52 -6 51 -4 51 -10 52 -9 51 -7 
51 -9 52 -8 51 -9 51 -12 51 -10 52 -11 51 -10 51 -9 
52 -9 51 -10 51 -13 52 -12 51 -12 51 -16 52 -19 51 -16 
51 -13 51 -12 52 -17 51 -17 51 -17 52 -15 51 -13 51 -12 
52 -10 51 -12 51 -11 52 -9 51 -10 51 -11 51 -15 52 -12 
51 -12 51 -12 52 -11 51 -12 51 -16 52 -17 51 -19 51 -16 
52 -22 51 -22 51 -25 52 -28 51 -32 51 -32 51 -37 52 -38 
51 -41 51 -44 52 -43 51 -44 51 -45 52 -57 51 -63 51 -68 
52 -86 51 -107 51 -137 825 2504 100 MP stroke
/c11 { 1.000000 0.000000 0.000000 sr} bdef
c11
52 -2 51 -1 51 -2 52 -2 51 -1 51 -2 52 -3 51 -2 
51 -3 52 -3 51 -3 51 -3 52 -4 51 -2 51 -4 51 -4 
52 -4 51 -5 51 -3 52 -3 51 -4 51 -3 52 -5 51 -3 
51 -4 52 -3 51 -5 51 -4 51 -6 52 -7 51 -8 51 -8 
52 -6 51 -4 51 -6 52 -8 51 -8 51 -6 52 -10 51 -11 
51 -11 52 -6 51 -6 51 -10 51 -9 52 -9 51 -8 51 -9 
52 -8 51 -9 51 -8 52 -7 51 -12 51 -18 52 -11 51 -8 
51 -8 51 -9 52 -8 51 -10 51 -13 52 -10 51 -11 51 -11 
52 -11 51 -12 51 -10 52 -10 51 -14 51 -11 51 -13 52 -11 
51 -11 51 -9 52 -8 51 -10 51 -11 52 -10 51 -12 51 -14 
52 -15 51 -17 51 -20 52 -22 51 -24 51 -25 51 -25 52 -27 
51 -28 51 -28 52 -32 51 -35 51 -37 52 -41 51 -45 51 -53 
52 -71 51 -80 51 -107 825 2723 100 MP stroke
/c12 { 1.000000 0.000000 1.000000 sr} bdef
c12
52 -2 51 -3 51 -4 52 -2 51 -4 51 -2 52 -4 51 -3 
51 -3 52 -4 51 -6 51 -5 52 -4 51 -5 51 -4 51 -5 
52 -5 51 -6 51 -4 52 -5 51 -4 51 -3 52 -6 51 -6 
51 -5 52 -4 51 -5 51 -7 51 -6 52 -10 51 -7 51 -6 
52 -14 51 -8 51 -5 52 -6 51 -8 51 -7 52 -6 51 -6 
51 -6 52 -6 51 -7 51 -10 51 -11 52 -12 51 -8 51 -12 
52 -12 51 -8 51 -10 52 -12 51 -14 51 -17 52 -14 51 -11 
51 -11 51 -12 52 -11 51 -11 51 -11 52 -14 51 -17 51 -14 
52 -16 51 -14 51 -16 52 -14 51 -11 51 -13 51 -14 52 -13 
51 -13 51 -14 52 -13 51 -19 51 -18 52 -18 51 -21 51 -21 
52 -24 51 -27 51 -36 52 -35 51 -38 51 -41 51 -59 52 -50 
51 -40 51 -37 52 -38 51 -40 51 -65 52 -92 51 -113 51 -116 
52 -136 51 -237 51 -253 825 3064 100 MP stroke
/c13 { 0.627451 0.125490 0.941176 sr} bdef
c13
52 -3 51 -4 51 -3 52 -7 51 -7 51 -7 52 -5 51 -5 
51 -7 52 -8 51 -6 51 -6 52 -5 51 -4 51 -5 51 -6 
52 -5 51 -5 51 -5 52 -5 51 -5 51 -6 52 -7 51 -8 
51 -5 52 -6 51 -6 51 -8 51 -8 52 -8 51 -7 51 -5 
52 -7 51 -7 51 -7 52 -11 51 -16 51 -14 52 -10 51 -7 
51 -8 52 -8 51 -9 51 -9 51 -14 52 -13 51 -12 51 -11 
52 -13 51 -11 51 -10 52 -11 51 -13 51 -12 52 -12 51 -14 
51 -22 51 -15 52 -15 51 -14 51 -15 52 -13 51 -13 51 -16 
52 -13 51 -13 51 -15 52 -12 51 -16 51 -13 51 -13 52 -13 
51 -16 51 -13 52 -15 51 -19 51 -25 52 -26 51 -38 51 -24 
52 -28 51 -27 51 -28 52 -36 51 -38 51 -38 51 -38 52 -39 
51 -39 51 -40 52 -42 51 -43 51 -47 52 -55 51 -57 51 -67 
52 -86 51 -100 51 -130 825 2532 100 MP stroke
/c14 { 0.000000 0.392157 0.000000 sr} bdef
c14
52 -1 51 -1 51 -2 52 -2 51 -1 51 -1 52 -2 51 -2 
51 -2 52 -1 51 -2 51 -3 52 -2 51 -3 51 -3 51 -4 
52 -3 51 -3 51 -3 52 -2 51 -3 51 -2 52 -3 51 -2 
51 -2 52 -3 51 -3 51 -3 51 -5 52 -5 51 -4 51 -5 
52 -4 51 -4 51 -5 52 -4 51 -5 51 -6 52 -9 51 -9 
51 -9 52 -7 51 -6 51 -9 51 -14 52 -13 51 -10 51 -10 
52 -9 51 -9 51 -7 52 -7 51 -8 51 -7 52 -8 51 -7 
51 -9 51 -11 52 -8 51 -11 51 -15 52 -19 51 -14 51 -10 
52 -10 51 -12 51 -16 52 -16 51 -14 51 -14 51 -15 52 -13 
51 -15 51 -16 52 -18 51 -14 51 -17 52 -33 51 -27 51 -21 
52 -28 51 -28 51 -24 52 -23 51 -24 51 -25 51 -27 52 -23 
51 -41 51 -58 52 -78 51 -91 51 -60 52 -53 51 -83 51 -100 
52 -99 51 -89 51 -110 825 3783 100 MP stroke
/c15 { 0.000000 1.000000 1.000000 sr} bdef
c15
52 -5 51 -4 51 -3 52 -5 51 -5 51 -4 52 -4 51 -4 
51 -5 52 -4 51 -5 51 -4 52 -4 51 -5 51 -4 51 -5 
52 -4 51 -4 51 -6 52 -4 51 -5 51 -5 52 -5 51 -7 
51 -5 52 -5 51 -4 51 -4 51 -5 52 -6 51 -6 51 -7 
52 -8 51 -8 51 -8 52 -8 51 -10 51 -9 52 -9 51 -8 
51 -9 52 -9 51 -11 51 -10 51 -9 52 -10 51 -7 51 -10 
52 -10 51 -10 51 -9 52 -8 51 -9 51 -10 52 -12 51 -10 
51 -13 51 -14 52 -14 51 -11 51 -16 52 -15 51 -12 51 -15 
52 -13 51 -15 51 -15 52 -13 51 -17 51 -17 51 -16 52 -18 
51 -16 51 -16 52 -17 51 -17 51 -21 52 -18 51 -21 51 -21 
52 -21 51 -21 51 -24 52 -24 51 -24 51 -33 51 -33 52 -35 
51 -37 51 -34 52 -40 51 -46 51 -55 52 -61 51 -72 51 -86 
52 -96 51 -121 51 -154 825 2640 100 MP stroke
DA
/c16 { 0.956863 0.643137 0.376471 sr} bdef
c16
52 -11 51 -12 51 -11 52 -10 51 -13 51 -12 52 -18 51 -25 
51 -17 52 -19 51 -15 51 -23 52 -32 51 -21 51 -12 51 -10 
52 -11 51 -13 51 -11 52 -16 51 -16 51 -13 52 -19 51 -17 
51 -16 52 -12 51 -13 51 -14 51 -15 52 -12 51 -17 51 -22 
52 -17 51 -18 51 -25 52 -24 51 -22 51 -21 52 -75 51 -35 
51 -21 52 -21 51 -36 51 -72 51 -55 52 -36 51 -32 51 -31 
52 -28 51 -38 51 -26 52 -41 51 -27 51 -25 52 -34 51 -40 
51 -47 51 -29 52 -29 51 -41 51 -62 52 -49 51 -49 51 -37 
52 -63 51 -38 51 -37 52 -34 51 -84 51 -56 51 -78 52 -52 
51 -83 51 -30 52 -29 51 -32 51 -74 52 -62 51 -41 51 -50 
52 -47 51 -33 51 -60 52 -44 51 -42 51 -52 51 -49 52 -59 
51 -27 51 -30 52 -33 51 -29 51 -46 52 -39 51 -53 51 -67 
52 -127 51 -55 51 -72 825 4283 100 MP stroke
/c17 { 0.419608 0.556863 0.137255 sr} bdef
c17
52 -6 51 -6 51 -20 52 -6 51 -6 51 -9 52 -8 51 -7 
51 -7 52 -6 51 -6 51 -6 52 -13 51 -10 51 -13 51 -11 
52 -15 51 -12 51 -13 52 -16 51 -15 51 -11 52 -9 51 -10 
51 -12 52 -10 51 -8 51 -8 51 -18 52 -15 51 -14 51 -17 
52 -19 51 -18 51 -15 52 -13 51 -19 51 -31 52 -23 51 -21 
51 -17 52 -41 51 -44 51 -31 51 -23 52 -46 51 -47 51 -42 
52 -25 51 -33 51 -49 52 -38 51 -32 51 -49 52 -30 51 -42 
51 -36 51 -47 52 -32 51 -50 51 -104 52 -79 51 -39 51 -39 
52 -40 51 -44 51 -74 52 -53 51 -49 51 -58 51 -47 52 -63 
51 -51 51 -57 52 -118 51 -50 51 -70 52 -56 51 -78 51 -62 
52 -63 51 -63 51 -47 52 -58 51 -59 51 -93 51 -67 52 -53 
51 -45 51 -31 52 -42 51 -27 51 -37 52 -71 51 -31 51 -34 
52 -19 51 -19 51 -16 825 4387 100 MP stroke
0 sg
52 -5 51 -6 51 -6 52 -6 51 -7 51 -8 52 -11 51 -9 
51 -9 52 -8 51 -10 51 -10 52 -15 51 -9 51 -12 51 -12 
52 -18 51 -19 51 -18 52 -10 51 -15 51 -16 52 -17 51 -37 
51 -16 52 -27 51 -21 51 -23 51 -18 52 -18 51 -19 51 -25 
52 -35 51 -46 51 -38 52 -28 51 -31 51 -26 52 -27 51 -39 
51 -29 52 -28 51 -28 51 -20 51 -23 52 -36 51 -24 51 -27 
52 -53 51 -31 51 -45 52 -39 51 -37 51 -31 52 -41 51 -39 
51 -43 51 -49 52 -50 51 -31 51 -78 52 -50 51 -50 51 -55 
52 -63 51 -41 51 -57 52 -95 51 -45 51 -50 51 -60 52 -84 
51 -56 51 -100 52 -64 51 -75 51 -61 52 -53 51 -56 51 -72 
52 -51 51 -64 51 -72 52 -47 51 -66 51 -63 51 -59 52 -41 
51 -70 51 -42 52 -46 51 -37 51 -48 52 -53 51 -30 51 -26 
52 -22 51 -38 51 -39 825 4362 100 MP stroke
gr

36 w
DA
2636 4817 mt 
(Error Threshold) s
 222 2871 mt  -90 rotate
(Success Rate) s
90 rotate
%%IncludeResource: font Helvetica
/Helvetica /WindowsLatin1Encoding 120 FMSR

 541 4498 mt 
( ) s
5889  408 mt 
( ) s
SO
6 w
1 sg
0 1989 864 0 0 -1989 4936 4414 4 MP
PP
-864 0 0 1989 864 0 0 -1989 4936 4414 5 MP stroke
4 w
DO
SO
6 w
0 sg
4936 2425 mt 5800 2425 L
4936 4414 mt 5800 4414 L
5800 4414 mt 5800 2425 L
4936 4414 mt 4936 2425 L
4936 4414 mt 5800 4414 L
4936 4414 mt 4936 2425 L
4936 2425 mt 5800 2425 L
4936 4414 mt 5800 4414 L
5800 4414 mt 5800 2425 L
4936 4414 mt 4936 2425 L
%%IncludeResource: font Times-Bold
/Times-Bold /WindowsLatin1Encoding 120 FMSR

5405 2578 mt 
(FCLK) s
gs 4936 2425 865 1990 rc
36 w
c8
360 0 5008 2534 2 MP stroke
gr

36 w
c8
0 sg
5405 2755 mt 
(ICLK) s
gs 4936 2425 865 1990 rc
c9
360 0 5008 2711 2 MP stroke
gr

c9
0 sg
5405 2932 mt 
(FALK) s
gs 4936 2425 865 1990 rc
c10
360 0 5008 2888 2 MP stroke
gr

c10
0 sg
5405 3109 mt 
(IALK) s
gs 4936 2425 865 1990 rc
c11
360 0 5008 3065 2 MP stroke
gr

c11
0 sg
5405 3286 mt 
(ESM) s
gs 4936 2425 865 1990 rc
c12
360 0 5008 3242 2 MP stroke
gr

c12
0 sg
5405 3463 mt 
(AESM) s
gs 4936 2425 865 1990 rc
c13
360 0 5008 3419 2 MP stroke
gr

c13
0 sg
5405 3640 mt 
(NNIC) s
gs 4936 2425 865 1990 rc
c14
360 0 5008 3596 2 MP stroke
gr

c14
0 sg
5405 3817 mt 
(PF) s
gs 4936 2425 865 1990 rc
c15
360 0 5008 3773 2 MP stroke
gr

c15
0 sg
5405 3994 mt 
(TLD) s
gs 4936 2425 865 1990 rc
DA
c16
360 0 5008 3950 2 MP stroke
SO
gr

c16
0 sg
5405 4171 mt 
(KCF) s
gs 4936 2425 865 1990 rc
DA
c17
360 0 5008 4127 2 MP stroke
SO
gr

c17
0 sg
5405 4348 mt 
(DSST) s
gs 4936 2425 865 1990 rc
DA
360 0 5008 4304 2 MP stroke
SO
6 w
gr

6 w

end %%Color Dict

eplot
%%EndObject

epage
end

showpage

%%Trailer
%%EOF
