%!PS-Adobe-3.0 EPSF-3.0
%%Creator: MATLAB, The MathWorks, Inc. Version 8.1.0.604 (R2013a). Operating System: Microsoft Windows 8.
%%Title: E:\UofA\Thesis\ICRA 2016\sm_rscv_8.eps
%%CreationDate: 09/15/2015  17:30:59
%%DocumentNeededFonts: Times-Bold
%%+ Helvetica
%%DocumentProcessColors: Cyan Magenta Yellow Black
%%LanguageLevel: 2
%%Pages: 1
%%BoundingBox:  -232   193   844   598
%%EndComments

%%BeginProlog
% MathWorks dictionary
/MathWorks 160 dict begin
% definition operators
/bdef {bind def} bind def
/ldef {load def} bind def
/xdef {exch def} bdef
/xstore {exch store} bdef
% operator abbreviations
/c  /clip ldef
/cc /concat ldef
/cp /closepath ldef
/gr /grestore ldef
/gs /gsave ldef
/mt /moveto ldef
/np /newpath ldef
/cm /currentmatrix ldef
/sm /setmatrix ldef
/rm /rmoveto ldef
/rl /rlineto ldef
/s {show newpath} bdef
/sc {setcmykcolor} bdef
/sr /setrgbcolor ldef
/sg /setgray ldef
/w /setlinewidth ldef
/j /setlinejoin ldef
/cap /setlinecap ldef
/rc {rectclip} bdef
/rf {rectfill} bdef
% page state control
/pgsv () def
/bpage {/pgsv save def} bdef
/epage {pgsv restore} bdef
/bplot /gsave ldef
/eplot {stroke grestore} bdef
% orientation switch
/portraitMode 0 def /landscapeMode 1 def /rotateMode 2 def
% coordinate system mappings
/dpi2point 0 def
% font control
/FontSize 0 def
/FMS {/FontSize xstore findfont [FontSize 0 0 FontSize neg 0 0]
  makefont setfont} bdef
/ISOLatin1Encoding where {pop /WindowsLatin1Encoding 256 array bdef
ISOLatin1Encoding WindowsLatin1Encoding copy pop
/.notdef/.notdef/quotesinglbase/florin/quotedblbase/ellipsis/dagger
/daggerdbl/circumflex/perthousand/Scaron/guilsinglleft/OE/.notdef/.notdef
/.notdef/.notdef/quoteleft/quoteright/quotedblleft/quotedblright/bullet
/endash/emdash/tilde/trademark/scaron/guilsinglright/oe/.notdef/.notdef
/Ydieresis WindowsLatin1Encoding 128 32 getinterval astore pop}
{/WindowsLatin1Encoding StandardEncoding bdef} ifelse
/reencode {exch dup where {pop load} {pop StandardEncoding} ifelse
  exch dup 3 1 roll findfont dup length dict begin
  { 1 index /FID ne {def}{pop pop} ifelse } forall
  /Encoding exch def currentdict end definefont pop} bdef
/isroman {findfont /CharStrings get /Agrave known} bdef
/FMSR {3 1 roll 1 index dup isroman {reencode} {pop pop} ifelse
  exch FMS} bdef
/csm {1 dpi2point div -1 dpi2point div scale neg translate
 dup landscapeMode eq {pop -90 rotate}
  {rotateMode eq {90 rotate} if} ifelse} bdef
% line types: solid, dotted, dashed, dotdash
/SO { [] 0 setdash } bdef
/DO { [.5 dpi2point mul 4 dpi2point mul] 0 setdash } bdef
/DA { [6 dpi2point mul] 0 setdash } bdef
/DD { [.5 dpi2point mul 4 dpi2point mul 6 dpi2point mul 4
  dpi2point mul] 0 setdash } bdef
% macros for lines and objects
/L {lineto stroke} bdef
/MP {3 1 roll moveto 1 sub {rlineto} repeat} bdef
/AP {{rlineto} repeat} bdef
/PDlw -1 def
/W {/PDlw currentlinewidth def setlinewidth} def
/PP {closepath eofill} bdef
/DP {closepath stroke} bdef
/MR {4 -2 roll moveto dup  0 exch rlineto exch 0 rlineto
  neg 0 exch rlineto closepath} bdef
/FR {MR stroke} bdef
/PR {MR fill} bdef
/L1i {{currentfile picstr readhexstring pop} image} bdef
/tMatrix matrix def
/MakeOval {newpath tMatrix currentmatrix pop translate scale
0 0 1 0 360 arc tMatrix setmatrix} bdef
/FO {MakeOval stroke} bdef
/PO {MakeOval fill} bdef
/PD {currentlinewidth 2 div 0 360 arc fill
   PDlw -1 eq not {PDlw w /PDlw -1 def} if} def
/FA {newpath tMatrix currentmatrix pop translate scale
  0 0 1 5 -2 roll arc tMatrix setmatrix stroke} bdef
/PA {newpath tMatrix currentmatrix pop	translate 0 0 moveto scale
  0 0 1 5 -2 roll arc closepath tMatrix setmatrix fill} bdef
/FAn {newpath tMatrix currentmatrix pop translate scale
  0 0 1 5 -2 roll arcn tMatrix setmatrix stroke} bdef
/PAn {newpath tMatrix currentmatrix pop translate 0 0 moveto scale
  0 0 1 5 -2 roll arcn closepath tMatrix setmatrix fill} bdef
/vradius 0 def /hradius 0 def /lry 0 def
/lrx 0 def /uly 0 def /ulx 0 def /rad 0 def
/MRR {/vradius xdef /hradius xdef /lry xdef /lrx xdef /uly xdef
  /ulx xdef newpath tMatrix currentmatrix pop ulx hradius add uly
  vradius add translate hradius vradius scale 0 0 1 180 270 arc 
  tMatrix setmatrix lrx hradius sub uly vradius add translate
  hradius vradius scale 0 0 1 270 360 arc tMatrix setmatrix
  lrx hradius sub lry vradius sub translate hradius vradius scale
  0 0 1 0 90 arc tMatrix setmatrix ulx hradius add lry vradius sub
  translate hradius vradius scale 0 0 1 90 180 arc tMatrix setmatrix
  closepath} bdef
/FRR {MRR stroke } bdef
/PRR {MRR fill } bdef
/MlrRR {/lry xdef /lrx xdef /uly xdef /ulx xdef /rad lry uly sub 2 div def
  newpath tMatrix currentmatrix pop ulx rad add uly rad add translate
  rad rad scale 0 0 1 90 270 arc tMatrix setmatrix lrx rad sub lry rad
  sub translate rad rad scale 0 0 1 270 90 arc tMatrix setmatrix
  closepath} bdef
/FlrRR {MlrRR stroke } bdef
/PlrRR {MlrRR fill } bdef
/MtbRR {/lry xdef /lrx xdef /uly xdef /ulx xdef /rad lrx ulx sub 2 div def
  newpath tMatrix currentmatrix pop ulx rad add uly rad add translate
  rad rad scale 0 0 1 180 360 arc tMatrix setmatrix lrx rad sub lry rad
  sub translate rad rad scale 0 0 1 0 180 arc tMatrix setmatrix
  closepath} bdef
/FtbRR {MtbRR stroke } bdef
/PtbRR {MtbRR fill } bdef
/stri 6 array def /dtri 6 array def
/smat 6 array def /dmat 6 array def
/tmat1 6 array def /tmat2 6 array def /dif 3 array def
/asub {/ind2 exch def /ind1 exch def dup dup
  ind1 get exch ind2 get sub exch } bdef
/tri_to_matrix {
  2 0 asub 3 1 asub 4 0 asub 5 1 asub
  dup 0 get exch 1 get 7 -1 roll astore } bdef
/compute_transform {
  dmat dtri tri_to_matrix tmat1 invertmatrix 
  smat stri tri_to_matrix tmat2 concatmatrix } bdef
/ds {stri astore pop} bdef
/dt {dtri astore pop} bdef
/db {2 copy /cols xdef /rows xdef mul dup 3 mul string
  currentfile 
  3 index 0 eq {/ASCIIHexDecode filter}
  {/ASCII85Decode filter 3 index 2 eq {/RunLengthDecode filter} if }
  ifelse exch readstring pop
  dup 0 3 index getinterval /rbmap xdef
  dup 2 index dup getinterval /gbmap xdef
  1 index dup 2 mul exch getinterval /bbmap xdef pop pop}bdef
/it {gs np dtri aload pop moveto lineto lineto cp c
  cols rows 8 compute_transform 
  rbmap gbmap bbmap true 3 colorimage gr}bdef
/il {newpath moveto lineto stroke}bdef
currentdict end def
%%EndProlog

%%BeginSetup
MathWorks begin

0 cap

end
%%EndSetup

%%Page: 1 1
%%BeginPageSetup
%%PageBoundingBox:  -232   193   844   598
MathWorks begin
bpage
%%EndPageSetup

%%BeginObject: obj1
bplot

/dpi2point 12 def
portraitMode -2784 7176 csm

    0     0 12923  4860 rc
93 dict begin %Colortable dictionary
/c0 { 0.000000 0.000000 0.000000 sr} bdef
/c1 { 1.000000 1.000000 1.000000 sr} bdef
/c2 { 0.900000 0.000000 0.000000 sr} bdef
/c3 { 0.000000 0.820000 0.000000 sr} bdef
/c4 { 0.000000 0.000000 0.800000 sr} bdef
/c5 { 0.910000 0.820000 0.320000 sr} bdef
/c6 { 1.000000 0.260000 0.820000 sr} bdef
/c7 { 0.000000 0.820000 0.820000 sr} bdef
c0
1 j
1 sg
   0    0 12924 4861 rf
6 w
0 sg
%%IncludeResource: font Times-Bold
/Times-Bold /WindowsLatin1Encoding 168 FMSR

5340  225 mt 
(SM Success Rates for RSCV/8DOF) s
1 sg
0 4046 5409 0 0 -4046 6623 4410 4 MP
PP
-5409 0 0 4046 5409 0 0 -4046 6623 4410 5 MP stroke
4 w
DO
0 sg
6623 4410 mt 6623  364 L
6623  364 mt 6623  364 L
7163 4410 mt 7163  364 L
7163  364 mt 7163  364 L
7704 4410 mt 7704  364 L
7704  364 mt 7704  364 L
8245 4410 mt 8245  364 L
8245  364 mt 8245  364 L
8786 4410 mt 8786  364 L
8786  364 mt 8786  364 L
9327 4410 mt 9327  364 L
9327  364 mt 9327  364 L
9868 4410 mt 9868  364 L
9868  364 mt 9868  364 L
10409 4410 mt 10409  364 L
10409  364 mt 10409  364 L
10950 4410 mt 10950  364 L
10950  364 mt 10950  364 L
11491 4410 mt 11491  364 L
11491  364 mt 11491  364 L
12032 4410 mt 12032  364 L
12032  364 mt 12032  364 L
6623 4410 mt 12032 4410 L
12032 4410 mt 12032 4410 L
6623 4005 mt 12032 4005 L
12032 4005 mt 12032 4005 L
6623 3600 mt 12032 3600 L
12032 3600 mt 12032 3600 L
6623 3196 mt 12032 3196 L
12032 3196 mt 12032 3196 L
6623 2791 mt 12032 2791 L
12032 2791 mt 12032 2791 L
6623 2387 mt 12032 2387 L
12032 2387 mt 12032 2387 L
6623 1982 mt 12032 1982 L
12032 1982 mt 12032 1982 L
6623 1577 mt 12032 1577 L
12032 1577 mt 12032 1577 L
6623 1173 mt 12032 1173 L
12032 1173 mt 12032 1173 L
6623  768 mt 12032  768 L
12032  768 mt 12032  768 L
6623  364 mt 12032  364 L
12032  364 mt 12032  364 L
SO
6 w
6623 4410 mt 12032 4410 L
6623 4410 mt 6623  364 L
6623 4410 mt 6623 4355 L
6581 4601 mt 
(0) s
7163 4410 mt 7163 4355 L
7121 4601 mt 
(2) s
7704 4410 mt 7704 4355 L
7662 4601 mt 
(4) s
8245 4410 mt 8245 4355 L
8203 4601 mt 
(6) s
8786 4410 mt 8786 4355 L
8744 4601 mt 
(8) s
9327 4410 mt 9327 4355 L
9243 4601 mt 
(10) s
9868 4410 mt 9868 4355 L
9784 4601 mt 
(12) s
10409 4410 mt 10409 4355 L
10325 4601 mt 
(14) s
10950 4410 mt 10950 4355 L
10866 4601 mt 
(16) s
11491 4410 mt 11491 4355 L
11407 4601 mt 
(18) s
12032 4410 mt 12032 4355 L
11948 4601 mt 
(20) s
6623 4410 mt 6677 4410 L
6504 4472 mt 
(0) s
6623 4005 mt 6677 4005 L
6378 4067 mt 
(0.1) s
6623 3600 mt 6677 3600 L
6378 3662 mt 
(0.2) s
6623 3196 mt 6677 3196 L
6378 3258 mt 
(0.3) s
6623 2791 mt 6677 2791 L
6378 2853 mt 
(0.4) s
6623 2387 mt 6677 2387 L
6378 2449 mt 
(0.5) s
6623 1982 mt 6677 1982 L
6378 2044 mt 
(0.6) s
6623 1577 mt 6677 1577 L
6378 1639 mt 
(0.7) s
6623 1173 mt 6677 1173 L
6378 1235 mt 
(0.8) s
6623  768 mt 6677  768 L
6378  830 mt 
(0.9) s
6623  364 mt 6677  364 L
6504  426 mt 
(1) s
9157  599 mt 
(UCSB) s
gs 6623 364 5410 4047 rc
36 w
/c8 { 1.000000 0.647059 0.000000 sr} bdef
c8
52 -1 52 -1 52 -7 52 -3 52 -1 52 -4 52 -2 52 -3 
52 -3 52 -1 51 -5 52 -2 52 -6 52 -2 52 -1 52 0 
52 -1 52 -2 52 -1 52 -4 51 -2 52 -1 52 -1 52 -1 
52 -3 52 -1 52 -4 52 -2 52 -2 52 0 52 -7 51 -2 
52 -1 52 -4 52 -3 52 -5 52 -1 52 -5 52 -5 52 -5 
52 -1 51 -5 52 -2 52 -6 52 -3 52 -4 52 -6 52 -2 
52 -3 52 -3 52 -3 52 -2 51 -2 52 -4 52 -4 52 0 
52 -5 52 -3 52 -1 52 -6 52 -6 52 -3 51 -3 52 -2 
52 -1 52 -5 52 -4 52 -6 52 -3 52 -3 52 -5 52 -5 
52 -3 51 -3 52 -5 52 -2 52 -3 52 -3 52 -4 52 -5 
52 -5 52 -3 52 -5 51 -4 52 -4 52 -7 52 -3 52 -3 
52 -10 52 -16 52 -19 52 -46 52 -135 52 -179 51 -168 52 -103 
52 -68 52 -52 52 -63 6893 3418 100 MP stroke
/c9 { 0.000000 1.000000 0.000000 sr} bdef
c9
52 -3 52 -1 52 -1 52 -3 52 -6 52 -1 52 -4 52 -1 
52 -7 52 -3 51 -3 52 -5 52 -4 52 -2 52 -4 52 -3 
52 -1 52 -1 52 -1 52 -1 51 0 52 -1 52 -3 52 0 
52 -3 52 0 52 -1 52 -5 52 -2 52 -2 52 -4 51 -8 
52 -5 52 -2 52 -4 52 -2 52 -6 52 -4 52 -3 52 -3 
52 -7 51 -10 52 -6 52 -9 52 -3 52 -1 52 -3 52 -6 
52 -9 52 -4 52 0 52 -2 51 -5 52 -8 52 -3 52 0 
52 -3 52 -1 52 -5 52 -4 52 -8 52 -7 51 -9 52 -6 
52 -4 52 -9 52 -10 52 -9 52 -8 52 -8 52 -8 52 -8 
52 -20 51 -8 52 -17 52 -13 52 -18 52 -8 52 -19 52 -34 
52 -22 52 -24 52 -36 51 -44 52 -61 52 -43 52 -25 52 -41 
52 -34 52 -47 52 -55 52 -74 52 -82 52 -99 51 -156 52 -152 
52 -130 52 -78 52 -66 6893 4116 100 MP stroke
/c10 { 0.000000 0.000000 1.000000 sr} bdef
c10
52 -5 52 0 52 -4 52 -3 52 -3 52 -5 52 -3 52 -4 
52 -9 52 -3 51 -4 52 -4 52 -2 52 -2 52 -3 52 -1 
52 -3 52 0 52 -2 52 -3 51 -3 52 -1 52 -4 52 -3 
52 -2 52 0 52 -2 52 -5 52 -1 52 -3 52 0 51 -10 
52 -2 52 -4 52 -2 52 -7 52 -2 52 -4 52 -4 52 -1 
52 -12 51 -6 52 -6 52 -8 52 -5 52 -3 52 -4 52 -3 
52 -4 52 -5 52 -6 52 -3 51 -2 52 -2 52 -1 52 0 
52 -5 52 -3 52 -7 52 -3 52 -1 52 -6 51 -3 52 -4 
52 -3 52 -4 52 -7 52 -2 52 -5 52 -4 52 -2 52 -4 
52 -3 51 -4 52 -4 52 -4 52 -3 52 -1 52 -6 52 -5 
52 -7 52 -4 52 -4 51 0 52 -7 52 -3 52 -14 52 -55 
52 -56 52 -68 52 -118 52 -98 52 -96 52 -64 51 -41 52 -42 
52 -35 52 -30 52 -42 6893 3402 100 MP stroke
/c11 { 1.000000 0.000000 0.000000 sr} bdef
c11
52 -2 52 -5 52 0 52 -5 52 -4 52 -1 52 0 52 -3 
52 -3 52 -3 51 -1 52 -1 52 0 52 -1 52 -4 52 -3 
52 -2 52 -3 52 -3 52 0 51 -4 52 0 52 0 52 -7 
52 -4 52 -4 52 -2 52 -4 52 -1 52 -1 52 -3 51 -2 
52 -4 52 -2 52 0 52 -4 52 -5 52 -3 52 -4 52 -2 
52 -1 51 -5 52 0 52 -7 52 -1 52 0 52 -1 52 -6 
52 -3 52 -5 52 -1 52 -2 51 -6 52 -5 52 -5 52 -5 
52 -8 52 -2 52 -1 52 -1 52 0 52 -1 51 -2 52 -3 
52 -9 52 -6 52 -3 52 -5 52 -6 52 -4 52 -5 52 -1 
52 -2 51 -4 52 -1 52 -9 52 -3 52 -7 52 -12 52 -11 
52 -11 52 -7 52 -7 51 -11 52 -5 52 -15 52 -61 52 -67 
52 -61 52 -94 52 -94 52 -90 52 -97 52 -64 51 -42 52 -33 
52 -27 52 -29 52 -39 6893 3310 100 MP stroke
/c12 { 1.000000 0.000000 1.000000 sr} bdef
c12
52 0 52 -1 52 -1 52 -6 52 -1 52 -1 52 -2 52 -8 
52 0 52 -2 51 -5 52 -2 52 0 52 -2 52 -3 52 -9 
52 -2 52 -7 52 -1 52 -2 51 -3 52 0 52 -3 52 -3 
52 0 52 -1 52 -1 52 -6 52 -3 52 -3 52 -6 51 -4 
52 -1 52 -4 52 -1 52 0 52 -2 52 -4 52 -5 52 -3 
52 -6 51 -4 52 -3 52 -6 52 -2 52 -3 52 -1 52 -2 
52 -3 52 -3 52 -2 52 -4 51 -2 52 -8 52 -2 52 -5 
52 -3 52 -5 52 -4 52 -1 52 -3 52 -3 51 -4 52 -4 
52 -4 52 -7 52 -3 52 -5 52 -5 52 -5 52 -4 52 -11 
52 -6 51 -4 52 -6 52 -4 52 -16 52 -5 52 -5 52 -11 
52 -8 52 -6 52 -11 51 -16 52 -42 52 -21 52 -21 52 -26 
52 -23 52 -40 52 -78 52 -106 52 -126 52 -217 51 -267 52 -167 
52 -132 52 -145 52 -160 6893 3484 100 MP stroke
/c13 { 0.627451 0.125490 0.941176 sr} bdef
c13
52 -2 52 -9 52 -4 52 -3 52 -5 52 -3 52 -3 52 -3 
52 -3 52 -1 51 -1 52 -6 52 0 52 -1 52 -1 52 0 
52 -4 52 -1 52 -1 52 -6 51 0 52 -8 52 -1 52 -8 
52 -3 52 -4 52 -2 52 -2 52 -1 52 -4 52 -1 51 -1 
52 -1 52 -5 52 -4 52 -2 52 -7 52 -2 52 -6 52 0 
52 -2 51 -3 52 -2 52 -4 52 -4 52 -3 52 -1 52 -9 
52 0 52 -5 52 -4 52 0 51 -4 52 -3 52 -4 52 -3 
52 -4 52 -3 52 -3 52 -5 52 -2 52 -8 51 -8 52 -17 
52 -4 52 -11 52 -5 52 -5 52 -4 52 -5 52 -6 52 -5 
52 -16 51 -12 52 -10 52 -6 52 -9 52 -19 52 -23 52 -18 
52 -19 52 -18 52 -17 51 -19 52 -20 52 -30 52 -82 52 -82 
52 -107 52 -123 52 -125 52 -138 52 -110 52 -86 51 -61 52 -45 
52 -50 52 -47 52 -46 6893 3274 100 MP stroke
/c14 { 0.000000 0.392157 0.000000 sr} bdef
c14
52 -3 52 -5 52 -1 52 -4 52 -1 52 -1 52 -3 52 -2 
52 -5 52 -2 51 -2 52 -1 52 -2 52 -1 52 -4 52 -3 
52 -8 52 -3 52 -5 52 -1 51 -3 52 -3 52 0 52 -2 
52 -4 52 0 52 -6 52 -2 52 0 52 0 52 -3 51 0 
52 -8 52 -3 52 0 52 -2 52 -1 52 -4 52 -6 52 -3 
52 -1 51 -1 52 -5 52 -6 52 0 52 -3 52 -3 52 -4 
52 -3 52 -6 52 -5 52 -2 51 -3 52 -6 52 -1 52 -1 
52 -1 52 -7 52 -2 52 -3 52 -9 52 -3 51 -5 52 -15 
52 -5 52 -9 52 -8 52 -3 52 -5 52 -13 52 -9 52 -3 
52 -10 51 -11 52 -17 52 -15 52 -14 52 -13 52 -9 52 -21 
52 -27 52 -21 52 -33 51 -33 52 -54 52 -45 52 -32 52 -39 
52 -39 52 -36 52 -68 52 -77 52 -69 52 -94 51 -115 52 -125 
52 -140 52 -80 52 -54 6893 4042 100 MP stroke
/c15 { 0.000000 1.000000 1.000000 sr} bdef
c15
52 0 52 -5 52 0 52 -1 52 0 52 -1 52 -1 52 -7 
52 -1 52 -1 51 -4 52 -4 52 -12 52 -1 52 0 52 -3 
52 -1 52 0 52 0 52 -2 51 0 52 0 52 0 52 -4 
52 -2 52 -1 52 -1 52 -5 52 -2 52 -1 52 -4 51 -3 
52 -3 52 -2 52 -2 52 -1 52 0 52 -2 52 -6 52 -1 
52 -1 51 -6 52 0 52 -2 52 -6 52 -2 52 -2 52 -3 
52 0 52 -4 52 -6 52 -4 51 -7 52 -6 52 -6 52 -6 
52 -2 52 -9 52 -7 52 -11 52 -6 52 -8 51 -6 52 -3 
52 -9 52 -4 52 -12 52 -2 52 -8 52 -6 52 -12 52 -12 
52 -19 51 -9 52 -7 52 -23 52 -20 52 -20 52 -22 52 -30 
52 -38 52 -40 52 -36 51 -58 52 -47 52 -83 52 -73 52 -90 
52 -91 52 -105 52 -96 52 -97 52 -107 52 -105 51 -55 52 -68 
52 -62 52 -58 52 -67 6893 3355 100 MP stroke
DA
/c16 { 0.956863 0.643137 0.376471 sr} bdef
c16
52 0 52 0 52 0 52 -1 52 0 52 0 52 -1 52 0 
52 -2 52 -1 51 -2 52 -1 52 -3 52 -1 52 -1 52 -1 
52 -3 52 -3 52 0 52 -2 51 -1 52 -1 52 -1 52 -3 
52 -3 52 -1 52 -3 52 -3 52 -4 52 -4 52 -5 51 -3 
52 -4 52 -3 52 -5 52 -5 52 -5 52 -6 52 -11 52 -9 
52 -8 51 -11 52 -8 52 -11 52 -19 52 -12 52 -15 52 -12 
52 -13 52 -16 52 -9 52 -15 51 -12 52 -20 52 -10 52 -32 
52 -20 52 -12 52 -15 52 -14 52 -21 52 -18 51 -25 52 -21 
52 -23 52 -36 52 -22 52 -27 52 -32 52 -56 52 -34 52 -47 
52 -57 51 -56 52 -55 52 -94 52 -70 52 -109 52 -53 52 -64 
52 -127 52 -108 52 -114 51 -82 52 -66 52 -66 52 -62 52 -62 
52 -70 52 -76 52 -83 52 -78 52 -98 52 -83 51 -56 52 -48 
52 -31 52 -29 52 -36 6893 4338 100 MP stroke
/c17 { 0.419608 0.556863 0.137255 sr} bdef
c17
52 -5 52 -2 52 -5 52 -2 52 -2 52 -6 52 -1 52 -6 
52 -3 52 -8 51 -3 52 -5 52 -3 52 -3 52 -3 52 -3 
52 -4 52 0 52 -6 52 -2 51 -3 52 -2 52 -5 52 -6 
52 -1 52 -6 52 -1 52 -6 52 -4 52 -1 52 -5 51 -1 
52 -7 52 -2 52 -6 52 -9 52 -7 52 -7 52 -4 52 -10 
52 -6 51 -6 52 -12 52 -2 52 -6 52 -15 52 -7 52 -10 
52 -12 52 -13 52 -12 52 -9 51 -10 52 -19 52 -8 52 -6 
52 -30 52 -31 52 -18 52 -25 52 -15 52 -21 51 -16 52 -19 
52 -38 52 -31 52 -31 52 -28 52 -17 52 -29 52 -31 52 -41 
52 -38 51 -38 52 -168 52 -74 52 -54 52 -28 52 -46 52 -39 
52 -41 52 -44 52 -37 51 -46 52 -62 52 -65 52 -58 52 -45 
52 -55 52 -51 52 -72 52 -42 52 -38 52 -56 51 -31 52 -42 
52 -35 52 -30 52 -28 6893 4219 100 MP stroke
0 sg
52 -1 52 -1 52 -1 52 -4 52 -6 52 -5 52 -1 52 -2 
52 -3 52 -3 51 -2 52 -2 52 -2 52 -2 52 -6 52 -7 
52 -7 52 -9 52 -4 52 -7 51 -4 52 -10 52 -7 52 -7 
52 -8 52 -5 52 -8 52 -7 52 -9 52 -11 52 -13 51 -10 
52 -17 52 -8 52 -20 52 -13 52 -14 52 -17 52 -20 52 -14 
52 -15 51 -16 52 -20 52 -24 52 -15 52 -19 52 -19 52 -14 
52 -19 52 -32 52 -25 52 -19 51 -26 52 -21 52 -35 52 -21 
52 -29 52 -34 52 -35 52 -44 52 -28 52 -30 51 -36 52 -41 
52 -40 52 -37 52 -54 52 -45 52 -65 52 -45 52 -63 52 -69 
52 -53 51 -68 52 -55 52 -93 52 -61 52 -73 52 -111 52 -112 
52 -90 52 -96 52 -66 51 -109 52 -64 52 -97 52 -102 52 -63 
52 -184 52 -135 52 -89 52 -53 52 -46 52 -49 51 -43 52 -31 
52 -29 52 -26 52 -31 6893 4220 100 MP stroke
gr

36 w
DA
8732 4772 mt 
(Error Threshold) s
6287 2848 mt  -90 rotate
(Success Rate) s
90 rotate
SO
6 w
1 sg
0 4064 5518 0 0 -4064 557 4428 4 MP
PP
-5518 0 0 4064 5518 0 0 -4064 557 4428 5 MP stroke
4 w
DO
0 sg
 557 4428 mt  557  364 L
 557  364 mt  557  364 L
1108 4428 mt 1108  364 L
1108  364 mt 1108  364 L
1660 4428 mt 1660  364 L
1660  364 mt 1660  364 L
2212 4428 mt 2212  364 L
2212  364 mt 2212  364 L
2764 4428 mt 2764  364 L
2764  364 mt 2764  364 L
3316 4428 mt 3316  364 L
3316  364 mt 3316  364 L
3867 4428 mt 3867  364 L
3867  364 mt 3867  364 L
4419 4428 mt 4419  364 L
4419  364 mt 4419  364 L
4971 4428 mt 4971  364 L
4971  364 mt 4971  364 L
5523 4428 mt 5523  364 L
5523  364 mt 5523  364 L
6075 4428 mt 6075  364 L
6075  364 mt 6075  364 L
 557 4428 mt 6075 4428 L
6075 4428 mt 6075 4428 L
 557 4021 mt 6075 4021 L
6075 4021 mt 6075 4021 L
 557 3615 mt 6075 3615 L
6075 3615 mt 6075 3615 L
 557 3208 mt 6075 3208 L
6075 3208 mt 6075 3208 L
 557 2802 mt 6075 2802 L
6075 2802 mt 6075 2802 L
 557 2396 mt 6075 2396 L
6075 2396 mt 6075 2396 L
 557 1989 mt 6075 1989 L
6075 1989 mt 6075 1989 L
 557 1583 mt 6075 1583 L
6075 1583 mt 6075 1583 L
 557 1176 mt 6075 1176 L
6075 1176 mt 6075 1176 L
 557  770 mt 6075  770 L
6075  770 mt 6075  770 L
 557  364 mt 6075  364 L
6075  364 mt 6075  364 L
SO
6 w
 557 4428 mt 6075 4428 L
 557 4428 mt  557  364 L
 557 4428 mt  557 4372 L
 515 4619 mt 
(0) s
1108 4428 mt 1108 4372 L
1066 4619 mt 
(2) s
1660 4428 mt 1660 4372 L
1618 4619 mt 
(4) s
2212 4428 mt 2212 4372 L
2170 4619 mt 
(6) s
2764 4428 mt 2764 4372 L
2722 4619 mt 
(8) s
3316 4428 mt 3316 4372 L
3232 4619 mt 
(10) s
3867 4428 mt 3867 4372 L
3783 4619 mt 
(12) s
4419 4428 mt 4419 4372 L
4335 4619 mt 
(14) s
4971 4428 mt 4971 4372 L
4887 4619 mt 
(16) s
5523 4428 mt 5523 4372 L
5439 4619 mt 
(18) s
6075 4428 mt 6075 4372 L
5991 4619 mt 
(20) s
 557 4428 mt  612 4428 L
 438 4490 mt 
(0) s
 557 4021 mt  612 4021 L
 312 4083 mt 
(0.1) s
 557 3615 mt  612 3615 L
 312 3677 mt 
(0.2) s
 557 3208 mt  612 3208 L
 312 3270 mt 
(0.3) s
 557 2802 mt  612 2802 L
 312 2864 mt 
(0.4) s
 557 2396 mt  612 2396 L
 312 2458 mt 
(0.5) s
 557 1989 mt  612 1989 L
 312 2051 mt 
(0.6) s
 557 1583 mt  612 1583 L
 312 1645 mt 
(0.7) s
 557 1176 mt  612 1176 L
 312 1238 mt 
(0.8) s
 557  770 mt  612  770 L
 312  832 mt 
(0.9) s
 557  364 mt  612  364 L
 438  426 mt 
(1) s
3016  592 mt 
(TMT) s
gs 557 364 5519 4065 rc
36 w
c8
53 -5 53 -6 53 -6 53 -6 53 -6 53 -4 53 -5 53 -6 
53 -6 53 -5 53 -6 53 -6 53 -4 53 -4 53 -5 53 -4 
53 -4 53 -5 53 -5 53 -4 52 -4 53 -5 53 -6 53 -4 
53 -4 53 -4 53 -2 53 -4 53 -5 53 -4 53 -4 53 -5 
53 -5 53 -7 53 -8 53 -5 53 -4 53 -3 53 -6 53 -5 
52 -6 53 -6 53 -9 53 -12 53 -9 53 -8 53 -8 53 -10 
53 -9 53 -9 53 -9 53 -11 53 -9 53 -14 53 -16 53 -15 
53 -21 53 -16 53 -13 53 -11 52 -12 53 -14 53 -12 53 -10 
53 -10 53 -11 53 -13 53 -10 53 -10 53 -10 53 -9 53 -10 
53 -11 53 -13 53 -12 53 -15 53 -16 53 -15 53 -17 53 -21 
52 -23 53 -36 53 -22 53 -17 53 -19 53 -24 53 -26 53 -31 
53 -28 53 -29 53 -32 53 -34 53 -37 53 -40 53 -60 53 -74 
53 -108 53 -136 53 -140 832 2846 100 MP stroke
c9
53 -1 53 -1 53 -2 53 -1 53 -1 53 -2 53 -1 53 -1 
53 -3 53 -1 53 -2 53 -3 53 -3 53 -2 53 -3 53 -3 
53 -2 53 -3 53 -2 53 -3 52 -4 53 -2 53 -3 53 -3 
53 -3 53 -9 53 -15 53 -5 53 -4 53 -4 53 -3 53 -3 
53 -4 53 -4 53 -4 53 -3 53 -9 53 -15 53 -15 53 -8 
52 -8 53 -5 53 -9 53 -10 53 -8 53 -7 53 -6 53 -6 
53 -7 53 -8 53 -6 53 -5 53 -6 53 -5 53 -5 53 -6 
53 -10 53 -10 53 -8 53 -11 52 -20 53 -11 53 -10 53 -11 
53 -10 53 -12 53 -18 53 -12 53 -11 53 -13 53 -13 53 -16 
53 -13 53 -15 53 -22 53 -19 53 -31 53 -29 53 -22 53 -27 
52 -25 53 -25 53 -25 53 -23 53 -23 53 -28 53 -30 53 -30 
53 -66 53 -50 53 -55 53 -85 53 -59 53 -54 53 -88 53 -101 
53 -83 53 -88 53 -108 832 3892 100 MP stroke
c10
53 -5 53 -4 53 -4 53 -3 53 -3 53 -3 53 -3 53 -4 
53 -4 53 -4 53 -2 53 -2 53 -4 53 -3 53 -2 53 -3 
53 -3 53 -3 53 -4 53 -3 52 -4 53 -4 53 -4 53 -5 
53 -4 53 -4 53 -4 53 -5 53 -3 53 -4 53 -3 53 -4 
53 -5 53 -6 53 -8 53 -5 53 -4 53 -9 53 -8 53 -6 
52 -7 53 -7 53 -9 53 -10 53 -9 53 -10 53 -9 53 -8 
53 -9 53 -9 53 -11 53 -10 53 -11 53 -15 53 -17 53 -14 
53 -11 53 -12 53 -15 53 -15 52 -15 53 -13 53 -13 53 -10 
53 -9 53 -11 53 -9 53 -8 53 -10 53 -9 53 -14 53 -11 
53 -10 53 -11 53 -10 53 -11 53 -13 53 -16 53 -17 53 -14 
52 -20 53 -20 53 -22 53 -25 53 -28 53 -29 53 -33 53 -34 
53 -37 53 -39 53 -39 53 -39 53 -41 53 -51 53 -56 53 -61 
53 -76 53 -96 53 -123 832 2683 100 MP stroke
c11
53 -2 53 -1 53 -2 53 -1 53 -2 53 -1 53 -2 53 -2 
53 -4 53 -2 53 -3 53 -3 53 -3 53 -2 53 -3 53 -4 
53 -3 53 -5 53 -3 53 -3 52 -3 53 -3 53 -4 53 -3 
53 -3 53 -3 53 -4 53 -4 53 -5 53 -7 53 -6 53 -8 
53 -5 53 -4 53 -5 53 -7 53 -8 53 -5 53 -9 53 -9 
52 -11 53 -5 53 -6 53 -8 53 -9 53 -7 53 -8 53 -7 
53 -8 53 -8 53 -7 53 -6 53 -11 53 -16 53 -10 53 -7 
53 -7 53 -8 53 -7 53 -9 52 -12 53 -9 53 -10 53 -10 
53 -10 53 -10 53 -9 53 -9 53 -12 53 -11 53 -11 53 -10 
53 -9 53 -8 53 -8 53 -9 53 -9 53 -10 53 -10 53 -13 
52 -14 53 -14 53 -19 53 -19 53 -21 53 -23 53 -22 53 -25 
53 -24 53 -26 53 -28 53 -31 53 -33 53 -38 53 -39 53 -48 
53 -63 53 -72 53 -95 832 2878 100 MP stroke
c12
53 -2 53 -3 53 -3 53 -3 53 -3 53 -2 53 -3 53 -3 
53 -3 53 -3 53 -5 53 -5 53 -4 53 -4 53 -3 53 -5 
53 -5 53 -5 53 -4 53 -4 52 -3 53 -3 53 -5 53 -6 
53 -4 53 -4 53 -4 53 -7 53 -5 53 -9 53 -6 53 -5 
53 -13 53 -7 53 -4 53 -6 53 -8 53 -6 53 -5 53 -5 
52 -6 53 -5 53 -6 53 -9 53 -10 53 -11 53 -7 53 -11 
53 -11 53 -7 53 -8 53 -12 53 -12 53 -15 53 -12 53 -10 
53 -10 53 -11 53 -10 53 -10 52 -10 53 -12 53 -15 53 -13 
53 -14 53 -13 53 -14 53 -12 53 -10 53 -12 53 -12 53 -12 
53 -12 53 -12 53 -11 53 -18 53 -16 53 -16 53 -19 53 -18 
52 -22 53 -25 53 -31 53 -32 53 -34 53 -36 53 -53 53 -45 
53 -36 53 -32 53 -35 53 -35 53 -59 53 -82 53 -101 53 -104 
53 -121 53 -212 53 -226 832 3183 100 MP stroke
c13
53 -2 53 -4 53 -3 53 -6 53 -6 53 -7 53 -4 53 -5 
53 -6 53 -7 53 -5 53 -6 53 -5 53 -3 53 -4 53 -5 
53 -5 53 -5 53 -4 53 -5 52 -4 53 -6 53 -6 53 -7 
53 -4 53 -6 53 -5 53 -7 53 -8 53 -6 53 -7 53 -5 
53 -6 53 -6 53 -6 53 -10 53 -14 53 -13 53 -9 53 -6 
52 -7 53 -7 53 -8 53 -8 53 -13 53 -11 53 -11 53 -10 
53 -11 53 -10 53 -9 53 -11 53 -11 53 -10 53 -12 53 -12 
53 -20 53 -13 53 -14 53 -12 52 -14 53 -11 53 -12 53 -14 
53 -12 53 -11 53 -13 53 -12 53 -13 53 -13 53 -11 53 -12 
53 -14 53 -12 53 -13 53 -17 53 -22 53 -24 53 -34 53 -21 
52 -25 53 -24 53 -25 53 -32 53 -34 53 -34 53 -34 53 -36 
53 -34 53 -36 53 -37 53 -39 53 -42 53 -49 53 -51 53 -60 
53 -77 53 -89 53 -117 832 2708 100 MP stroke
c14
53 -1 53 -1 53 -2 53 -1 53 -2 53 -1 53 -1 53 -2 
53 -1 53 -2 53 -2 53 -2 53 -2 53 -2 53 -4 53 -3 
53 -3 53 -3 53 -2 53 -2 52 -2 53 -2 53 -3 53 -2 
53 -2 53 -2 53 -2 53 -4 53 -4 53 -4 53 -4 53 -5 
53 -3 53 -4 53 -4 53 -4 53 -4 53 -6 53 -8 53 -8 
52 -8 53 -6 53 -5 53 -8 53 -13 53 -11 53 -10 53 -8 
53 -9 53 -8 53 -6 53 -6 53 -7 53 -6 53 -7 53 -7 
53 -8 53 -10 53 -7 53 -10 52 -13 53 -18 53 -11 53 -10 
53 -9 53 -10 53 -14 53 -15 53 -12 53 -13 53 -14 53 -11 
53 -13 53 -15 53 -16 53 -13 53 -15 53 -29 53 -24 53 -19 
52 -25 53 -25 53 -22 53 -20 53 -22 53 -22 53 -24 53 -21 
53 -36 53 -52 53 -70 53 -82 53 -53 53 -48 53 -73 53 -91 
53 -88 53 -80 53 -98 832 3827 100 MP stroke
c15
53 -4 53 -4 53 -3 53 -4 53 -5 53 -4 53 -3 53 -4 
53 -4 53 -4 53 -4 53 -4 53 -4 53 -4 53 -3 53 -5 
53 -3 53 -4 53 -5 53 -4 52 -5 53 -4 53 -5 53 -5 
53 -5 53 -4 53 -4 53 -4 53 -4 53 -6 53 -5 53 -6 
53 -7 53 -8 53 -7 53 -7 53 -9 53 -8 53 -8 53 -7 
52 -8 53 -8 53 -10 53 -9 53 -8 53 -9 53 -6 53 -9 
53 -9 53 -9 53 -8 53 -8 53 -7 53 -9 53 -11 53 -9 
53 -12 53 -12 53 -12 53 -10 52 -15 53 -13 53 -11 53 -13 
53 -12 53 -13 53 -14 53 -12 53 -15 53 -15 53 -14 53 -16 
53 -14 53 -15 53 -15 53 -15 53 -19 53 -17 53 -18 53 -19 
52 -18 53 -19 53 -22 53 -21 53 -22 53 -29 53 -29 53 -32 
53 -33 53 -30 53 -36 53 -42 53 -48 53 -55 53 -65 53 -76 
53 -87 53 -107 53 -139 832 2805 100 MP stroke
DA
c16
53 -11 53 -10 53 -10 53 -9 53 -12 53 -11 53 -16 53 -22 
53 -15 53 -17 53 -14 53 -20 53 -28 53 -20 53 -10 53 -9 
53 -11 53 -10 53 -10 53 -15 52 -14 53 -12 53 -17 53 -15 
53 -14 53 -11 53 -12 53 -12 53 -13 53 -12 53 -14 53 -21 
53 -14 53 -17 53 -22 53 -22 53 -19 53 -19 53 -67 53 -32 
52 -18 53 -19 53 -32 53 -65 53 -49 53 -32 53 -28 53 -28 
53 -25 53 -34 53 -23 53 -37 53 -24 53 -23 53 -30 53 -36 
53 -42 53 -26 53 -25 53 -38 52 -55 53 -44 53 -44 53 -33 
53 -56 53 -34 53 -33 53 -31 53 -75 53 -49 53 -70 53 -47 
53 -75 53 -26 53 -26 53 -29 53 -66 53 -55 53 -37 53 -45 
52 -42 53 -29 53 -54 53 -40 53 -37 53 -47 53 -43 53 -53 
53 -24 53 -27 53 -29 53 -26 53 -41 53 -36 53 -47 53 -60 
53 -113 53 -50 53 -64 832 4274 100 MP stroke
c17
53 -5 53 -5 53 -19 53 -5 53 -6 53 -7 53 -7 53 -6 
53 -7 53 -5 53 -5 53 -6 53 -11 53 -10 53 -11 53 -10 
53 -13 53 -11 53 -12 53 -14 52 -14 53 -10 53 -7 53 -9 
53 -11 53 -9 53 -7 53 -8 53 -15 53 -14 53 -12 53 -15 
53 -17 53 -17 53 -13 53 -11 53 -17 53 -29 53 -20 53 -19 
52 -15 53 -37 53 -39 53 -28 53 -20 53 -41 53 -43 53 -37 
53 -23 53 -29 53 -44 53 -34 53 -28 53 -44 53 -27 53 -38 
53 -32 53 -42 53 -29 53 -45 52 -92 53 -71 53 -35 53 -35 
53 -36 53 -39 53 -66 53 -47 53 -44 53 -52 53 -42 53 -56 
53 -46 53 -52 53 -105 53 -44 53 -63 53 -50 53 -70 53 -55 
52 -57 53 -56 53 -42 53 -52 53 -53 53 -83 53 -60 53 -48 
53 -39 53 -29 53 -37 53 -24 53 -33 53 -63 53 -28 53 -31 
53 -17 53 -17 53 -14 832 4367 100 MP stroke
0 sg
53 -5 53 -5 53 -5 53 -6 53 -6 53 -7 53 -10 53 -8 
53 -8 53 -7 53 -9 53 -9 53 -13 53 -8 53 -11 53 -11 
53 -16 53 -17 53 -16 53 -9 52 -13 53 -15 53 -15 53 -33 
53 -14 53 -24 53 -19 53 -21 53 -16 53 -16 53 -17 53 -23 
53 -30 53 -42 53 -34 53 -25 53 -28 53 -23 53 -24 53 -35 
52 -26 53 -25 53 -25 53 -18 53 -21 53 -32 53 -21 53 -25 
53 -47 53 -27 53 -40 53 -36 53 -33 53 -27 53 -37 53 -35 
53 -38 53 -44 53 -45 53 -28 52 -69 53 -46 53 -44 53 -49 
53 -56 53 -37 53 -51 53 -85 53 -41 53 -44 53 -54 53 -74 
53 -51 53 -89 53 -58 53 -67 53 -54 53 -47 53 -51 53 -64 
52 -46 53 -57 53 -65 53 -42 53 -58 53 -57 53 -53 53 -36 
53 -63 53 -38 53 -41 53 -33 53 -43 53 -47 53 -27 53 -23 
53 -20 53 -34 53 -35 832 4345 100 MP stroke
gr

36 w
DA
2721 4790 mt 
(Error Threshold) s
 221 2857 mt  -90 rotate
(Success Rate) s
90 rotate
%%IncludeResource: font Helvetica
/Helvetica /WindowsLatin1Encoding 120 FMSR

 540 4471 mt 
( ) s
6059  406 mt 
( ) s
SO
6 w
1 sg
0 1989 864 0 0 -1989 12047 2343 4 MP
PP
-864 0 0 1989 864 0 0 -1989 12047 2343 5 MP stroke
4 w
DO
SO
6 w
0 sg
12047  354 mt 12911  354 L
12047 2343 mt 12911 2343 L
12911 2343 mt 12911  354 L
12047 2343 mt 12047  354 L
12047 2343 mt 12911 2343 L
12047 2343 mt 12047  354 L
12047  354 mt 12911  354 L
12047 2343 mt 12911 2343 L
12911 2343 mt 12911  354 L
12047 2343 mt 12047  354 L
%%IncludeResource: font Times-Bold
/Times-Bold /WindowsLatin1Encoding 120 FMSR

12516  507 mt 
(FCLK) s
gs 12047 354 865 1990 rc
36 w
c8
360 0 12119 463 2 MP stroke
gr

36 w
c8
0 sg
12516  684 mt 
(ICLK) s
gs 12047 354 865 1990 rc
c9
360 0 12119 640 2 MP stroke
gr

c9
0 sg
12516  861 mt 
(FALK) s
gs 12047 354 865 1990 rc
c10
360 0 12119 817 2 MP stroke
gr

c10
0 sg
12516 1038 mt 
(IALK) s
gs 12047 354 865 1990 rc
c11
360 0 12119 994 2 MP stroke
gr

c11
0 sg
12516 1215 mt 
(ESM) s
gs 12047 354 865 1990 rc
c12
360 0 12119 1171 2 MP stroke
gr

c12
0 sg
12516 1392 mt 
(AESM) s
gs 12047 354 865 1990 rc
c13
360 0 12119 1348 2 MP stroke
gr

c13
0 sg
12516 1569 mt 
(NNIC) s
gs 12047 354 865 1990 rc
c14
360 0 12119 1525 2 MP stroke
gr

c14
0 sg
12516 1746 mt 
(PF) s
gs 12047 354 865 1990 rc
c15
360 0 12119 1702 2 MP stroke
gr

c15
0 sg
12516 1923 mt 
(TLD) s
gs 12047 354 865 1990 rc
DA
c16
360 0 12119 1879 2 MP stroke
SO
gr

c16
0 sg
12516 2100 mt 
(KCF) s
gs 12047 354 865 1990 rc
DA
c17
360 0 12119 2056 2 MP stroke
SO
gr

c17
0 sg
12516 2277 mt 
(DSST) s
gs 12047 354 865 1990 rc
DA
360 0 12119 2233 2 MP stroke
SO
6 w
gr

6 w

end %%Color Dict

eplot
%%EndObject

epage
end

showpage

%%Trailer
%%EOF
