%!PS-Adobe-3.0 EPSF-3.0
%%Creator: MATLAB, The MathWorks, Inc. Version 8.1.0.604 (R2013a). Operating System: Microsoft Windows 8.
%%Title: E:\UofA\Thesis\ICRA 2016\sm_rscv_2_ucsb.eps
%%CreationDate: 09/15/2015  01:48:47
%%DocumentNeededFonts: Times-Roman
%%+ Helvetica
%%DocumentProcessColors: Cyan Magenta Yellow Black
%%LanguageLevel: 2
%%Pages: 1
%%BoundingBox:    96   191   515   599
%%EndComments

%%BeginProlog
% MathWorks dictionary
/MathWorks 160 dict begin
% definition operators
/bdef {bind def} bind def
/ldef {load def} bind def
/xdef {exch def} bdef
/xstore {exch store} bdef
% operator abbreviations
/c  /clip ldef
/cc /concat ldef
/cp /closepath ldef
/gr /grestore ldef
/gs /gsave ldef
/mt /moveto ldef
/np /newpath ldef
/cm /currentmatrix ldef
/sm /setmatrix ldef
/rm /rmoveto ldef
/rl /rlineto ldef
/s {show newpath} bdef
/sc {setcmykcolor} bdef
/sr /setrgbcolor ldef
/sg /setgray ldef
/w /setlinewidth ldef
/j /setlinejoin ldef
/cap /setlinecap ldef
/rc {rectclip} bdef
/rf {rectfill} bdef
% page state control
/pgsv () def
/bpage {/pgsv save def} bdef
/epage {pgsv restore} bdef
/bplot /gsave ldef
/eplot {stroke grestore} bdef
% orientation switch
/portraitMode 0 def /landscapeMode 1 def /rotateMode 2 def
% coordinate system mappings
/dpi2point 0 def
% font control
/FontSize 0 def
/FMS {/FontSize xstore findfont [FontSize 0 0 FontSize neg 0 0]
  makefont setfont} bdef
/ISOLatin1Encoding where {pop /WindowsLatin1Encoding 256 array bdef
ISOLatin1Encoding WindowsLatin1Encoding copy pop
/.notdef/.notdef/quotesinglbase/florin/quotedblbase/ellipsis/dagger
/daggerdbl/circumflex/perthousand/Scaron/guilsinglleft/OE/.notdef/.notdef
/.notdef/.notdef/quoteleft/quoteright/quotedblleft/quotedblright/bullet
/endash/emdash/tilde/trademark/scaron/guilsinglright/oe/.notdef/.notdef
/Ydieresis WindowsLatin1Encoding 128 32 getinterval astore pop}
{/WindowsLatin1Encoding StandardEncoding bdef} ifelse
/reencode {exch dup where {pop load} {pop StandardEncoding} ifelse
  exch dup 3 1 roll findfont dup length dict begin
  { 1 index /FID ne {def}{pop pop} ifelse } forall
  /Encoding exch def currentdict end definefont pop} bdef
/isroman {findfont /CharStrings get /Agrave known} bdef
/FMSR {3 1 roll 1 index dup isroman {reencode} {pop pop} ifelse
  exch FMS} bdef
/csm {1 dpi2point div -1 dpi2point div scale neg translate
 dup landscapeMode eq {pop -90 rotate}
  {rotateMode eq {90 rotate} if} ifelse} bdef
% line types: solid, dotted, dashed, dotdash
/SO { [] 0 setdash } bdef
/DO { [.5 dpi2point mul 4 dpi2point mul] 0 setdash } bdef
/DA { [6 dpi2point mul] 0 setdash } bdef
/DD { [.5 dpi2point mul 4 dpi2point mul 6 dpi2point mul 4
  dpi2point mul] 0 setdash } bdef
% macros for lines and objects
/L {lineto stroke} bdef
/MP {3 1 roll moveto 1 sub {rlineto} repeat} bdef
/AP {{rlineto} repeat} bdef
/PDlw -1 def
/W {/PDlw currentlinewidth def setlinewidth} def
/PP {closepath eofill} bdef
/DP {closepath stroke} bdef
/MR {4 -2 roll moveto dup  0 exch rlineto exch 0 rlineto
  neg 0 exch rlineto closepath} bdef
/FR {MR stroke} bdef
/PR {MR fill} bdef
/L1i {{currentfile picstr readhexstring pop} image} bdef
/tMatrix matrix def
/MakeOval {newpath tMatrix currentmatrix pop translate scale
0 0 1 0 360 arc tMatrix setmatrix} bdef
/FO {MakeOval stroke} bdef
/PO {MakeOval fill} bdef
/PD {currentlinewidth 2 div 0 360 arc fill
   PDlw -1 eq not {PDlw w /PDlw -1 def} if} def
/FA {newpath tMatrix currentmatrix pop translate scale
  0 0 1 5 -2 roll arc tMatrix setmatrix stroke} bdef
/PA {newpath tMatrix currentmatrix pop	translate 0 0 moveto scale
  0 0 1 5 -2 roll arc closepath tMatrix setmatrix fill} bdef
/FAn {newpath tMatrix currentmatrix pop translate scale
  0 0 1 5 -2 roll arcn tMatrix setmatrix stroke} bdef
/PAn {newpath tMatrix currentmatrix pop translate 0 0 moveto scale
  0 0 1 5 -2 roll arcn closepath tMatrix setmatrix fill} bdef
/vradius 0 def /hradius 0 def /lry 0 def
/lrx 0 def /uly 0 def /ulx 0 def /rad 0 def
/MRR {/vradius xdef /hradius xdef /lry xdef /lrx xdef /uly xdef
  /ulx xdef newpath tMatrix currentmatrix pop ulx hradius add uly
  vradius add translate hradius vradius scale 0 0 1 180 270 arc 
  tMatrix setmatrix lrx hradius sub uly vradius add translate
  hradius vradius scale 0 0 1 270 360 arc tMatrix setmatrix
  lrx hradius sub lry vradius sub translate hradius vradius scale
  0 0 1 0 90 arc tMatrix setmatrix ulx hradius add lry vradius sub
  translate hradius vradius scale 0 0 1 90 180 arc tMatrix setmatrix
  closepath} bdef
/FRR {MRR stroke } bdef
/PRR {MRR fill } bdef
/MlrRR {/lry xdef /lrx xdef /uly xdef /ulx xdef /rad lry uly sub 2 div def
  newpath tMatrix currentmatrix pop ulx rad add uly rad add translate
  rad rad scale 0 0 1 90 270 arc tMatrix setmatrix lrx rad sub lry rad
  sub translate rad rad scale 0 0 1 270 90 arc tMatrix setmatrix
  closepath} bdef
/FlrRR {MlrRR stroke } bdef
/PlrRR {MlrRR fill } bdef
/MtbRR {/lry xdef /lrx xdef /uly xdef /ulx xdef /rad lrx ulx sub 2 div def
  newpath tMatrix currentmatrix pop ulx rad add uly rad add translate
  rad rad scale 0 0 1 180 360 arc tMatrix setmatrix lrx rad sub lry rad
  sub translate rad rad scale 0 0 1 0 180 arc tMatrix setmatrix
  closepath} bdef
/FtbRR {MtbRR stroke } bdef
/PtbRR {MtbRR fill } bdef
/stri 6 array def /dtri 6 array def
/smat 6 array def /dmat 6 array def
/tmat1 6 array def /tmat2 6 array def /dif 3 array def
/asub {/ind2 exch def /ind1 exch def dup dup
  ind1 get exch ind2 get sub exch } bdef
/tri_to_matrix {
  2 0 asub 3 1 asub 4 0 asub 5 1 asub
  dup 0 get exch 1 get 7 -1 roll astore } bdef
/compute_transform {
  dmat dtri tri_to_matrix tmat1 invertmatrix 
  smat stri tri_to_matrix tmat2 concatmatrix } bdef
/ds {stri astore pop} bdef
/dt {dtri astore pop} bdef
/db {2 copy /cols xdef /rows xdef mul dup 3 mul string
  currentfile 
  3 index 0 eq {/ASCIIHexDecode filter}
  {/ASCII85Decode filter 3 index 2 eq {/RunLengthDecode filter} if }
  ifelse exch readstring pop
  dup 0 3 index getinterval /rbmap xdef
  dup 2 index dup getinterval /gbmap xdef
  1 index dup 2 mul exch getinterval /bbmap xdef pop pop}bdef
/it {gs np dtri aload pop moveto lineto lineto cp c
  cols rows 8 compute_transform 
  rbmap gbmap bbmap true 3 colorimage gr}bdef
/il {newpath moveto lineto stroke}bdef
currentdict end def
%%EndProlog

%%BeginSetup
MathWorks begin

0 cap

end
%%EndSetup

%%Page: 1 1
%%BeginPageSetup
%%PageBoundingBox:    96   191   515   599
MathWorks begin
bpage
%%EndPageSetup

%%BeginObject: obj1
bplot

/dpi2point 12 def
portraitMode 1152 7188 csm

    0     0  5039  4887 rc
93 dict begin %Colortable dictionary
/c0 { 0.000000 0.000000 0.000000 sr} bdef
/c1 { 1.000000 1.000000 1.000000 sr} bdef
/c2 { 0.900000 0.000000 0.000000 sr} bdef
/c3 { 0.000000 0.820000 0.000000 sr} bdef
/c4 { 0.000000 0.000000 0.800000 sr} bdef
/c5 { 0.910000 0.820000 0.320000 sr} bdef
/c6 { 1.000000 0.260000 0.820000 sr} bdef
/c7 { 0.000000 0.820000 0.820000 sr} bdef
c0
1 j
1 sg
   0    0 5040 4888 rf
6 w
0 3983 3905 0 0 -3983 655 4349 4 MP
PP
-3905 0 0 3983 3905 0 0 -3983 655 4349 5 MP stroke
4 w
DO
0 sg
 655 4349 mt  655  366 L
 655  366 mt  655  366 L
1631 4349 mt 1631  366 L
1631  366 mt 1631  366 L
2607 4349 mt 2607  366 L
2607  366 mt 2607  366 L
3583 4349 mt 3583  366 L
3583  366 mt 3583  366 L
4560 4349 mt 4560  366 L
4560  366 mt 4560  366 L
 655 4349 mt 4560 4349 L
4560 4349 mt 4560 4349 L
 655 3906 mt 4560 3906 L
4560 3906 mt 4560 3906 L
 655 3464 mt 4560 3464 L
4560 3464 mt 4560 3464 L
 655 3021 mt 4560 3021 L
4560 3021 mt 4560 3021 L
 655 2579 mt 4560 2579 L
4560 2579 mt 4560 2579 L
 655 2136 mt 4560 2136 L
4560 2136 mt 4560 2136 L
 655 1694 mt 4560 1694 L
4560 1694 mt 4560 1694 L
 655 1251 mt 4560 1251 L
4560 1251 mt 4560 1251 L
 655  809 mt 4560  809 L
4560  809 mt 4560  809 L
 655  366 mt 4560  366 L
4560  366 mt 4560  366 L
SO
6 w
 655 4349 mt 4560 4349 L
 655 4349 mt  655  366 L
 655 4349 mt  655 4309 L
%%IncludeResource: font Times-Roman
/Times-Roman /WindowsLatin1Encoding 168 FMSR

 613 4533 mt 
(0) s
1631 4349 mt 1631 4309 L
1589 4533 mt 
(5) s
2607 4349 mt 2607 4309 L
2523 4533 mt 
(10) s
3583 4349 mt 3583 4309 L
3499 4533 mt 
(15) s
4560 4349 mt 4560 4309 L
4476 4533 mt 
(20) s
 655 4349 mt  694 4349 L
 536 4409 mt 
(0) s
 655 3906 mt  694 3906 L
 410 3966 mt 
(0.1) s
 655 3464 mt  694 3464 L
 410 3524 mt 
(0.2) s
 655 3021 mt  694 3021 L
 410 3081 mt 
(0.3) s
 655 2579 mt  694 2579 L
 410 2639 mt 
(0.4) s
 655 2136 mt  694 2136 L
 410 2196 mt 
(0.5) s
 655 1694 mt  694 1694 L
 410 1754 mt 
(0.6) s
 655 1251 mt  694 1251 L
 410 1311 mt 
(0.7) s
 655  809 mt  694  809 L
 410  869 mt 
(0.8) s
 655  366 mt  694  366 L
 410  426 mt 
(0.9) s
 780  239 mt 
(SM Success Rates for RSCV/2DOF on UCSB Dataset) s
gs 655 367 3906 3983 rc
36 w
/c8 { 1.000000 0.647059 0.000000 sr} bdef
c8
38 -1 37 -1 38 -2 37 -4 38 -1 37 -2 38 -1 37 -3 
38 0 37 -2 38 -6 37 -2 38 0 37 -2 38 0 37 0 
38 -1 37 -3 37 -2 38 -2 37 -1 38 0 37 -1 38 -4 
37 -1 38 0 37 -2 38 0 37 -2 38 -1 37 0 38 -2 
37 -2 38 0 37 -1 38 -1 37 -1 37 -1 38 -2 37 0 
38 0 37 0 38 -6 37 0 38 -1 37 -3 38 -1 37 -1 
38 -1 37 0 38 -1 37 -2 38 -2 37 -3 37 -1 38 0 
37 0 38 0 37 -3 38 -3 37 -1 38 -3 37 0 38 0 
37 0 38 -4 37 -1 38 -1 37 -3 38 -1 37 -3 38 -2 
37 -1 37 -2 38 -2 37 -1 38 -1 37 -3 38 -21 37 -42 
38 -113 37 -94 38 -67 37 -56 38 -46 37 -56 38 -48 37 -31 
38 -25 37 -27 37 -23 38 -38 37 -40 38 -51 37 -48 38 -68 
37 -88 38 -45 37 -72 850 3482 100 MP stroke
/c9 { 0.000000 1.000000 0.000000 sr} bdef
c9
38 -1 37 -3 38 -2 37 -9 38 0 37 -1 38 -3 37 -10 
38 -1 37 -6 38 0 37 -4 38 0 37 -3 38 -2 37 -2 
38 -2 37 0 37 0 38 -4 37 -1 38 0 37 -1 38 -4 
37 0 38 -6 37 -1 38 -2 37 -3 38 -6 37 -6 38 -8 
37 0 38 -5 37 0 38 -6 37 -6 37 -5 38 0 37 -8 
38 -7 37 -5 38 -7 37 -9 38 -2 37 -1 38 -6 37 -6 
38 -8 37 -1 38 -1 37 -4 38 -9 37 -3 37 -3 38 0 
37 -1 38 -3 37 -15 38 -3 37 -1 38 -11 37 -7 38 -5 
37 -6 38 -5 37 -9 38 -15 37 -11 38 -2 37 -12 38 -7 
37 -23 37 -19 38 -29 37 -16 38 -27 37 -18 38 -29 37 -75 
38 -67 37 -122 38 -124 37 -103 38 -116 37 -116 38 -102 37 -69 
38 -46 37 -56 37 -50 38 -64 37 -36 38 -43 37 -57 38 -32 
37 -32 38 -24 37 -38 850 4115 100 MP stroke
/c10 { 0.000000 0.000000 1.000000 sr} bdef
c10
38 -4 37 -1 38 0 37 -1 38 -5 37 -4 38 -4 37 -2 
38 -4 37 -1 38 -4 37 -5 38 0 37 0 38 0 37 -1 
38 0 37 -3 37 -2 38 -5 37 -1 38 -1 37 0 38 -4 
37 0 38 -1 37 -1 38 0 37 -5 38 -2 37 0 38 -1 
37 -1 38 -1 37 -2 38 0 37 -3 37 -2 38 -1 37 -2 
38 -2 37 -2 38 -3 37 -4 38 -1 37 -2 38 -3 37 -3 
38 -3 37 -1 38 -3 37 -3 38 -3 37 0 37 0 38 -1 
37 -2 38 0 37 -1 38 -1 37 -2 38 -1 37 -2 38 -1 
37 0 38 -1 37 -3 38 -3 37 -2 38 -3 37 0 38 -3 
37 -2 37 -1 38 -2 37 -3 38 -24 37 -36 38 -62 37 -90 
38 -73 37 -57 38 -52 37 -49 38 -42 37 -31 38 -18 37 -15 
38 -19 37 -18 37 -34 38 -33 37 -35 38 -36 37 -32 38 -35 
37 -38 38 -32 37 -48 850 3398 100 MP stroke
/c11 { 1.000000 0.000000 0.000000 sr} bdef
c11
38 -1 37 -4 38 0 37 -5 38 0 37 -2 38 0 37 -9 
38 -3 37 -1 38 -1 37 -1 38 0 37 -2 38 -3 37 -2 
38 -2 37 -5 37 -2 38 -5 37 -3 38 -1 37 -3 38 -6 
37 -5 38 -2 37 0 38 -4 37 -1 38 0 37 -5 38 -1 
37 -4 38 -3 37 -2 38 -4 37 -5 37 -1 38 -2 37 -3 
38 -6 37 -1 38 -5 37 -1 38 -2 37 -1 38 -3 37 -3 
38 -4 37 0 38 -1 37 -4 38 -7 37 -7 37 -4 38 -4 
37 -3 38 -1 37 -3 38 0 37 -4 38 -2 37 -2 38 -3 
37 -8 38 -4 37 -2 38 -6 37 -7 38 -9 37 -7 38 -8 
37 -6 37 -1 38 -18 37 -27 38 -44 37 -59 38 -72 37 -91 
38 -83 37 -61 38 -58 37 -54 38 -50 37 -39 38 -38 37 -33 
38 -31 37 -21 37 -32 38 -31 37 -15 38 -26 37 -14 38 -22 
37 -30 38 -24 37 -37 850 3278 100 MP stroke
/c12 { 1.000000 0.000000 1.000000 sr} bdef
c12
38 -3 37 0 38 -2 37 0 38 0 37 -2 38 -7 37 -1 
38 0 37 -1 38 -2 37 -1 38 -4 37 0 38 0 37 -6 
38 -6 37 0 37 0 38 -5 37 0 38 -3 37 0 38 -2 
37 -7 38 -1 37 0 38 -3 37 -5 38 -4 37 0 38 -1 
37 -4 38 -2 37 0 38 -2 37 -7 37 -3 38 -2 37 0 
38 -2 37 -3 38 -3 37 0 38 -1 37 0 38 -3 37 -1 
38 0 37 0 38 -8 37 -4 38 -9 37 -1 37 -1 38 -2 
37 0 38 -4 37 -2 38 -12 37 -7 38 -2 37 -7 38 -4 
37 -11 38 -6 37 -10 38 -2 37 -9 38 0 37 -5 38 -10 
37 -9 37 -12 38 -27 37 -27 38 -30 37 -58 38 -96 37 -111 
38 -133 37 -170 38 -111 37 -99 38 -88 37 -102 38 -80 37 -78 
38 -53 37 -57 37 -53 38 -46 37 -53 38 -59 37 -76 38 -67 
37 -93 38 -89 37 -105 850 3628 100 MP stroke
/c13 { 0.627451 0.125490 0.941176 sr} bdef
c13
38 -6 37 -3 38 -6 37 -1 38 -1 37 -2 38 -4 37 0 
38 -2 37 -5 38 -3 37 -4 38 0 37 0 38 0 37 -2 
38 -3 37 -6 37 -1 38 -7 37 -4 38 -1 37 -3 38 -7 
37 -4 38 0 37 -2 38 -2 37 -4 38 0 37 -1 38 -8 
37 -3 38 -3 37 -2 38 0 37 -3 37 0 38 -6 37 -2 
38 0 37 0 38 -6 37 -6 38 0 37 -1 38 -1 37 0 
38 -2 37 -3 38 -5 37 0 38 -4 37 -1 37 -14 38 -7 
37 -13 38 -3 37 -7 38 -3 37 -11 38 -1 37 -10 38 -3 
37 -9 38 -3 37 -9 38 -6 37 -18 38 -18 37 -28 38 -14 
37 -18 37 -22 38 -40 37 -55 38 -61 37 -88 38 -95 37 -122 
38 -113 37 -78 38 -79 37 -67 38 -64 37 -48 38 -50 37 -51 
38 -30 37 -42 37 -39 38 -39 37 -25 38 -30 37 -27 38 -32 
37 -46 38 -32 37 -43 850 3277 100 MP stroke
/c14 { 0.000000 0.392157 0.000000 sr} bdef
c14
38 -7 37 0 38 -3 37 -2 38 0 37 -5 38 -3 37 -4 
38 -1 37 -4 38 0 37 -1 38 -4 37 -3 38 -4 37 -5 
38 -6 37 -5 37 -1 38 -4 37 -2 38 -4 37 -2 38 -3 
37 -2 38 -7 37 0 38 -2 37 -2 38 -3 37 -1 38 -4 
37 -5 38 -2 37 0 38 -3 37 -4 37 -2 38 -1 37 -2 
38 -2 37 0 38 -5 37 -10 38 -3 37 -2 38 -7 37 0 
38 -3 37 -2 38 -1 37 -4 38 -5 37 -5 37 0 38 -3 
37 -2 38 -5 37 -7 38 -4 37 -7 38 -7 37 -9 38 -7 
37 -5 38 -5 37 -6 38 -9 37 -4 38 -11 37 -12 38 -5 
37 -11 37 -20 38 -22 37 -31 38 -24 37 -13 38 -24 37 -53 
38 -68 37 -108 38 -103 37 -80 38 -108 37 -101 38 -93 37 -74 
38 -48 37 -60 37 -60 38 -45 37 -32 38 -43 37 -30 38 -30 
37 -52 38 -39 37 -44 850 4039 100 MP stroke
/c15 { 0.000000 1.000000 1.000000 sr} bdef
c15
38 -1 37 -1 38 0 37 0 38 -5 37 -6 38 -1 37 -4 
38 -1 37 -5 38 -6 37 0 38 0 37 -1 38 0 37 -2 
38 -1 37 -1 37 -2 38 -1 37 -2 38 -6 37 0 38 -2 
37 -1 38 -4 37 -3 38 0 37 0 38 -4 37 -3 38 -2 
37 0 38 -5 37 -3 38 -1 37 -2 37 -3 38 -2 37 -5 
38 0 37 -4 38 -4 37 -2 38 -3 37 -2 38 -6 37 -5 
38 -7 37 -7 38 -7 37 0 38 -2 37 -9 37 -13 38 -3 
37 -6 38 -12 37 -11 38 -11 37 -4 38 -1 37 -5 38 -12 
37 -18 38 -12 37 -20 38 -19 37 -17 38 -31 37 -19 38 -34 
37 -56 37 -380 38 -244 37 -62 38 -104 37 -84 38 -91 37 -103 
38 -99 37 -96 38 -77 37 -86 38 -57 37 -58 38 -60 37 -74 
38 -57 37 -62 37 -35 38 -31 37 -42 38 -38 37 -44 38 -42 
37 -76 38 -81 37 -119 850 4118 100 MP stroke
DA
/c16 { 0.956863 0.643137 0.376471 sr} bdef
c16
38 -2 37 -1 38 0 37 -3 38 0 37 -1 38 0 37 -2 
38 -3 37 -2 38 -3 37 -5 38 -4 37 -1 38 -3 37 -1 
38 -1 37 -3 37 -3 38 -2 37 -3 38 -3 37 -3 38 -1 
37 -4 38 -4 37 -7 38 -5 37 -7 38 -6 37 -5 38 -6 
37 -4 38 -5 37 -9 38 -4 37 -9 37 -15 38 -14 37 -9 
38 -15 37 -13 38 -14 37 -12 38 -14 37 -11 38 -14 37 -19 
38 -13 37 -17 38 -16 37 -16 38 -27 37 -19 37 -32 38 -34 
37 -24 38 -21 37 -24 38 -40 37 -37 38 -65 37 -46 38 -90 
37 -224 38 -55 37 -50 38 -52 37 -49 38 -73 37 -75 38 -71 
37 -65 37 -58 38 -78 37 -74 38 -59 37 -85 38 -77 37 -66 
38 -98 37 -95 38 -89 37 -69 38 -105 37 -77 38 -60 37 -34 
38 -32 37 -45 37 -27 38 -33 37 -19 38 -11 37 -20 38 -10 
37 -15 38 -7 37 -2 850 4347 100 MP stroke
/c17 { 0.419608 0.556863 0.137255 sr} bdef
c17
38 0 37 -4 38 -1 37 -1 38 -5 37 -8 38 -1 37 -2 
38 -4 37 -2 38 -1 37 0 38 0 37 -4 38 -5 37 0 
38 -4 37 -3 37 -4 38 -6 37 -4 38 -5 37 -4 38 -9 
37 -6 38 -7 37 -2 38 -9 37 -3 38 -3 37 -13 38 -5 
37 -6 38 -6 37 -3 38 -8 37 -17 37 -14 38 -25 37 -27 
38 -19 37 -13 38 -16 37 -11 38 -10 37 -20 38 -13 37 -17 
38 -92 37 -96 38 -52 37 -14 38 -27 37 -24 37 -27 38 -37 
37 -53 38 -21 37 -23 38 -17 37 -23 38 -19 37 -36 38 -26 
37 -34 38 -17 37 -36 38 -23 37 -28 38 -36 37 -41 38 -48 
37 -54 37 -41 38 -44 37 -52 38 -60 37 -57 38 -65 37 -76 
38 -64 37 -78 38 -69 37 -74 38 -55 37 -40 38 -22 37 -24 
38 -15 37 -15 37 -8 38 -9 37 -8 38 -4 37 -4 38 -4 
37 -1 38 -1 37 0 850 4203 100 MP stroke
0 sg
38 -1 37 -3 38 -2 37 -1 38 -1 37 -2 38 -2 37 -1 
38 -1 37 -3 38 -2 37 -2 38 -7 37 -5 38 -5 37 0 
38 -4 37 -2 37 -5 38 -7 37 -2 38 -6 37 -4 38 -7 
37 -6 38 -3 37 -11 38 -4 37 -9 38 -5 37 -6 38 -2 
37 -8 38 -8 37 -19 38 -20 37 -18 37 -14 38 -6 37 -13 
38 -11 37 -22 38 -24 37 -10 38 -26 37 -14 38 -22 37 -22 
38 -27 37 -27 38 -27 37 -13 38 -34 37 -81 37 -71 38 -37 
37 -74 38 -87 37 -57 38 -49 37 -99 38 -205 37 -240 38 -68 
37 -89 38 -76 37 -106 38 -82 37 -94 38 -87 37 -102 38 -78 
37 -124 37 -106 38 -88 37 -91 38 -91 37 -95 38 -87 37 -89 
38 -52 37 -56 38 -30 37 -45 38 -41 37 -29 38 -24 37 -20 
38 -16 37 -22 37 -12 38 -1 37 -4 38 -3 37 0 38 -3 
37 0 38 0 37 0 850 4203 100 MP stroke
gr

36 w
DA
2069 4701 mt 
(Error Threshold) s
 319 2800 mt  -90 rotate
(Success Rate) s
90 rotate
%%IncludeResource: font Helvetica
/Helvetica /WindowsLatin1Encoding 120 FMSR

 638 4392 mt 
( ) s
4544  409 mt 
( ) s
SO
6 w
1 sg
0 1692 792 0 0 -1692 696 2109 4 MP
PP
-792 0 0 1692 792 0 0 -1692 696 2109 5 MP stroke
4 w
DO
SO
6 w
0 sg
 696  417 mt 1488  417 L
 696 2109 mt 1488 2109 L
1488 2109 mt 1488  417 L
 696 2109 mt  696  417 L
 696 2109 mt 1488 2109 L
 696 2109 mt  696  417 L
 696  417 mt 1488  417 L
 696 2109 mt 1488 2109 L
1488 2109 mt 1488  417 L
 696 2109 mt  696  417 L
%%IncludeResource: font Times-Roman
/Times-Roman /WindowsLatin1Encoding 96 FMSR

1165  546 mt 
(FCLK) s
gs 696 417 793 1693 rc
36 w
c8
360 0 768 513 2 MP stroke
gr

36 w
c8
0 sg
1165  696 mt 
(ICLK) s
gs 696 417 793 1693 rc
c9
360 0 768 663 2 MP stroke
gr

c9
0 sg
1165  846 mt 
(FALK) s
gs 696 417 793 1693 rc
c10
360 0 768 813 2 MP stroke
gr

c10
0 sg
1165  996 mt 
(IALK) s
gs 696 417 793 1693 rc
c11
360 0 768 963 2 MP stroke
gr

c11
0 sg
1165 1146 mt 
(ESM) s
gs 696 417 793 1693 rc
c12
360 0 768 1113 2 MP stroke
gr

c12
0 sg
1165 1297 mt 
(AESM) s
gs 696 417 793 1693 rc
c13
360 0 768 1263 2 MP stroke
gr

c13
0 sg
1165 1447 mt 
(NNIC) s
gs 696 417 793 1693 rc
c14
360 0 768 1413 2 MP stroke
gr

c14
0 sg
1165 1597 mt 
(PF) s
gs 696 417 793 1693 rc
c15
360 0 768 1563 2 MP stroke
gr

c15
0 sg
1165 1747 mt 
(TLD) s
gs 696 417 793 1693 rc
DA
c16
360 0 768 1713 2 MP stroke
SO
gr

c16
0 sg
1165 1897 mt 
(KCF) s
gs 696 417 793 1693 rc
DA
c17
360 0 768 1863 2 MP stroke
SO
gr

c17
0 sg
1165 2047 mt 
(DSST) s
gs 696 417 793 1693 rc
DA
360 0 768 2013 2 MP stroke
SO
6 w
gr

6 w

end %%Color Dict

eplot
%%EndObject

epage
end

showpage

%%Trailer
%%EOF
