%!PS-Adobe-3.0 EPSF-3.0
%%Creator: MATLAB, The MathWorks, Inc. Version 8.1.0.604 (R2013a). Operating System: Microsoft Windows 8.
%%Title: E:\UofA\Thesis\ICRA 2016\sm_rscv_2_tmt.eps
%%CreationDate: 09/15/2015  01:49:36
%%DocumentNeededFonts: Times-Roman
%%+ Helvetica
%%DocumentProcessColors: Cyan Magenta Yellow Black
%%LanguageLevel: 2
%%Pages: 1
%%BoundingBox:    96   223   515   567
%%EndComments

%%BeginProlog
% MathWorks dictionary
/MathWorks 160 dict begin
% definition operators
/bdef {bind def} bind def
/ldef {load def} bind def
/xdef {exch def} bdef
/xstore {exch store} bdef
% operator abbreviations
/c  /clip ldef
/cc /concat ldef
/cp /closepath ldef
/gr /grestore ldef
/gs /gsave ldef
/mt /moveto ldef
/np /newpath ldef
/cm /currentmatrix ldef
/sm /setmatrix ldef
/rm /rmoveto ldef
/rl /rlineto ldef
/s {show newpath} bdef
/sc {setcmykcolor} bdef
/sr /setrgbcolor ldef
/sg /setgray ldef
/w /setlinewidth ldef
/j /setlinejoin ldef
/cap /setlinecap ldef
/rc {rectclip} bdef
/rf {rectfill} bdef
% page state control
/pgsv () def
/bpage {/pgsv save def} bdef
/epage {pgsv restore} bdef
/bplot /gsave ldef
/eplot {stroke grestore} bdef
% orientation switch
/portraitMode 0 def /landscapeMode 1 def /rotateMode 2 def
% coordinate system mappings
/dpi2point 0 def
% font control
/FontSize 0 def
/FMS {/FontSize xstore findfont [FontSize 0 0 FontSize neg 0 0]
  makefont setfont} bdef
/ISOLatin1Encoding where {pop /WindowsLatin1Encoding 256 array bdef
ISOLatin1Encoding WindowsLatin1Encoding copy pop
/.notdef/.notdef/quotesinglbase/florin/quotedblbase/ellipsis/dagger
/daggerdbl/circumflex/perthousand/Scaron/guilsinglleft/OE/.notdef/.notdef
/.notdef/.notdef/quoteleft/quoteright/quotedblleft/quotedblright/bullet
/endash/emdash/tilde/trademark/scaron/guilsinglright/oe/.notdef/.notdef
/Ydieresis WindowsLatin1Encoding 128 32 getinterval astore pop}
{/WindowsLatin1Encoding StandardEncoding bdef} ifelse
/reencode {exch dup where {pop load} {pop StandardEncoding} ifelse
  exch dup 3 1 roll findfont dup length dict begin
  { 1 index /FID ne {def}{pop pop} ifelse } forall
  /Encoding exch def currentdict end definefont pop} bdef
/isroman {findfont /CharStrings get /Agrave known} bdef
/FMSR {3 1 roll 1 index dup isroman {reencode} {pop pop} ifelse
  exch FMS} bdef
/csm {1 dpi2point div -1 dpi2point div scale neg translate
 dup landscapeMode eq {pop -90 rotate}
  {rotateMode eq {90 rotate} if} ifelse} bdef
% line types: solid, dotted, dashed, dotdash
/SO { [] 0 setdash } bdef
/DO { [.5 dpi2point mul 4 dpi2point mul] 0 setdash } bdef
/DA { [6 dpi2point mul] 0 setdash } bdef
/DD { [.5 dpi2point mul 4 dpi2point mul 6 dpi2point mul 4
  dpi2point mul] 0 setdash } bdef
% macros for lines and objects
/L {lineto stroke} bdef
/MP {3 1 roll moveto 1 sub {rlineto} repeat} bdef
/AP {{rlineto} repeat} bdef
/PDlw -1 def
/W {/PDlw currentlinewidth def setlinewidth} def
/PP {closepath eofill} bdef
/DP {closepath stroke} bdef
/MR {4 -2 roll moveto dup  0 exch rlineto exch 0 rlineto
  neg 0 exch rlineto closepath} bdef
/FR {MR stroke} bdef
/PR {MR fill} bdef
/L1i {{currentfile picstr readhexstring pop} image} bdef
/tMatrix matrix def
/MakeOval {newpath tMatrix currentmatrix pop translate scale
0 0 1 0 360 arc tMatrix setmatrix} bdef
/FO {MakeOval stroke} bdef
/PO {MakeOval fill} bdef
/PD {currentlinewidth 2 div 0 360 arc fill
   PDlw -1 eq not {PDlw w /PDlw -1 def} if} def
/FA {newpath tMatrix currentmatrix pop translate scale
  0 0 1 5 -2 roll arc tMatrix setmatrix stroke} bdef
/PA {newpath tMatrix currentmatrix pop	translate 0 0 moveto scale
  0 0 1 5 -2 roll arc closepath tMatrix setmatrix fill} bdef
/FAn {newpath tMatrix currentmatrix pop translate scale
  0 0 1 5 -2 roll arcn tMatrix setmatrix stroke} bdef
/PAn {newpath tMatrix currentmatrix pop translate 0 0 moveto scale
  0 0 1 5 -2 roll arcn closepath tMatrix setmatrix fill} bdef
/vradius 0 def /hradius 0 def /lry 0 def
/lrx 0 def /uly 0 def /ulx 0 def /rad 0 def
/MRR {/vradius xdef /hradius xdef /lry xdef /lrx xdef /uly xdef
  /ulx xdef newpath tMatrix currentmatrix pop ulx hradius add uly
  vradius add translate hradius vradius scale 0 0 1 180 270 arc 
  tMatrix setmatrix lrx hradius sub uly vradius add translate
  hradius vradius scale 0 0 1 270 360 arc tMatrix setmatrix
  lrx hradius sub lry vradius sub translate hradius vradius scale
  0 0 1 0 90 arc tMatrix setmatrix ulx hradius add lry vradius sub
  translate hradius vradius scale 0 0 1 90 180 arc tMatrix setmatrix
  closepath} bdef
/FRR {MRR stroke } bdef
/PRR {MRR fill } bdef
/MlrRR {/lry xdef /lrx xdef /uly xdef /ulx xdef /rad lry uly sub 2 div def
  newpath tMatrix currentmatrix pop ulx rad add uly rad add translate
  rad rad scale 0 0 1 90 270 arc tMatrix setmatrix lrx rad sub lry rad
  sub translate rad rad scale 0 0 1 270 90 arc tMatrix setmatrix
  closepath} bdef
/FlrRR {MlrRR stroke } bdef
/PlrRR {MlrRR fill } bdef
/MtbRR {/lry xdef /lrx xdef /uly xdef /ulx xdef /rad lrx ulx sub 2 div def
  newpath tMatrix currentmatrix pop ulx rad add uly rad add translate
  rad rad scale 0 0 1 180 360 arc tMatrix setmatrix lrx rad sub lry rad
  sub translate rad rad scale 0 0 1 0 180 arc tMatrix setmatrix
  closepath} bdef
/FtbRR {MtbRR stroke } bdef
/PtbRR {MtbRR fill } bdef
/stri 6 array def /dtri 6 array def
/smat 6 array def /dmat 6 array def
/tmat1 6 array def /tmat2 6 array def /dif 3 array def
/asub {/ind2 exch def /ind1 exch def dup dup
  ind1 get exch ind2 get sub exch } bdef
/tri_to_matrix {
  2 0 asub 3 1 asub 4 0 asub 5 1 asub
  dup 0 get exch 1 get 7 -1 roll astore } bdef
/compute_transform {
  dmat dtri tri_to_matrix tmat1 invertmatrix 
  smat stri tri_to_matrix tmat2 concatmatrix } bdef
/ds {stri astore pop} bdef
/dt {dtri astore pop} bdef
/db {2 copy /cols xdef /rows xdef mul dup 3 mul string
  currentfile 
  3 index 0 eq {/ASCIIHexDecode filter}
  {/ASCII85Decode filter 3 index 2 eq {/RunLengthDecode filter} if }
  ifelse exch readstring pop
  dup 0 3 index getinterval /rbmap xdef
  dup 2 index dup getinterval /gbmap xdef
  1 index dup 2 mul exch getinterval /bbmap xdef pop pop}bdef
/it {gs np dtri aload pop moveto lineto lineto cp c
  cols rows 8 compute_transform 
  rbmap gbmap bbmap true 3 colorimage gr}bdef
/il {newpath moveto lineto stroke}bdef
currentdict end def
%%EndProlog

%%BeginSetup
MathWorks begin

0 cap

end
%%EndSetup

%%Page: 1 1
%%BeginPageSetup
%%PageBoundingBox:    96   223   515   567
MathWorks begin
bpage
%%EndPageSetup

%%BeginObject: obj1
bplot

/dpi2point 12 def
portraitMode 1152 6804 csm

    0     0  5039  4122 rc
93 dict begin %Colortable dictionary
/c0 { 0.000000 0.000000 0.000000 sr} bdef
/c1 { 1.000000 1.000000 1.000000 sr} bdef
/c2 { 0.900000 0.000000 0.000000 sr} bdef
/c3 { 0.000000 0.820000 0.000000 sr} bdef
/c4 { 0.000000 0.000000 0.800000 sr} bdef
/c5 { 0.910000 0.820000 0.320000 sr} bdef
/c6 { 1.000000 0.260000 0.820000 sr} bdef
/c7 { 0.000000 0.820000 0.820000 sr} bdef
c0
1 j
1 sg
   0    0 5040 4123 rf
6 w
0 3360 3905 0 0 -3360 655 3669 4 MP
PP
-3905 0 0 3360 3905 0 0 -3360 655 3669 5 MP stroke
4 w
DO
0 sg
 655 3669 mt  655  309 L
 655  309 mt  655  309 L
1631 3669 mt 1631  309 L
1631  309 mt 1631  309 L
2607 3669 mt 2607  309 L
2607  309 mt 2607  309 L
3583 3669 mt 3583  309 L
3583  309 mt 3583  309 L
4560 3669 mt 4560  309 L
4560  309 mt 4560  309 L
 655 3669 mt 4560 3669 L
4560 3669 mt 4560 3669 L
 655 3189 mt 4560 3189 L
4560 3189 mt 4560 3189 L
 655 2709 mt 4560 2709 L
4560 2709 mt 4560 2709 L
 655 2229 mt 4560 2229 L
4560 2229 mt 4560 2229 L
 655 1749 mt 4560 1749 L
4560 1749 mt 4560 1749 L
 655 1269 mt 4560 1269 L
4560 1269 mt 4560 1269 L
 655  789 mt 4560  789 L
4560  789 mt 4560  789 L
 655  309 mt 4560  309 L
4560  309 mt 4560  309 L
SO
6 w
 655 3669 mt 4560 3669 L
 655 3669 mt  655  309 L
 655 3669 mt  655 3629 L
%%IncludeResource: font Times-Roman
/Times-Roman /WindowsLatin1Encoding 168 FMSR

 613 3853 mt 
(0) s
1631 3669 mt 1631 3629 L
1589 3853 mt 
(5) s
2607 3669 mt 2607 3629 L
2523 3853 mt 
(10) s
3583 3669 mt 3583 3629 L
3499 3853 mt 
(15) s
4560 3669 mt 4560 3629 L
4476 3853 mt 
(20) s
 655 3669 mt  694 3669 L
 536 3729 mt 
(0) s
 655 3189 mt  694 3189 L
 410 3249 mt 
(0.1) s
 655 2709 mt  694 2709 L
 410 2769 mt 
(0.2) s
 655 2229 mt  694 2229 L
 410 2289 mt 
(0.3) s
 655 1749 mt  694 1749 L
 410 1809 mt 
(0.4) s
 655 1269 mt  694 1269 L
 410 1329 mt 
(0.5) s
 655  789 mt  694  789 L
 410  849 mt 
(0.6) s
 655  309 mt  694  309 L
 410  369 mt 
(0.7) s
 824  181 mt 
(SM Success Rates for RSCV/2DOF on TMT Dataset) s
gs 655 309 3906 3361 rc
36 w
/c8 { 1.000000 0.647059 0.000000 sr} bdef
c8
38 -9 37 -15 38 -6 37 -6 38 -7 37 -6 38 -8 37 -9 
38 -7 37 -6 38 -5 37 -6 38 -5 37 -7 38 -5 37 -5 
38 -6 37 -6 37 -5 38 -7 37 -6 38 -5 37 -7 38 -5 
37 -4 38 -4 37 -5 38 -6 37 -6 38 -5 37 -5 38 -6 
37 -6 38 -6 37 -6 38 -7 37 -7 37 -7 38 -6 37 -7 
38 -8 37 -9 38 -8 37 -10 38 -8 37 -8 38 -9 37 -9 
38 -10 37 -9 38 -11 37 -10 38 -9 37 -11 37 -11 38 -11 
37 -9 38 -10 37 -13 38 -10 37 -15 38 -14 37 -13 38 -14 
37 -16 38 -16 37 -15 38 -15 37 -15 38 -16 37 -23 38 -20 
37 -18 37 -18 38 -20 37 -20 38 -18 37 -18 38 -17 37 -31 
38 -35 37 -19 38 -18 37 -22 38 -25 37 -38 38 -32 37 -35 
38 -38 37 -49 37 -58 38 -76 37 -94 38 -86 37 -108 38 -106 
37 -110 38 -170 37 -152 850 2592 100 MP stroke
/c9 { 0.000000 1.000000 0.000000 sr} bdef
c9
38 -2 37 -3 38 -4 37 -3 38 -4 37 -4 38 -4 37 -10 
38 -5 37 -5 38 -4 37 -4 38 -5 37 -4 38 -4 37 -4 
38 -4 37 -4 37 -3 38 -4 37 -5 38 -4 37 -5 38 -4 
37 -4 38 -13 37 -19 38 -4 37 -6 38 -5 37 -5 38 -5 
37 -6 38 -5 37 -5 38 -6 37 -8 37 -19 38 -16 37 -9 
38 -7 37 -8 38 -9 37 -7 38 -7 37 -8 38 -7 37 -6 
38 -9 37 -8 38 -9 37 -9 38 -7 37 -8 37 -8 38 -8 
37 -8 38 -9 37 -9 38 -13 37 -24 38 -13 37 -11 38 -13 
37 -13 38 -13 37 -16 38 -12 37 -12 38 -15 37 -16 38 -20 
37 -18 37 -17 38 -21 37 -31 38 -39 37 -42 38 -19 37 -23 
38 -31 37 -30 38 -27 37 -32 38 -26 37 -25 38 -38 37 -30 
38 -79 37 -68 37 -78 38 -113 37 -69 38 -41 37 -91 38 -94 
37 -63 38 -93 37 -98 850 3331 100 MP stroke
/c10 { 0.000000 0.000000 1.000000 sr} bdef
c10
38 -6 37 -8 38 -14 37 -6 38 -10 37 -8 38 -6 37 -6 
38 -6 37 -6 38 -6 37 -6 38 -6 37 -8 38 -6 37 -6 
38 -5 37 -6 37 -6 38 -7 37 -6 38 -5 37 -5 38 -7 
37 -5 38 -4 37 -5 38 -5 37 -6 38 -6 37 -6 38 -6 
37 -6 38 -5 37 -7 38 -5 37 -8 37 -7 38 -7 37 -6 
38 -8 37 -10 38 -6 37 -9 38 -8 37 -6 38 -10 37 -9 
38 -8 37 -9 38 -12 37 -10 38 -10 37 -10 37 -9 38 -11 
37 -11 38 -9 37 -11 38 -12 37 -13 38 -13 37 -14 38 -16 
37 -15 38 -15 37 -16 38 -19 37 -20 38 -15 37 -19 38 -23 
37 -18 37 -16 38 -19 37 -19 38 -18 37 -21 38 -25 37 -24 
38 -18 37 -18 38 -17 37 -21 38 -22 37 -35 38 -36 37 -40 
38 -62 37 -39 37 -57 38 -73 37 -71 38 -87 37 -92 38 -83 
37 -101 38 -116 37 -94 850 2403 100 MP stroke
/c11 { 1.000000 0.000000 0.000000 sr} bdef
c11
38 -9 37 -9 38 -6 37 -5 38 -4 37 -5 38 -4 37 -6 
38 -5 37 -4 38 -5 37 -6 38 -5 37 -5 38 -3 37 -6 
38 -4 37 -5 37 -4 38 -5 37 -5 38 -5 37 -5 38 -5 
37 -5 38 -4 37 -5 38 -5 37 -7 38 -5 37 -5 38 -5 
37 -5 38 -6 37 -6 38 -5 37 -7 37 -7 38 -9 37 -9 
38 -6 37 -8 38 -9 37 -7 38 -7 37 -7 38 -9 37 -7 
38 -7 37 -9 38 -9 37 -10 38 -10 37 -8 37 -8 38 -9 
37 -10 38 -7 37 -9 38 -10 37 -9 38 -11 37 -13 38 -13 
37 -13 38 -13 37 -12 38 -14 37 -14 38 -17 37 -17 38 -15 
37 -14 37 -14 38 -15 37 -19 38 -16 37 -17 38 -16 37 -15 
38 -14 37 -15 38 -16 37 -15 38 -18 37 -21 38 -29 37 -30 
38 -38 37 -33 37 -46 38 -48 37 -52 38 -69 37 -77 38 -75 
37 -93 38 -97 37 -83 850 2429 100 MP stroke
/c12 { 1.000000 0.000000 1.000000 sr} bdef
c12
38 -12 37 -7 38 -8 37 -7 38 -9 37 -12 38 -8 37 -6 
38 -8 37 -7 38 -6 37 -7 38 -6 37 -7 38 -9 37 -6 
38 -6 37 -6 37 -7 38 -5 37 -7 38 -6 37 -6 38 -7 
37 -5 38 -5 37 -5 38 -6 37 -5 38 -6 37 -5 38 -10 
37 -16 38 -8 37 -5 38 -7 37 -8 37 -7 38 -7 37 -6 
38 -8 37 -9 38 -8 37 -8 38 -8 37 -8 38 -9 37 -8 
38 -10 37 -9 38 -12 37 -11 38 -13 37 -13 37 -15 38 -12 
37 -12 38 -12 37 -11 38 -12 37 -15 38 -17 37 -15 38 -16 
37 -14 38 -17 37 -18 38 -16 37 -17 38 -19 37 -21 38 -21 
37 -18 37 -22 38 -20 37 -22 38 -21 37 -22 38 -17 37 -19 
38 -18 37 -18 38 -20 37 -25 38 -25 37 -40 38 -52 37 -48 
38 -61 37 -56 37 -78 38 -92 37 -97 38 -108 37 -111 38 -145 
37 -144 38 -179 37 -181 850 2836 100 MP stroke
/c13 { 0.627451 0.125490 0.941176 sr} bdef
c13
38 -9 37 -15 38 -11 37 -11 38 -8 37 -8 38 -7 37 -6 
38 -9 37 -8 38 -7 37 -6 38 -6 37 -9 38 -8 37 -6 
38 -6 37 -6 37 -6 38 -6 37 -6 38 -7 37 -6 38 -6 
37 -6 38 -6 37 -5 38 -6 37 -6 38 -5 37 -6 38 -6 
37 -5 38 -8 37 -6 38 -5 37 -7 37 -9 38 -8 37 -6 
38 -8 37 -8 38 -9 37 -8 38 -8 37 -7 38 -11 37 -8 
38 -7 37 -10 38 -10 37 -11 38 -10 37 -10 37 -10 38 -9 
37 -12 38 -9 37 -11 38 -11 37 -12 38 -14 37 -16 38 -18 
37 -14 38 -19 37 -18 38 -16 37 -19 38 -19 37 -19 38 -20 
37 -18 37 -20 38 -21 37 -22 38 -19 37 -21 38 -18 37 -22 
38 -19 37 -23 38 -19 37 -19 38 -22 37 -35 38 -34 37 -41 
38 -57 37 -38 37 -57 38 -72 37 -64 38 -84 37 -91 38 -77 
37 -94 38 -118 37 -96 850 2384 100 MP stroke
/c14 { 0.000000 0.392157 0.000000 sr} bdef
c14
38 -3 37 -5 38 -4 37 -5 38 -6 37 -5 38 -5 37 -7 
38 -9 37 -6 38 -5 37 -4 38 -5 37 -4 38 -6 37 -5 
38 -5 37 -4 37 -3 38 -4 37 -5 38 -4 37 -4 38 -4 
37 -4 38 -6 37 -4 38 -4 37 -4 38 -5 37 -5 38 -5 
37 -5 38 -5 37 -5 38 -5 37 -7 37 -6 38 -9 37 -9 
38 -7 37 -8 38 -9 37 -7 38 -7 37 -8 38 -7 37 -8 
38 -8 37 -7 38 -10 37 -8 38 -8 37 -7 37 -8 38 -8 
37 -8 38 -9 37 -9 38 -8 37 -18 38 -20 37 -14 38 -12 
37 -14 38 -11 37 -15 38 -13 37 -13 38 -13 37 -15 38 -17 
37 -18 37 -16 38 -15 37 -16 38 -22 37 -53 38 -22 37 -16 
38 -25 37 -30 38 -25 37 -23 38 -27 37 -29 38 -41 37 -31 
38 -47 37 -67 37 -93 38 -101 37 -71 38 -42 37 -77 38 -78 
37 -72 38 -77 37 -86 850 3254 100 MP stroke
/c15 { 0.000000 1.000000 1.000000 sr} bdef
c15
38 -6 37 -10 38 -11 37 -11 38 -11 37 -9 38 -6 37 -5 
38 -7 37 -8 38 -6 37 -5 38 -6 37 -6 38 -5 37 -6 
38 -5 37 -5 37 -6 38 -5 37 -6 38 -5 37 -6 38 -5 
37 -6 38 -5 37 -5 38 -5 37 -5 38 -6 37 -6 38 -6 
37 -5 38 -6 37 -6 38 -6 37 -6 37 -7 38 -6 37 -7 
38 -7 37 -8 38 -8 37 -9 38 -7 37 -8 38 -8 37 -9 
38 -10 37 -8 38 -10 37 -10 38 -9 37 -10 37 -11 38 -10 
37 -9 38 -10 37 -12 38 -10 37 -11 38 -13 37 -14 38 -60 
37 -14 38 -16 37 -16 38 -16 37 -18 38 -21 37 -26 38 -21 
37 -25 37 -22 38 -21 37 -18 38 -20 37 -23 38 -32 37 -52 
38 -60 37 -34 38 -27 37 -35 38 -42 37 -35 38 -42 37 -49 
38 -83 37 -74 37 -74 38 -87 37 -117 38 -158 37 -145 38 -111 
37 -161 38 -172 37 -215 850 3164 100 MP stroke
DA
/c16 { 0.956863 0.643137 0.376471 sr} bdef
c16
38 -24 37 -15 38 -21 37 -16 38 -19 37 -29 38 -20 37 -30 
38 -13 37 -11 38 -11 37 -14 38 -32 37 -22 38 -61 37 -21 
38 -37 37 -15 37 -101 38 -12 37 -18 38 -22 37 -13 38 -11 
37 -10 38 -14 37 -13 38 -13 37 -18 38 -35 37 -21 38 -15 
37 -22 38 -16 37 -13 38 -15 37 -13 37 -17 38 -14 37 -15 
38 -81 37 -43 38 -30 37 -39 38 -15 37 -30 38 -43 37 -38 
38 -79 37 -39 38 -25 37 -39 38 -30 37 -20 37 -18 38 -19 
37 -20 38 -23 37 -45 38 -44 37 -96 38 -41 37 -32 38 -26 
37 -21 38 -42 37 -19 38 -104 37 -54 38 -31 37 -20 38 -26 
37 -36 37 -40 38 -27 37 -25 38 -32 37 -36 38 -53 37 -26 
38 -27 37 -38 38 -29 37 -28 38 -33 37 -19 38 -19 37 -36 
38 -28 37 -60 37 -26 38 -29 37 -107 38 -93 37 -52 38 -39 
37 -58 38 -36 37 -38 850 3625 100 MP stroke
/c17 { 0.419608 0.556863 0.137255 sr} bdef
c17
38 -9 37 -38 38 -7 37 -11 38 -35 37 -11 38 -10 37 -10 
38 -24 37 -13 38 -41 37 -18 38 -14 37 -10 38 -9 37 -9 
38 -10 37 -51 37 -20 38 -25 37 -16 38 -13 37 -12 38 -16 
37 -14 38 -16 37 -12 38 -24 37 -13 38 -11 37 -12 38 -62 
37 -16 38 -45 37 -18 38 -21 37 -14 37 -23 38 -27 37 -15 
38 -39 37 -27 38 -16 37 -31 38 -20 37 -36 38 -18 37 -40 
38 -44 37 -22 38 -34 37 -31 38 -25 37 -22 37 -31 38 -25 
37 -28 38 -58 37 -35 38 -36 37 -32 38 -43 37 -36 38 -40 
37 -40 38 -32 37 -41 38 -50 37 -74 38 -46 37 -34 38 -43 
37 -37 37 -43 38 -71 37 -51 38 -57 37 -60 38 -47 37 -82 
38 -83 37 -30 38 -35 37 -68 38 -28 37 -31 38 -50 37 -21 
38 -39 37 -22 37 -17 38 -23 37 -30 38 -21 37 -7 38 -4 
37 -1 38 -1 37 0 850 3659 100 MP stroke
0 sg
38 -20 37 -10 38 -19 37 -19 38 -23 37 -24 38 -16 37 -15 
38 -10 37 -30 38 -32 37 -34 38 -11 37 -15 38 -16 37 -14 
38 -12 37 -13 37 -21 38 -35 37 -22 38 -16 37 -25 38 -22 
37 -22 38 -30 37 -20 38 -16 37 -18 38 -23 37 -13 38 -64 
37 -70 38 -15 37 -29 38 -20 37 -16 37 -29 38 -24 37 -16 
38 -30 37 -20 38 -41 37 -42 38 -56 37 -36 38 -17 37 -48 
38 -29 37 -29 38 -57 37 -47 38 -26 37 -27 37 -27 38 -43 
37 -52 38 -30 37 -57 38 -45 37 -26 38 -21 37 -22 38 -24 
37 -31 38 -30 37 -33 38 -43 37 -49 38 -76 37 -52 38 -35 
37 -85 37 -32 38 -59 37 -48 38 -56 37 -51 38 -79 37 -39 
38 -55 37 -49 38 -31 37 -34 38 -39 37 -19 38 -39 37 -34 
38 -43 37 -15 37 -17 38 -37 37 -28 38 -18 37 -24 38 -3 
37 -4 38 -2 37 -1 850 3658 100 MP stroke
gr

36 w
DA
2069 4021 mt 
(Error Threshold) s
 319 2431 mt  -90 rotate
(Success Rate) s
90 rotate
%%IncludeResource: font Helvetica
/Helvetica /WindowsLatin1Encoding 120 FMSR

 638 3712 mt 
( ) s
4544  351 mt 
( ) s
SO
6 w
1 sg
0 1692 792 0 0 -1692 3629 3561 4 MP
PP
-792 0 0 1692 792 0 0 -1692 3629 3561 5 MP stroke
4 w
DO
SO
6 w
0 sg
3629 1869 mt 4421 1869 L
3629 3561 mt 4421 3561 L
4421 3561 mt 4421 1869 L
3629 3561 mt 3629 1869 L
3629 3561 mt 4421 3561 L
3629 3561 mt 3629 1869 L
3629 1869 mt 4421 1869 L
3629 3561 mt 4421 3561 L
4421 3561 mt 4421 1869 L
3629 3561 mt 3629 1869 L
%%IncludeResource: font Times-Roman
/Times-Roman /WindowsLatin1Encoding 96 FMSR

4098 1998 mt 
(FCLK) s
gs 3629 1869 793 1693 rc
36 w
c8
360 0 3701 1965 2 MP stroke
gr

36 w
c8
0 sg
4098 2148 mt 
(ICLK) s
gs 3629 1869 793 1693 rc
c9
360 0 3701 2115 2 MP stroke
gr

c9
0 sg
4098 2298 mt 
(FALK) s
gs 3629 1869 793 1693 rc
c10
360 0 3701 2265 2 MP stroke
gr

c10
0 sg
4098 2448 mt 
(IALK) s
gs 3629 1869 793 1693 rc
c11
360 0 3701 2415 2 MP stroke
gr

c11
0 sg
4098 2598 mt 
(ESM) s
gs 3629 1869 793 1693 rc
c12
360 0 3701 2565 2 MP stroke
gr

c12
0 sg
4098 2749 mt 
(AESM) s
gs 3629 1869 793 1693 rc
c13
360 0 3701 2715 2 MP stroke
gr

c13
0 sg
4098 2899 mt 
(NNIC) s
gs 3629 1869 793 1693 rc
c14
360 0 3701 2865 2 MP stroke
gr

c14
0 sg
4098 3049 mt 
(PF) s
gs 3629 1869 793 1693 rc
c15
360 0 3701 3015 2 MP stroke
gr

c15
0 sg
4098 3199 mt 
(TLD) s
gs 3629 1869 793 1693 rc
DA
c16
360 0 3701 3165 2 MP stroke
SO
gr

c16
0 sg
4098 3349 mt 
(KCF) s
gs 3629 1869 793 1693 rc
DA
c17
360 0 3701 3315 2 MP stroke
SO
gr

c17
0 sg
4098 3499 mt 
(DSST) s
gs 3629 1869 793 1693 rc
DA
360 0 3701 3465 2 MP stroke
SO
6 w
gr

6 w

end %%Color Dict

eplot
%%EndObject

epage
end

showpage

%%Trailer
%%EOF
