%!PS-Adobe-3.0 EPSF-3.0
%%Creator: MATLAB, The MathWorks, Inc. Version 8.1.0.604 (R2013a). Operating System: Microsoft Windows 8.
%%Title: E:\UofA\Thesis\ICRA 2016\sm_ssd_8_ucsb.eps
%%CreationDate: 09/15/2015  15:57:36
%%DocumentNeededFonts: Times-Bold
%%+ Helvetica
%%DocumentProcessColors: Cyan Magenta Yellow Black
%%LanguageLevel: 2
%%Pages: 1
%%BoundingBox:    96   238   515   553
%%EndComments

%%BeginProlog
% MathWorks dictionary
/MathWorks 160 dict begin
% definition operators
/bdef {bind def} bind def
/ldef {load def} bind def
/xdef {exch def} bdef
/xstore {exch store} bdef
% operator abbreviations
/c  /clip ldef
/cc /concat ldef
/cp /closepath ldef
/gr /grestore ldef
/gs /gsave ldef
/mt /moveto ldef
/np /newpath ldef
/cm /currentmatrix ldef
/sm /setmatrix ldef
/rm /rmoveto ldef
/rl /rlineto ldef
/s {show newpath} bdef
/sc {setcmykcolor} bdef
/sr /setrgbcolor ldef
/sg /setgray ldef
/w /setlinewidth ldef
/j /setlinejoin ldef
/cap /setlinecap ldef
/rc {rectclip} bdef
/rf {rectfill} bdef
% page state control
/pgsv () def
/bpage {/pgsv save def} bdef
/epage {pgsv restore} bdef
/bplot /gsave ldef
/eplot {stroke grestore} bdef
% orientation switch
/portraitMode 0 def /landscapeMode 1 def /rotateMode 2 def
% coordinate system mappings
/dpi2point 0 def
% font control
/FontSize 0 def
/FMS {/FontSize xstore findfont [FontSize 0 0 FontSize neg 0 0]
  makefont setfont} bdef
/ISOLatin1Encoding where {pop /WindowsLatin1Encoding 256 array bdef
ISOLatin1Encoding WindowsLatin1Encoding copy pop
/.notdef/.notdef/quotesinglbase/florin/quotedblbase/ellipsis/dagger
/daggerdbl/circumflex/perthousand/Scaron/guilsinglleft/OE/.notdef/.notdef
/.notdef/.notdef/quoteleft/quoteright/quotedblleft/quotedblright/bullet
/endash/emdash/tilde/trademark/scaron/guilsinglright/oe/.notdef/.notdef
/Ydieresis WindowsLatin1Encoding 128 32 getinterval astore pop}
{/WindowsLatin1Encoding StandardEncoding bdef} ifelse
/reencode {exch dup where {pop load} {pop StandardEncoding} ifelse
  exch dup 3 1 roll findfont dup length dict begin
  { 1 index /FID ne {def}{pop pop} ifelse } forall
  /Encoding exch def currentdict end definefont pop} bdef
/isroman {findfont /CharStrings get /Agrave known} bdef
/FMSR {3 1 roll 1 index dup isroman {reencode} {pop pop} ifelse
  exch FMS} bdef
/csm {1 dpi2point div -1 dpi2point div scale neg translate
 dup landscapeMode eq {pop -90 rotate}
  {rotateMode eq {90 rotate} if} ifelse} bdef
% line types: solid, dotted, dashed, dotdash
/SO { [] 0 setdash } bdef
/DO { [.5 dpi2point mul 4 dpi2point mul] 0 setdash } bdef
/DA { [6 dpi2point mul] 0 setdash } bdef
/DD { [.5 dpi2point mul 4 dpi2point mul 6 dpi2point mul 4
  dpi2point mul] 0 setdash } bdef
% macros for lines and objects
/L {lineto stroke} bdef
/MP {3 1 roll moveto 1 sub {rlineto} repeat} bdef
/AP {{rlineto} repeat} bdef
/PDlw -1 def
/W {/PDlw currentlinewidth def setlinewidth} def
/PP {closepath eofill} bdef
/DP {closepath stroke} bdef
/MR {4 -2 roll moveto dup  0 exch rlineto exch 0 rlineto
  neg 0 exch rlineto closepath} bdef
/FR {MR stroke} bdef
/PR {MR fill} bdef
/L1i {{currentfile picstr readhexstring pop} image} bdef
/tMatrix matrix def
/MakeOval {newpath tMatrix currentmatrix pop translate scale
0 0 1 0 360 arc tMatrix setmatrix} bdef
/FO {MakeOval stroke} bdef
/PO {MakeOval fill} bdef
/PD {currentlinewidth 2 div 0 360 arc fill
   PDlw -1 eq not {PDlw w /PDlw -1 def} if} def
/FA {newpath tMatrix currentmatrix pop translate scale
  0 0 1 5 -2 roll arc tMatrix setmatrix stroke} bdef
/PA {newpath tMatrix currentmatrix pop	translate 0 0 moveto scale
  0 0 1 5 -2 roll arc closepath tMatrix setmatrix fill} bdef
/FAn {newpath tMatrix currentmatrix pop translate scale
  0 0 1 5 -2 roll arcn tMatrix setmatrix stroke} bdef
/PAn {newpath tMatrix currentmatrix pop translate 0 0 moveto scale
  0 0 1 5 -2 roll arcn closepath tMatrix setmatrix fill} bdef
/vradius 0 def /hradius 0 def /lry 0 def
/lrx 0 def /uly 0 def /ulx 0 def /rad 0 def
/MRR {/vradius xdef /hradius xdef /lry xdef /lrx xdef /uly xdef
  /ulx xdef newpath tMatrix currentmatrix pop ulx hradius add uly
  vradius add translate hradius vradius scale 0 0 1 180 270 arc 
  tMatrix setmatrix lrx hradius sub uly vradius add translate
  hradius vradius scale 0 0 1 270 360 arc tMatrix setmatrix
  lrx hradius sub lry vradius sub translate hradius vradius scale
  0 0 1 0 90 arc tMatrix setmatrix ulx hradius add lry vradius sub
  translate hradius vradius scale 0 0 1 90 180 arc tMatrix setmatrix
  closepath} bdef
/FRR {MRR stroke } bdef
/PRR {MRR fill } bdef
/MlrRR {/lry xdef /lrx xdef /uly xdef /ulx xdef /rad lry uly sub 2 div def
  newpath tMatrix currentmatrix pop ulx rad add uly rad add translate
  rad rad scale 0 0 1 90 270 arc tMatrix setmatrix lrx rad sub lry rad
  sub translate rad rad scale 0 0 1 270 90 arc tMatrix setmatrix
  closepath} bdef
/FlrRR {MlrRR stroke } bdef
/PlrRR {MlrRR fill } bdef
/MtbRR {/lry xdef /lrx xdef /uly xdef /ulx xdef /rad lrx ulx sub 2 div def
  newpath tMatrix currentmatrix pop ulx rad add uly rad add translate
  rad rad scale 0 0 1 180 360 arc tMatrix setmatrix lrx rad sub lry rad
  sub translate rad rad scale 0 0 1 0 180 arc tMatrix setmatrix
  closepath} bdef
/FtbRR {MtbRR stroke } bdef
/PtbRR {MtbRR fill } bdef
/stri 6 array def /dtri 6 array def
/smat 6 array def /dmat 6 array def
/tmat1 6 array def /tmat2 6 array def /dif 3 array def
/asub {/ind2 exch def /ind1 exch def dup dup
  ind1 get exch ind2 get sub exch } bdef
/tri_to_matrix {
  2 0 asub 3 1 asub 4 0 asub 5 1 asub
  dup 0 get exch 1 get 7 -1 roll astore } bdef
/compute_transform {
  dmat dtri tri_to_matrix tmat1 invertmatrix 
  smat stri tri_to_matrix tmat2 concatmatrix } bdef
/ds {stri astore pop} bdef
/dt {dtri astore pop} bdef
/db {2 copy /cols xdef /rows xdef mul dup 3 mul string
  currentfile 
  3 index 0 eq {/ASCIIHexDecode filter}
  {/ASCII85Decode filter 3 index 2 eq {/RunLengthDecode filter} if }
  ifelse exch readstring pop
  dup 0 3 index getinterval /rbmap xdef
  dup 2 index dup getinterval /gbmap xdef
  1 index dup 2 mul exch getinterval /bbmap xdef pop pop}bdef
/it {gs np dtri aload pop moveto lineto lineto cp c
  cols rows 8 compute_transform 
  rbmap gbmap bbmap true 3 colorimage gr}bdef
/il {newpath moveto lineto stroke}bdef
currentdict end def
%%EndProlog

%%BeginSetup
MathWorks begin

0 cap

end
%%EndSetup

%%Page: 1 1
%%BeginPageSetup
%%PageBoundingBox:    96   238   515   553
MathWorks begin
bpage
%%EndPageSetup

%%BeginObject: obj1
bplot

/dpi2point 12 def
portraitMode 1152 6636 csm

    0     0  5039  3780 rc
90 dict begin %Colortable dictionary
/c0 { 0.000000 0.000000 0.000000 sr} bdef
/c1 { 1.000000 1.000000 1.000000 sr} bdef
/c2 { 0.900000 0.000000 0.000000 sr} bdef
/c3 { 0.000000 0.820000 0.000000 sr} bdef
/c4 { 0.000000 0.000000 0.800000 sr} bdef
/c5 { 0.910000 0.820000 0.320000 sr} bdef
/c6 { 1.000000 0.260000 0.820000 sr} bdef
/c7 { 0.000000 0.820000 0.820000 sr} bdef
c0
1 j
1 sg
   0    0 5040 3781 rf
6 w
0 3075 3905 0 0 -3075 655 3364 4 MP
PP
-3905 0 0 3075 3905 0 0 -3075 655 3364 5 MP stroke
4 w
DO
0 sg
 655 3364 mt  655  289 L
 655  289 mt  655  289 L
1631 3364 mt 1631  289 L
1631  289 mt 1631  289 L
2607 3364 mt 2607  289 L
2607  289 mt 2607  289 L
3583 3364 mt 3583  289 L
3583  289 mt 3583  289 L
4560 3364 mt 4560  289 L
4560  289 mt 4560  289 L
 655 3364 mt 4560 3364 L
4560 3364 mt 4560 3364 L
 655 2924 mt 4560 2924 L
4560 2924 mt 4560 2924 L
 655 2485 mt 4560 2485 L
4560 2485 mt 4560 2485 L
 655 2046 mt 4560 2046 L
4560 2046 mt 4560 2046 L
 655 1606 mt 4560 1606 L
4560 1606 mt 4560 1606 L
 655 1167 mt 4560 1167 L
4560 1167 mt 4560 1167 L
 655  728 mt 4560  728 L
4560  728 mt 4560  728 L
 655  289 mt 4560  289 L
4560  289 mt 4560  289 L
SO
6 w
 655 3364 mt 4560 3364 L
 655 3364 mt  655  289 L
 655 3364 mt  655 3324 L
%%IncludeResource: font Times-Bold
/Times-Bold /WindowsLatin1Encoding 168 FMSR

 613 3555 mt 
(0) s
1631 3364 mt 1631 3324 L
1589 3555 mt 
(5) s
2607 3364 mt 2607 3324 L
2523 3555 mt 
(10) s
3583 3364 mt 3583 3324 L
3499 3555 mt 
(15) s
4560 3364 mt 4560 3324 L
4476 3555 mt 
(20) s
 655 3364 mt  694 3364 L
 410 3426 mt 
(0.1) s
 655 2924 mt  694 2924 L
 410 2986 mt 
(0.2) s
 655 2485 mt  694 2485 L
 410 2547 mt 
(0.3) s
 655 2046 mt  694 2046 L
 410 2108 mt 
(0.4) s
 655 1606 mt  694 1606 L
 410 1668 mt 
(0.5) s
 655 1167 mt  694 1167 L
 410 1229 mt 
(0.6) s
 655  728 mt  694  728 L
 410  790 mt 
(0.7) s
 655  289 mt  694  289 L
 410  351 mt 
(0.8) s
 778  157 mt 
(SM Success Rates for SSD/8DOF on UCSB Dataset) s
gs 655 288 3906 3076 rc
36 w
/c8 { 1.000000 0.647059 0.000000 sr} bdef
c8
38 -1 37 -2 38 -2 37 -1 38 -1 37 -1 38 -1 37 -5 
38 -9 37 -6 38 -6 37 -6 38 -8 37 -6 38 -5 37 -1 
38 -3 37 -4 37 -3 38 -5 37 -6 38 -6 37 0 38 -6 
37 -6 38 -6 37 -8 38 0 37 -6 38 -4 37 -1 38 -1 
37 0 38 -4 37 -2 38 -2 37 -2 37 -7 38 -3 37 -6 
38 -2 37 -4 38 -4 37 -3 38 -2 37 -4 38 -5 37 -17 
38 -14 37 -9 38 -11 37 -8 38 -6 37 -11 37 -10 38 -4 
37 -7 38 -5 37 -9 38 -3 37 -8 38 -8 37 -8 38 -6 
37 -6 38 -9 37 -9 38 -8 37 -10 38 -13 37 -6 38 -11 
37 -10 37 -11 38 -9 37 -13 38 -8 37 -12 38 -11 37 -11 
38 -6 37 -12 38 -9 37 -14 38 -10 37 -15 38 -24 37 -25 
38 -30 37 -30 37 -23 38 -25 37 -84 38 -186 37 -105 38 -88 
37 -76 38 -56 37 -65 850 2892 100 MP stroke
/c9 { 0.000000 1.000000 0.000000 sr} bdef
c9
38 0 37 0 38 0 37 0 38 0 37 -1 38 0 37 0 
38 -4 37 -3 38 -1 37 -10 38 -5 37 -6 38 -5 37 -1 
38 -4 37 0 37 -1 38 -4 37 -1 38 0 37 -1 38 -1 
37 -2 38 -6 37 0 38 -3 37 -2 38 -4 37 -4 38 0 
37 -3 38 -5 37 -8 38 -4 37 0 37 -2 38 -3 37 -1 
38 0 37 -4 38 0 37 -1 38 0 37 -5 38 -2 37 -5 
38 -5 37 -3 38 -9 37 -7 38 -4 37 -5 37 -4 38 -5 
37 -9 38 -3 37 -9 38 -7 37 -7 38 -9 37 -4 38 -4 
37 -12 38 -8 37 -4 38 -4 37 -5 38 -4 37 -3 38 -5 
37 -5 37 -5 38 -10 37 -6 38 -6 37 -12 38 -4 37 -8 
38 -4 37 -4 38 -11 37 -10 38 -19 37 -23 38 -22 37 -15 
38 -29 37 -39 37 -35 38 -40 37 -129 38 -170 37 -106 38 -84 
37 -75 38 -55 37 -42 850 2945 100 MP stroke
/c10 { 0.000000 0.000000 1.000000 sr} bdef
c10
38 -2 37 -3 38 -5 37 -6 38 -1 37 -7 38 -3 37 -3 
38 -12 37 -5 38 -6 37 -9 38 -11 37 -7 38 -6 37 -1 
38 -7 37 0 37 -2 38 -14 37 -3 38 -3 37 -1 38 -1 
37 -5 38 -1 37 -3 38 -1 37 -1 38 -6 37 -2 38 -1 
37 0 38 -2 37 -2 38 -6 37 -1 37 -4 38 -2 37 -1 
38 -1 37 -4 38 -3 37 -2 38 -2 37 -6 38 -9 37 -15 
38 -12 37 -9 38 -10 37 -10 38 -8 37 -12 37 -8 38 -5 
37 -6 38 -6 37 -8 38 -6 37 -8 38 -8 37 -7 38 -9 
37 -8 38 -10 37 -7 38 -7 37 -8 38 -12 37 -7 38 -10 
37 -5 37 -15 38 -12 37 -13 38 -11 37 -14 38 -10 37 -16 
38 -11 37 -9 38 -10 37 -14 38 -12 37 -10 38 -13 37 -17 
38 -37 37 -31 37 -29 38 -24 37 -50 38 -162 37 -93 38 -79 
37 -80 38 -51 37 -56 850 2893 100 MP stroke
/c11 { 1.000000 0.000000 0.000000 sr} bdef
c11
38 -3 37 0 38 0 37 0 38 -2 37 -2 38 0 37 0 
38 -5 37 -3 38 -2 37 0 38 -6 37 -2 38 -2 37 -2 
38 -2 37 -1 37 -5 38 -11 37 -1 38 -3 37 -6 38 -5 
37 -4 38 -9 37 -7 38 -3 37 -2 38 -9 37 -5 38 0 
37 0 38 -2 37 -3 38 -1 37 0 37 -3 38 -2 37 -2 
38 0 37 -6 38 -1 37 -3 38 0 37 -1 38 -3 37 -4 
38 -3 37 -5 38 -10 37 -6 38 -7 37 -3 37 -6 38 -3 
37 -6 38 -7 37 -6 38 -13 37 -6 38 -11 37 -6 38 -10 
37 -10 38 -4 37 -9 38 -4 37 -3 38 -4 37 -4 38 -4 
37 -3 37 -4 38 -7 37 -6 38 -8 37 -4 38 -9 37 -9 
38 -6 37 -7 38 -7 37 -5 38 -6 37 -12 38 -22 37 -17 
38 -17 37 -14 37 -24 38 -20 37 -115 38 -149 37 -96 38 -74 
37 -49 38 -37 37 -47 850 2952 100 MP stroke
/c12 { 1.000000 0.000000 1.000000 sr} bdef
c12
38 0 37 0 38 -3 37 -3 38 -6 37 -7 38 -2 37 -1 
38 -6 37 -21 38 -7 37 -1 38 -4 37 -8 38 -5 37 -1 
38 -7 37 -3 37 -8 38 -4 37 -2 38 0 37 -1 38 -1 
37 -6 38 -2 37 0 38 -7 37 -4 38 -3 37 -5 38 -2 
37 -1 38 -5 37 -6 38 -1 37 -3 37 -3 38 -1 37 -1 
38 -1 37 -4 38 -1 37 -5 38 -5 37 -1 38 -3 37 -6 
38 -10 37 -10 38 -8 37 -13 38 -13 37 -14 37 -6 38 -9 
37 -8 38 -7 37 -6 38 -7 37 -8 38 -8 37 -5 38 -6 
37 -9 38 -8 37 -5 38 -4 37 -7 38 -9 37 -5 38 -5 
37 -5 37 -8 38 -11 37 -7 38 -4 37 -4 38 -11 37 -8 
38 -7 37 -18 38 -11 37 -32 38 -34 37 -24 38 -38 37 -34 
38 -37 37 -41 37 -46 38 -29 37 -179 38 -295 37 -149 38 -123 
37 -84 38 -80 37 -62 850 2869 100 MP stroke
/c13 { 0.627451 0.125490 0.941176 sr} bdef
c13
38 -12 37 -4 38 -1 37 -3 38 -12 37 -9 38 -15 37 -17 
38 -15 37 -17 38 -24 37 -20 38 -9 37 -7 38 -8 37 -7 
38 -17 37 -17 37 -13 38 -18 37 -13 38 -2 37 -6 38 -6 
37 -15 38 -13 37 -6 38 -10 37 -3 38 -15 37 -12 38 -19 
37 -7 38 -8 37 -8 38 -16 37 -6 37 -18 38 -9 37 -14 
38 -10 37 -12 38 -14 37 -6 38 -14 37 -13 38 -19 37 -17 
38 -10 37 -13 38 -26 37 -15 38 -21 37 -16 37 -10 38 -23 
37 -17 38 -15 37 -12 38 -21 37 -12 38 -11 37 -14 38 -18 
37 -23 38 -21 37 -24 38 -16 37 -37 38 -31 37 -15 38 -17 
37 -20 37 -18 38 -44 37 -25 38 -28 37 -35 38 -26 37 -46 
38 -38 37 -41 38 -36 37 -44 38 -43 37 -26 38 -33 37 -37 
38 -35 37 -24 37 -29 38 -31 37 -32 38 -63 37 -58 38 -64 
37 -54 38 -53 37 -59 850 2999 100 MP stroke
/c14 { 0.000000 0.392157 0.000000 sr} bdef
c14
38 0 37 -1 38 0 37 0 38 -4 37 -2 38 0 37 -1 
38 -3 37 -2 38 -2 37 0 38 -4 37 -4 38 -2 37 -1 
38 -2 37 0 37 -1 38 -4 37 -1 38 0 37 -1 38 -1 
37 -3 38 -1 37 0 38 -2 37 -5 38 -5 37 -1 38 -1 
37 -5 38 -2 37 -3 38 -4 37 -3 37 -4 38 -3 37 -1 
38 -1 37 -4 38 0 37 -2 38 -2 37 -1 38 -5 37 -8 
38 -6 37 -6 38 -11 37 -11 38 -13 37 -8 37 -18 38 -11 
37 -11 38 -9 37 -10 38 -14 37 -7 38 -6 37 -6 38 -11 
37 -9 38 -5 37 -7 38 -4 37 -6 38 -5 37 -3 38 -8 
37 -6 37 -13 38 -9 37 -12 38 -14 37 -4 38 -10 37 -12 
38 -6 37 -16 38 -26 37 -42 38 -44 37 -28 38 -51 37 -72 
38 -63 37 -72 37 -89 38 -99 37 -263 38 -306 37 -188 38 -124 
37 -100 38 -99 37 -80 850 2851 100 MP stroke
gr

36 w
c14
0 sg
2012 3726 mt 
(Error Threshold) s
 319 2287 mt  -90 rotate
(Success Rate) s
90 rotate
%%IncludeResource: font Helvetica
/Helvetica /WindowsLatin1Encoding 120 FMSR

 638 3406 mt 
( ) s
4544  330 mt 
( ) s
6 w
1 sg
0 1281 864 0 0 -1281 3620 3330 4 MP
PP
-864 0 0 1281 864 0 0 -1281 3620 3330 5 MP stroke
4 w
DO
SO
6 w
0 sg
3620 2049 mt 4484 2049 L
3620 3330 mt 4484 3330 L
4484 3330 mt 4484 2049 L
3620 3330 mt 3620 2049 L
3620 3330 mt 4484 3330 L
3620 3330 mt 3620 2049 L
3620 2049 mt 4484 2049 L
3620 3330 mt 4484 3330 L
4484 3330 mt 4484 2049 L
3620 3330 mt 3620 2049 L
%%IncludeResource: font Times-Bold
/Times-Bold /WindowsLatin1Encoding 120 FMSR

4089 2202 mt 
(FCLK) s
gs 3620 2049 865 1282 rc
36 w
c8
360 0 3692 2158 2 MP stroke
gr

36 w
c8
0 sg
4089 2379 mt 
(ICLK) s
gs 3620 2049 865 1282 rc
c9
360 0 3692 2335 2 MP stroke
gr

c9
0 sg
4089 2556 mt 
(FALK) s
gs 3620 2049 865 1282 rc
c10
360 0 3692 2512 2 MP stroke
gr

c10
0 sg
4089 2733 mt 
(IALK) s
gs 3620 2049 865 1282 rc
c11
360 0 3692 2689 2 MP stroke
gr

c11
0 sg
4089 2910 mt 
(ESM) s
gs 3620 2049 865 1282 rc
c12
360 0 3692 2866 2 MP stroke
gr

c12
0 sg
4089 3087 mt 
(AESM) s
gs 3620 2049 865 1282 rc
c13
360 0 3692 3043 2 MP stroke
gr

c13
0 sg
4089 3264 mt 
(NNIC) s
gs 3620 2049 865 1282 rc
c14
360 0 3692 3220 2 MP stroke
6 w
gr

6 w
c14

end %%Color Dict

eplot
%%EndObject

epage
end

showpage

%%Trailer
%%EOF
