%!PS-Adobe-3.0 EPSF-3.0
%%Creator: MATLAB, The MathWorks, Inc. Version 8.1.0.604 (R2013a). Operating System: Microsoft Windows 8.
%%Title: E:\UofA\Thesis\ICRA 2016\sm_tags_ssd_8.eps
%%CreationDate: 09/15/2015  03:28:39
%%DocumentNeededFonts: Times-Roman
%%+ Helvetica
%%+ Times-Bold
%%DocumentProcessColors: Cyan Magenta Yellow Black
%%LanguageLevel: 2
%%Pages: 1
%%BoundingBox:  -207   180   820   611
%%EndComments

%%BeginProlog
% MathWorks dictionary
/MathWorks 160 dict begin
% definition operators
/bdef {bind def} bind def
/ldef {load def} bind def
/xdef {exch def} bdef
/xstore {exch store} bdef
% operator abbreviations
/c  /clip ldef
/cc /concat ldef
/cp /closepath ldef
/gr /grestore ldef
/gs /gsave ldef
/mt /moveto ldef
/np /newpath ldef
/cm /currentmatrix ldef
/sm /setmatrix ldef
/rm /rmoveto ldef
/rl /rlineto ldef
/s {show newpath} bdef
/sc {setcmykcolor} bdef
/sr /setrgbcolor ldef
/sg /setgray ldef
/w /setlinewidth ldef
/j /setlinejoin ldef
/cap /setlinecap ldef
/rc {rectclip} bdef
/rf {rectfill} bdef
% page state control
/pgsv () def
/bpage {/pgsv save def} bdef
/epage {pgsv restore} bdef
/bplot /gsave ldef
/eplot {stroke grestore} bdef
% orientation switch
/portraitMode 0 def /landscapeMode 1 def /rotateMode 2 def
% coordinate system mappings
/dpi2point 0 def
% font control
/FontSize 0 def
/FMS {/FontSize xstore findfont [FontSize 0 0 FontSize neg 0 0]
  makefont setfont} bdef
/ISOLatin1Encoding where {pop /WindowsLatin1Encoding 256 array bdef
ISOLatin1Encoding WindowsLatin1Encoding copy pop
/.notdef/.notdef/quotesinglbase/florin/quotedblbase/ellipsis/dagger
/daggerdbl/circumflex/perthousand/Scaron/guilsinglleft/OE/.notdef/.notdef
/.notdef/.notdef/quoteleft/quoteright/quotedblleft/quotedblright/bullet
/endash/emdash/tilde/trademark/scaron/guilsinglright/oe/.notdef/.notdef
/Ydieresis WindowsLatin1Encoding 128 32 getinterval astore pop}
{/WindowsLatin1Encoding StandardEncoding bdef} ifelse
/reencode {exch dup where {pop load} {pop StandardEncoding} ifelse
  exch dup 3 1 roll findfont dup length dict begin
  { 1 index /FID ne {def}{pop pop} ifelse } forall
  /Encoding exch def currentdict end definefont pop} bdef
/isroman {findfont /CharStrings get /Agrave known} bdef
/FMSR {3 1 roll 1 index dup isroman {reencode} {pop pop} ifelse
  exch FMS} bdef
/csm {1 dpi2point div -1 dpi2point div scale neg translate
 dup landscapeMode eq {pop -90 rotate}
  {rotateMode eq {90 rotate} if} ifelse} bdef
% line types: solid, dotted, dashed, dotdash
/SO { [] 0 setdash } bdef
/DO { [.5 dpi2point mul 4 dpi2point mul] 0 setdash } bdef
/DA { [6 dpi2point mul] 0 setdash } bdef
/DD { [.5 dpi2point mul 4 dpi2point mul 6 dpi2point mul 4
  dpi2point mul] 0 setdash } bdef
% macros for lines and objects
/L {lineto stroke} bdef
/MP {3 1 roll moveto 1 sub {rlineto} repeat} bdef
/AP {{rlineto} repeat} bdef
/PDlw -1 def
/W {/PDlw currentlinewidth def setlinewidth} def
/PP {closepath eofill} bdef
/DP {closepath stroke} bdef
/MR {4 -2 roll moveto dup  0 exch rlineto exch 0 rlineto
  neg 0 exch rlineto closepath} bdef
/FR {MR stroke} bdef
/PR {MR fill} bdef
/L1i {{currentfile picstr readhexstring pop} image} bdef
/tMatrix matrix def
/MakeOval {newpath tMatrix currentmatrix pop translate scale
0 0 1 0 360 arc tMatrix setmatrix} bdef
/FO {MakeOval stroke} bdef
/PO {MakeOval fill} bdef
/PD {currentlinewidth 2 div 0 360 arc fill
   PDlw -1 eq not {PDlw w /PDlw -1 def} if} def
/FA {newpath tMatrix currentmatrix pop translate scale
  0 0 1 5 -2 roll arc tMatrix setmatrix stroke} bdef
/PA {newpath tMatrix currentmatrix pop	translate 0 0 moveto scale
  0 0 1 5 -2 roll arc closepath tMatrix setmatrix fill} bdef
/FAn {newpath tMatrix currentmatrix pop translate scale
  0 0 1 5 -2 roll arcn tMatrix setmatrix stroke} bdef
/PAn {newpath tMatrix currentmatrix pop translate 0 0 moveto scale
  0 0 1 5 -2 roll arcn closepath tMatrix setmatrix fill} bdef
/vradius 0 def /hradius 0 def /lry 0 def
/lrx 0 def /uly 0 def /ulx 0 def /rad 0 def
/MRR {/vradius xdef /hradius xdef /lry xdef /lrx xdef /uly xdef
  /ulx xdef newpath tMatrix currentmatrix pop ulx hradius add uly
  vradius add translate hradius vradius scale 0 0 1 180 270 arc 
  tMatrix setmatrix lrx hradius sub uly vradius add translate
  hradius vradius scale 0 0 1 270 360 arc tMatrix setmatrix
  lrx hradius sub lry vradius sub translate hradius vradius scale
  0 0 1 0 90 arc tMatrix setmatrix ulx hradius add lry vradius sub
  translate hradius vradius scale 0 0 1 90 180 arc tMatrix setmatrix
  closepath} bdef
/FRR {MRR stroke } bdef
/PRR {MRR fill } bdef
/MlrRR {/lry xdef /lrx xdef /uly xdef /ulx xdef /rad lry uly sub 2 div def
  newpath tMatrix currentmatrix pop ulx rad add uly rad add translate
  rad rad scale 0 0 1 90 270 arc tMatrix setmatrix lrx rad sub lry rad
  sub translate rad rad scale 0 0 1 270 90 arc tMatrix setmatrix
  closepath} bdef
/FlrRR {MlrRR stroke } bdef
/PlrRR {MlrRR fill } bdef
/MtbRR {/lry xdef /lrx xdef /uly xdef /ulx xdef /rad lrx ulx sub 2 div def
  newpath tMatrix currentmatrix pop ulx rad add uly rad add translate
  rad rad scale 0 0 1 180 360 arc tMatrix setmatrix lrx rad sub lry rad
  sub translate rad rad scale 0 0 1 0 180 arc tMatrix setmatrix
  closepath} bdef
/FtbRR {MtbRR stroke } bdef
/PtbRR {MtbRR fill } bdef
/stri 6 array def /dtri 6 array def
/smat 6 array def /dmat 6 array def
/tmat1 6 array def /tmat2 6 array def /dif 3 array def
/asub {/ind2 exch def /ind1 exch def dup dup
  ind1 get exch ind2 get sub exch } bdef
/tri_to_matrix {
  2 0 asub 3 1 asub 4 0 asub 5 1 asub
  dup 0 get exch 1 get 7 -1 roll astore } bdef
/compute_transform {
  dmat dtri tri_to_matrix tmat1 invertmatrix 
  smat stri tri_to_matrix tmat2 concatmatrix } bdef
/ds {stri astore pop} bdef
/dt {dtri astore pop} bdef
/db {2 copy /cols xdef /rows xdef mul dup 3 mul string
  currentfile 
  3 index 0 eq {/ASCIIHexDecode filter}
  {/ASCII85Decode filter 3 index 2 eq {/RunLengthDecode filter} if }
  ifelse exch readstring pop
  dup 0 3 index getinterval /rbmap xdef
  dup 2 index dup getinterval /gbmap xdef
  1 index dup 2 mul exch getinterval /bbmap xdef pop pop}bdef
/it {gs np dtri aload pop moveto lineto lineto cp c
  cols rows 8 compute_transform 
  rbmap gbmap bbmap true 3 colorimage gr}bdef
/il {newpath moveto lineto stroke}bdef
currentdict end def
%%EndProlog

%%BeginSetup
MathWorks begin

0 cap

end
%%EndSetup

%%Page: 1 1
%%BeginPageSetup
%%PageBoundingBox:  -207   180   820   611
MathWorks begin
bpage
%%EndPageSetup

%%BeginObject: obj1
bplot

/dpi2point 12 def
portraitMode -2484 7332 csm

    0     0 12330  5165 rc
85 dict begin %Colortable dictionary
/c0 { 0.000000 0.000000 0.000000 sr} bdef
/c1 { 1.000000 1.000000 1.000000 sr} bdef
/c2 { 0.900000 0.000000 0.000000 sr} bdef
/c3 { 0.000000 0.820000 0.000000 sr} bdef
/c4 { 0.000000 0.000000 0.800000 sr} bdef
/c5 { 0.910000 0.820000 0.320000 sr} bdef
/c6 { 1.000000 0.260000 0.820000 sr} bdef
/c7 { 0.000000 0.820000 0.820000 sr} bdef
c0
1 j
1 sg
   0    0 12331 5166 rf
6 w
0 4417 10836 0 0 -4417 504 4732 4 MP
PP
-10836 0 0 4417 10836 0 0 -4417 504 4732 5 MP stroke
4 w
DO
0 sg
 504 4732 mt  504  315 L
 504  315 mt  504  315 L
1708 4732 mt 1708  315 L
1708  315 mt 1708  315 L
2912 4732 mt 2912  315 L
2912  315 mt 2912  315 L
4116 4732 mt 4116  315 L
4116  315 mt 4116  315 L
5320 4732 mt 5320  315 L
5320  315 mt 5320  315 L
6524 4732 mt 6524  315 L
6524  315 mt 6524  315 L
7728 4732 mt 7728  315 L
7728  315 mt 7728  315 L
8932 4732 mt 8932  315 L
8932  315 mt 8932  315 L
10136 4732 mt 10136  315 L
10136  315 mt 10136  315 L
11340 4732 mt 11340  315 L
11340  315 mt 11340  315 L
 504 4732 mt 11340 4732 L
11340 4732 mt 11340 4732 L
 504 4290 mt 11340 4290 L
11340 4290 mt 11340 4290 L
 504 3848 mt 11340 3848 L
11340 3848 mt 11340 3848 L
 504 3406 mt 11340 3406 L
11340 3406 mt 11340 3406 L
 504 2965 mt 11340 2965 L
11340 2965 mt 11340 2965 L
 504 2523 mt 11340 2523 L
11340 2523 mt 11340 2523 L
 504 2081 mt 11340 2081 L
11340 2081 mt 11340 2081 L
 504 1640 mt 11340 1640 L
11340 1640 mt 11340 1640 L
 504 1198 mt 11340 1198 L
11340 1198 mt 11340 1198 L
 504  756 mt 11340  756 L
11340  756 mt 11340  756 L
 504  315 mt 11340  315 L
11340  315 mt 11340  315 L
SO
6 w
 504 4732 mt 11340 4732 L
 504 4732 mt  504  315 L
 504 4732 mt  504 4623 L
%%IncludeResource: font Times-Roman
/Times-Roman /WindowsLatin1Encoding 168 FMSR

 462 4916 mt 
(0) s
1708 4732 mt 1708 4623 L
1601 4916 mt 
(TR) s
2912 4732 mt 2912 4623 L
2799 4916 mt 
(RO) s
4116 4732 mt 4116 4623 L
4014 4916 mt 
(PR) s
5320 4732 mt 5320 4623 L
5218 4916 mt 
(SR) s
6524 4732 mt 6524 4623 L
6408 4916 mt 
(OC) s
7728 4732 mt 7728 4623 L
7617 4916 mt 
(TX) s
8932 4732 mt 8932 4623 L
8825 4916 mt 
(BL) s
10136 4732 mt 10136 4623 L
10034 4916 mt 
(SC) s
11340 4732 mt 11340 4623 L
11298 4916 mt 
(0) s
 504 4732 mt  612 4732 L
 385 4792 mt 
(0) s
 504 4290 mt  612 4290 L
 259 4350 mt 
(0.1) s
 504 3848 mt  612 3848 L
 259 3908 mt 
(0.2) s
 504 3406 mt  612 3406 L
 259 3466 mt 
(0.3) s
 504 2965 mt  612 2965 L
 259 3025 mt 
(0.4) s
 504 2523 mt  612 2523 L
 259 2583 mt 
(0.5) s
 504 2081 mt  612 2081 L
 259 2141 mt 
(0.6) s
 504 1640 mt  612 1640 L
 259 1700 mt 
(0.7) s
 504 1198 mt  612 1198 L
 259 1258 mt 
(0.8) s
 504  756 mt  612  756 L
 259  816 mt 
(0.9) s
 504  315 mt  612  315 L
 385  375 mt 
(1) s
%%IncludeResource: font Times-Bold
/Times-Bold /WindowsLatin1Encoding 168 FMSR

3848  232 mt 
(SM Success Rates for Different Challeges with SSD/8DOF ) s
gs 504 315 10837 4418 rc
/c8 { 0.000000 0.000000 0.562500 sr} bdef
c8
0 2963 110 0 0 -2963 1240 4732 4 MP
PP
0 sg
-110 0 0 2963 110 0 0 -2963 1240 4732 5 MP stroke
c8
0 2349 110 0 0 -2349 2444 4732 4 MP
PP
0 sg
-110 0 0 2349 110 0 0 -2349 2444 4732 5 MP stroke
c8
0 1953 110 0 0 -1953 3648 4732 4 MP
PP
0 sg
-110 0 0 1953 110 0 0 -1953 3648 4732 5 MP stroke
c8
0 2731 110 0 0 -2731 4852 4732 4 MP
PP
0 sg
-110 0 0 2731 110 0 0 -2731 4852 4732 5 MP stroke
c8
0 757 110 0 0 -757 6056 4732 4 MP
PP
0 sg
-110 0 0 757 110 0 0 -757 6056 4732 5 MP stroke
c8
0 3137 110 0 0 -3137 7260 4732 4 MP
PP
0 sg
-110 0 0 3137 110 0 0 -3137 7260 4732 5 MP stroke
c8
0 1953 110 0 0 -1953 8464 4732 4 MP
PP
0 sg
-110 0 0 1953 110 0 0 -1953 8464 4732 5 MP stroke
c8
0 4009 110 0 0 -4009 9668 4732 4 MP
PP
0 sg
-110 0 0 4009 110 0 0 -4009 9668 4732 5 MP stroke
10836 0 504 4732 2 MP stroke
/c9 { 0.000000 0.187500 1.000000 sr} bdef
c9
0 2831 110 0 0 -2831 1377 4732 4 MP
PP
0 sg
-110 0 0 2831 110 0 0 -2831 1377 4732 5 MP stroke
c9
0 2164 110 0 0 -2164 2581 4732 4 MP
PP
0 sg
-110 0 0 2164 110 0 0 -2164 2581 4732 5 MP stroke
c9
0 1931 110 0 0 -1931 3785 4732 4 MP
PP
0 sg
-110 0 0 1931 110 0 0 -1931 3785 4732 5 MP stroke
c9
0 2406 110 0 0 -2406 4989 4732 4 MP
PP
0 sg
-110 0 0 2406 110 0 0 -2406 4989 4732 5 MP stroke
c9
0 515 110 0 0 -515 6193 4732 4 MP
PP
0 sg
-110 0 0 515 110 0 0 -515 6193 4732 5 MP stroke
c9
0 1227 110 0 0 -1227 7397 4732 4 MP
PP
0 sg
-110 0 0 1227 110 0 0 -1227 7397 4732 5 MP stroke
c9
0 1745 110 0 0 -1745 8601 4732 4 MP
PP
0 sg
-110 0 0 1745 110 0 0 -1745 8601 4732 5 MP stroke
c9
0 3766 110 0 0 -3766 9805 4732 4 MP
PP
0 sg
-110 0 0 3766 110 0 0 -3766 9805 4732 5 MP stroke
/c10 { 0.000000 0.875000 1.000000 sr} bdef
c10
0 2780 110 0 0 -2780 1515 4732 4 MP
PP
0 sg
-110 0 0 2780 110 0 0 -2780 1515 4732 5 MP stroke
c10
0 2114 110 0 0 -2114 2719 4732 4 MP
PP
0 sg
-110 0 0 2114 110 0 0 -2114 2719 4732 5 MP stroke
c10
0 1724 110 0 0 -1724 3923 4732 4 MP
PP
0 sg
-110 0 0 1724 110 0 0 -1724 3923 4732 5 MP stroke
c10
0 2458 110 0 0 -2458 5127 4732 4 MP
PP
0 sg
-110 0 0 2458 110 0 0 -2458 5127 4732 5 MP stroke
c10
0 793 110 0 0 -793 6331 4732 4 MP
PP
0 sg
-110 0 0 793 110 0 0 -793 6331 4732 5 MP stroke
c10
0 3271 110 0 0 -3271 7535 4732 4 MP
PP
0 sg
-110 0 0 3271 110 0 0 -3271 7535 4732 5 MP stroke
c10
0 1867 110 0 0 -1867 8739 4732 4 MP
PP
0 sg
-110 0 0 1867 110 0 0 -1867 8739 4732 5 MP stroke
c10
0 3641 110 0 0 -3641 9943 4732 4 MP
PP
0 sg
-110 0 0 3641 110 0 0 -3641 9943 4732 5 MP stroke
/c11 { 0.562500 1.000000 0.437500 sr} bdef
c11
0 2545 111 0 0 -2545 1652 4732 4 MP
PP
0 sg
-111 0 0 2545 111 0 0 -2545 1652 4732 5 MP stroke
c11
0 1953 111 0 0 -1953 2856 4732 4 MP
PP
0 sg
-111 0 0 1953 111 0 0 -1953 2856 4732 5 MP stroke
c11
0 1818 111 0 0 -1818 4060 4732 4 MP
PP
0 sg
-111 0 0 1818 111 0 0 -1818 4060 4732 5 MP stroke
c11
0 2098 111 0 0 -2098 5264 4732 4 MP
PP
0 sg
-111 0 0 2098 111 0 0 -2098 5264 4732 5 MP stroke
c11
0 809 111 0 0 -809 6468 4732 4 MP
PP
0 sg
-111 0 0 809 111 0 0 -809 6468 4732 5 MP stroke
c11
0 2555 111 0 0 -2555 7672 4732 4 MP
PP
0 sg
-111 0 0 2555 111 0 0 -2555 7672 4732 5 MP stroke
c11
0 1649 111 0 0 -1649 8876 4732 4 MP
PP
0 sg
-111 0 0 1649 111 0 0 -1649 8876 4732 5 MP stroke
c11
0 3618 111 0 0 -3618 10080 4732 4 MP
PP
0 sg
-111 0 0 3618 111 0 0 -3618 10080 4732 5 MP stroke
/c12 { 1.000000 0.812500 0.000000 sr} bdef
c12
0 3040 110 0 0 -3040 1790 4732 4 MP
PP
0 sg
-110 0 0 3040 110 0 0 -3040 1790 4732 5 MP stroke
c12
0 2472 110 0 0 -2472 2994 4732 4 MP
PP
0 sg
-110 0 0 2472 110 0 0 -2472 2994 4732 5 MP stroke
c12
0 1965 110 0 0 -1965 4198 4732 4 MP
PP
0 sg
-110 0 0 1965 110 0 0 -1965 4198 4732 5 MP stroke
c12
0 2735 110 0 0 -2735 5402 4732 4 MP
PP
0 sg
-110 0 0 2735 110 0 0 -2735 5402 4732 5 MP stroke
c12
0 811 110 0 0 -811 6606 4732 4 MP
PP
0 sg
-110 0 0 811 110 0 0 -811 6606 4732 5 MP stroke
c12
0 2627 110 0 0 -2627 7810 4732 4 MP
PP
0 sg
-110 0 0 2627 110 0 0 -2627 7810 4732 5 MP stroke
c12
0 1995 110 0 0 -1995 9014 4732 4 MP
PP
0 sg
-110 0 0 1995 110 0 0 -1995 9014 4732 5 MP stroke
c12
0 4046 110 0 0 -4046 10218 4732 4 MP
PP
0 sg
-110 0 0 4046 110 0 0 -4046 10218 4732 5 MP stroke
/c13 { 1.000000 0.125000 0.000000 sr} bdef
c13
0 2124 110 0 0 -2124 1928 4732 4 MP
PP
0 sg
-110 0 0 2124 110 0 0 -2124 1928 4732 5 MP stroke
c13
0 1168 110 0 0 -1168 3132 4732 4 MP
PP
0 sg
-110 0 0 1168 110 0 0 -1168 3132 4732 5 MP stroke
c13
0 1530 110 0 0 -1530 4336 4732 4 MP
PP
0 sg
-110 0 0 1530 110 0 0 -1530 4336 4732 5 MP stroke
c13
0 1968 110 0 0 -1968 5540 4732 4 MP
PP
0 sg
-110 0 0 1968 110 0 0 -1968 5540 4732 5 MP stroke
c13
0 668 110 0 0 -668 6744 4732 4 MP
PP
0 sg
-110 0 0 668 110 0 0 -668 6744 4732 5 MP stroke
c13
0 2689 110 0 0 -2689 7948 4732 4 MP
PP
0 sg
-110 0 0 2689 110 0 0 -2689 7948 4732 5 MP stroke
c13
0 1080 110 0 0 -1080 9152 4732 4 MP
PP
0 sg
-110 0 0 1080 110 0 0 -1080 9152 4732 5 MP stroke
c13
0 3154 110 0 0 -3154 10356 4732 4 MP
PP
0 sg
-110 0 0 3154 110 0 0 -3154 10356 4732 5 MP stroke
/c14 { 0.500000 0.000000 0.000000 sr} bdef
c14
0 2837 110 0 0 -2837 2065 4732 4 MP
PP
0 sg
-110 0 0 2837 110 0 0 -2837 2065 4732 5 MP stroke
c14
0 2235 110 0 0 -2235 3269 4732 4 MP
PP
0 sg
-110 0 0 2235 110 0 0 -2235 3269 4732 5 MP stroke
c14
0 1373 110 0 0 -1373 4473 4732 4 MP
PP
0 sg
-110 0 0 1373 110 0 0 -1373 4473 4732 5 MP stroke
c14
0 2274 110 0 0 -2274 5677 4732 4 MP
PP
0 sg
-110 0 0 2274 110 0 0 -2274 5677 4732 5 MP stroke
c14
0 277 110 0 0 -277 6881 4732 4 MP
PP
0 sg
-110 0 0 277 110 0 0 -277 6881 4732 5 MP stroke
c14
0 121 110 0 0 -121 8085 4732 4 MP
PP
0 sg
-110 0 0 121 110 0 0 -121 8085 4732 5 MP stroke
c14
0 1804 110 0 0 -1804 9289 4732 4 MP
PP
0 sg
-110 0 0 1804 110 0 0 -1804 9289 4732 5 MP stroke
c14
0 3705 110 0 0 -3705 10493 4732 4 MP
PP
0 sg
-110 0 0 3705 110 0 0 -3705 10493 4732 5 MP stroke
gr

%%IncludeResource: font Times-Roman
/Times-Roman /WindowsLatin1Encoding 168 FMSR

5566 5084 mt 
(challenges) s
 168 2984 mt  -90 rotate
(success count) s
90 rotate
%%IncludeResource: font Helvetica
/Helvetica /WindowsLatin1Encoding 120 FMSR

 487 4775 mt 
( ) s
11324  357 mt 
( ) s
1 sg
0 1533 981 0 0 -1533 11369 1860 4 MP
PP
-981 0 0 1533 981 0 0 -1533 11369 1860 5 MP stroke
4 w
DO
SO
6 w
0 sg
11369  327 mt 12350  327 L
11369 1860 mt 12350 1860 L
12350 1860 mt 12350  327 L
11369 1860 mt 11369  327 L
11369 1860 mt 12350 1860 L
11369 1860 mt 11369  327 L
11369  327 mt 12350  327 L
11369 1860 mt 12350 1860 L
12350 1860 mt 12350  327 L
11369 1860 mt 11369  327 L
%%IncludeResource: font Times-Roman
/Times-Roman /WindowsLatin1Encoding 168 FMSR

11837  512 mt 
(FCLK) s
c8
-360 0 0 160 360 0 0 -160 11441 534 5 MP
PP
0 sg
0 0 -360 0 0 160 360 0 0 -160 11441 534 6 MP stroke
11837  725 mt 
(ICLK) s
c9
-360 0 0 160 360 0 0 -160 11441 747 5 MP
PP
0 sg
0 0 -360 0 0 160 360 0 0 -160 11441 747 6 MP stroke
11837  938 mt 
(FALK) s
c10
-360 0 0 160 360 0 0 -160 11441 960 5 MP
PP
0 sg
0 0 -360 0 0 160 360 0 0 -160 11441 960 6 MP stroke
11837 1151 mt 
(IALK) s
c11
-360 0 0 160 360 0 0 -160 11441 1173 5 MP
PP
0 sg
0 0 -360 0 0 160 360 0 0 -160 11441 1173 6 MP stroke
11837 1364 mt 
(ESM) s
c12
-360 0 0 160 360 0 0 -160 11441 1386 5 MP
PP
0 sg
0 0 -360 0 0 160 360 0 0 -160 11441 1386 6 MP stroke
11837 1577 mt 
(AESM) s
c13
-360 0 0 160 360 0 0 -160 11441 1599 5 MP
PP
0 sg
0 0 -360 0 0 160 360 0 0 -160 11441 1599 6 MP stroke
11837 1790 mt 
(NNIC) s
c14
-360 0 0 160 360 0 0 -160 11441 1812 5 MP
PP
0 sg
0 0 -360 0 0 160 360 0 0 -160 11441 1812 6 MP stroke

end %%Color Dict

eplot
%%EndObject

epage
end

showpage

%%Trailer
%%EOF
