%!PS-Adobe-3.0 EPSF-3.0
%%Creator: MATLAB, The MathWorks, Inc. Version 8.1.0.604 (R2013a). Operating System: Microsoft Windows 8.
%%Title: E:\UofA\Thesis\ICRA 2016\sm_tags_rscv_8.eps
%%CreationDate: 09/15/2015  03:26:42
%%DocumentNeededFonts: Times-Roman
%%+ Helvetica
%%DocumentProcessColors: Cyan Magenta Yellow Black
%%LanguageLevel: 2
%%Pages: 1
%%BoundingBox:  -207   210   820   581
%%EndComments

%%BeginProlog
% MathWorks dictionary
/MathWorks 160 dict begin
% definition operators
/bdef {bind def} bind def
/ldef {load def} bind def
/xdef {exch def} bdef
/xstore {exch store} bdef
% operator abbreviations
/c  /clip ldef
/cc /concat ldef
/cp /closepath ldef
/gr /grestore ldef
/gs /gsave ldef
/mt /moveto ldef
/np /newpath ldef
/cm /currentmatrix ldef
/sm /setmatrix ldef
/rm /rmoveto ldef
/rl /rlineto ldef
/s {show newpath} bdef
/sc {setcmykcolor} bdef
/sr /setrgbcolor ldef
/sg /setgray ldef
/w /setlinewidth ldef
/j /setlinejoin ldef
/cap /setlinecap ldef
/rc {rectclip} bdef
/rf {rectfill} bdef
% page state control
/pgsv () def
/bpage {/pgsv save def} bdef
/epage {pgsv restore} bdef
/bplot /gsave ldef
/eplot {stroke grestore} bdef
% orientation switch
/portraitMode 0 def /landscapeMode 1 def /rotateMode 2 def
% coordinate system mappings
/dpi2point 0 def
% font control
/FontSize 0 def
/FMS {/FontSize xstore findfont [FontSize 0 0 FontSize neg 0 0]
  makefont setfont} bdef
/ISOLatin1Encoding where {pop /WindowsLatin1Encoding 256 array bdef
ISOLatin1Encoding WindowsLatin1Encoding copy pop
/.notdef/.notdef/quotesinglbase/florin/quotedblbase/ellipsis/dagger
/daggerdbl/circumflex/perthousand/Scaron/guilsinglleft/OE/.notdef/.notdef
/.notdef/.notdef/quoteleft/quoteright/quotedblleft/quotedblright/bullet
/endash/emdash/tilde/trademark/scaron/guilsinglright/oe/.notdef/.notdef
/Ydieresis WindowsLatin1Encoding 128 32 getinterval astore pop}
{/WindowsLatin1Encoding StandardEncoding bdef} ifelse
/reencode {exch dup where {pop load} {pop StandardEncoding} ifelse
  exch dup 3 1 roll findfont dup length dict begin
  { 1 index /FID ne {def}{pop pop} ifelse } forall
  /Encoding exch def currentdict end definefont pop} bdef
/isroman {findfont /CharStrings get /Agrave known} bdef
/FMSR {3 1 roll 1 index dup isroman {reencode} {pop pop} ifelse
  exch FMS} bdef
/csm {1 dpi2point div -1 dpi2point div scale neg translate
 dup landscapeMode eq {pop -90 rotate}
  {rotateMode eq {90 rotate} if} ifelse} bdef
% line types: solid, dotted, dashed, dotdash
/SO { [] 0 setdash } bdef
/DO { [.5 dpi2point mul 4 dpi2point mul] 0 setdash } bdef
/DA { [6 dpi2point mul] 0 setdash } bdef
/DD { [.5 dpi2point mul 4 dpi2point mul 6 dpi2point mul 4
  dpi2point mul] 0 setdash } bdef
% macros for lines and objects
/L {lineto stroke} bdef
/MP {3 1 roll moveto 1 sub {rlineto} repeat} bdef
/AP {{rlineto} repeat} bdef
/PDlw -1 def
/W {/PDlw currentlinewidth def setlinewidth} def
/PP {closepath eofill} bdef
/DP {closepath stroke} bdef
/MR {4 -2 roll moveto dup  0 exch rlineto exch 0 rlineto
  neg 0 exch rlineto closepath} bdef
/FR {MR stroke} bdef
/PR {MR fill} bdef
/L1i {{currentfile picstr readhexstring pop} image} bdef
/tMatrix matrix def
/MakeOval {newpath tMatrix currentmatrix pop translate scale
0 0 1 0 360 arc tMatrix setmatrix} bdef
/FO {MakeOval stroke} bdef
/PO {MakeOval fill} bdef
/PD {currentlinewidth 2 div 0 360 arc fill
   PDlw -1 eq not {PDlw w /PDlw -1 def} if} def
/FA {newpath tMatrix currentmatrix pop translate scale
  0 0 1 5 -2 roll arc tMatrix setmatrix stroke} bdef
/PA {newpath tMatrix currentmatrix pop	translate 0 0 moveto scale
  0 0 1 5 -2 roll arc closepath tMatrix setmatrix fill} bdef
/FAn {newpath tMatrix currentmatrix pop translate scale
  0 0 1 5 -2 roll arcn tMatrix setmatrix stroke} bdef
/PAn {newpath tMatrix currentmatrix pop translate 0 0 moveto scale
  0 0 1 5 -2 roll arcn closepath tMatrix setmatrix fill} bdef
/vradius 0 def /hradius 0 def /lry 0 def
/lrx 0 def /uly 0 def /ulx 0 def /rad 0 def
/MRR {/vradius xdef /hradius xdef /lry xdef /lrx xdef /uly xdef
  /ulx xdef newpath tMatrix currentmatrix pop ulx hradius add uly
  vradius add translate hradius vradius scale 0 0 1 180 270 arc 
  tMatrix setmatrix lrx hradius sub uly vradius add translate
  hradius vradius scale 0 0 1 270 360 arc tMatrix setmatrix
  lrx hradius sub lry vradius sub translate hradius vradius scale
  0 0 1 0 90 arc tMatrix setmatrix ulx hradius add lry vradius sub
  translate hradius vradius scale 0 0 1 90 180 arc tMatrix setmatrix
  closepath} bdef
/FRR {MRR stroke } bdef
/PRR {MRR fill } bdef
/MlrRR {/lry xdef /lrx xdef /uly xdef /ulx xdef /rad lry uly sub 2 div def
  newpath tMatrix currentmatrix pop ulx rad add uly rad add translate
  rad rad scale 0 0 1 90 270 arc tMatrix setmatrix lrx rad sub lry rad
  sub translate rad rad scale 0 0 1 270 90 arc tMatrix setmatrix
  closepath} bdef
/FlrRR {MlrRR stroke } bdef
/PlrRR {MlrRR fill } bdef
/MtbRR {/lry xdef /lrx xdef /uly xdef /ulx xdef /rad lrx ulx sub 2 div def
  newpath tMatrix currentmatrix pop ulx rad add uly rad add translate
  rad rad scale 0 0 1 180 360 arc tMatrix setmatrix lrx rad sub lry rad
  sub translate rad rad scale 0 0 1 0 180 arc tMatrix setmatrix
  closepath} bdef
/FtbRR {MtbRR stroke } bdef
/PtbRR {MtbRR fill } bdef
/stri 6 array def /dtri 6 array def
/smat 6 array def /dmat 6 array def
/tmat1 6 array def /tmat2 6 array def /dif 3 array def
/asub {/ind2 exch def /ind1 exch def dup dup
  ind1 get exch ind2 get sub exch } bdef
/tri_to_matrix {
  2 0 asub 3 1 asub 4 0 asub 5 1 asub
  dup 0 get exch 1 get 7 -1 roll astore } bdef
/compute_transform {
  dmat dtri tri_to_matrix tmat1 invertmatrix 
  smat stri tri_to_matrix tmat2 concatmatrix } bdef
/ds {stri astore pop} bdef
/dt {dtri astore pop} bdef
/db {2 copy /cols xdef /rows xdef mul dup 3 mul string
  currentfile 
  3 index 0 eq {/ASCIIHexDecode filter}
  {/ASCII85Decode filter 3 index 2 eq {/RunLengthDecode filter} if }
  ifelse exch readstring pop
  dup 0 3 index getinterval /rbmap xdef
  dup 2 index dup getinterval /gbmap xdef
  1 index dup 2 mul exch getinterval /bbmap xdef pop pop}bdef
/it {gs np dtri aload pop moveto lineto lineto cp c
  cols rows 8 compute_transform 
  rbmap gbmap bbmap true 3 colorimage gr}bdef
/il {newpath moveto lineto stroke}bdef
currentdict end def
%%EndProlog

%%BeginSetup
MathWorks begin

0 cap

end
%%EndSetup

%%Page: 1 1
%%BeginPageSetup
%%PageBoundingBox:  -207   210   820   581
MathWorks begin
bpage
%%EndPageSetup

%%BeginObject: obj1
bplot

/dpi2point 12 def
portraitMode -2484 6972 csm

    0     0 12330  4445 rc
85 dict begin %Colortable dictionary
/c0 { 0.000000 0.000000 0.000000 sr} bdef
/c1 { 1.000000 1.000000 1.000000 sr} bdef
/c2 { 0.900000 0.000000 0.000000 sr} bdef
/c3 { 0.000000 0.820000 0.000000 sr} bdef
/c4 { 0.000000 0.000000 0.800000 sr} bdef
/c5 { 0.910000 0.820000 0.320000 sr} bdef
/c6 { 1.000000 0.260000 0.820000 sr} bdef
/c7 { 0.000000 0.820000 0.820000 sr} bdef
c0
1 j
1 sg
   0    0 12331 4446 rf
6 w
0 3623 10817 0 0 -3623 505 3956 4 MP
PP
-10817 0 0 3623 10817 0 0 -3623 505 3956 5 MP stroke
4 w
DO
0 sg
 505 3956 mt  505  333 L
 505  333 mt  505  333 L
1706 3956 mt 1706  333 L
1706  333 mt 1706  333 L
2908 3956 mt 2908  333 L
2908  333 mt 2908  333 L
4110 3956 mt 4110  333 L
4110  333 mt 4110  333 L
5312 3956 mt 5312  333 L
5312  333 mt 5312  333 L
6514 3956 mt 6514  333 L
6514  333 mt 6514  333 L
7716 3956 mt 7716  333 L
7716  333 mt 7716  333 L
8918 3956 mt 8918  333 L
8918  333 mt 8918  333 L
10120 3956 mt 10120  333 L
10120  333 mt 10120  333 L
11322 3956 mt 11322  333 L
11322  333 mt 11322  333 L
 505 3956 mt 11322 3956 L
11322 3956 mt 11322 3956 L
 505 3593 mt 11322 3593 L
11322 3593 mt 11322 3593 L
 505 3231 mt 11322 3231 L
11322 3231 mt 11322 3231 L
 505 2869 mt 11322 2869 L
11322 2869 mt 11322 2869 L
 505 2506 mt 11322 2506 L
11322 2506 mt 11322 2506 L
 505 2144 mt 11322 2144 L
11322 2144 mt 11322 2144 L
 505 1782 mt 11322 1782 L
11322 1782 mt 11322 1782 L
 505 1419 mt 11322 1419 L
11322 1419 mt 11322 1419 L
 505 1057 mt 11322 1057 L
11322 1057 mt 11322 1057 L
 505  695 mt 11322  695 L
11322  695 mt 11322  695 L
 505  333 mt 11322  333 L
11322  333 mt 11322  333 L
SO
6 w
 505 3956 mt 11322 3956 L
 505 3956 mt  505  333 L
 505 3956 mt  505 3847 L
%%IncludeResource: font Times-Roman
/Times-Roman /WindowsLatin1Encoding 168 FMSR

 463 4140 mt 
(0) s
1706 3956 mt 1706 3847 L
1599 4140 mt 
(TR) s
2908 3956 mt 2908 3847 L
2795 4140 mt 
(RO) s
4110 3956 mt 4110 3847 L
4008 4140 mt 
(PR) s
5312 3956 mt 5312 3847 L
5210 4140 mt 
(SR) s
6514 3956 mt 6514 3847 L
6398 4140 mt 
(OC) s
7716 3956 mt 7716 3847 L
7605 4140 mt 
(TX) s
8918 3956 mt 8918 3847 L
8811 4140 mt 
(BL) s
10120 3956 mt 10120 3847 L
10018 4140 mt 
(SC) s
11322 3956 mt 11322 3847 L
11280 4140 mt 
(0) s
 505 3956 mt  613 3956 L
 386 4016 mt 
(0) s
 505 3593 mt  613 3593 L
 260 3653 mt 
(0.1) s
 505 3231 mt  613 3231 L
 260 3291 mt 
(0.2) s
 505 2869 mt  613 2869 L
 260 2929 mt 
(0.3) s
 505 2506 mt  613 2506 L
 260 2566 mt 
(0.4) s
 505 2144 mt  613 2144 L
 260 2204 mt 
(0.5) s
 505 1782 mt  613 1782 L
 260 1842 mt 
(0.6) s
 505 1419 mt  613 1419 L
 260 1479 mt 
(0.7) s
 505 1057 mt  613 1057 L
 260 1117 mt 
(0.8) s
 505  695 mt  613  695 L
 260  755 mt 
(0.9) s
 505  333 mt  613  333 L
 386  393 mt 
(1) s
3835  205 mt 
(SM Success Rates for Different Challeges with RSCV/8DOF ) s
gs 505 333 10818 3624 rc
/c8 { 0.000000 0.000000 0.562500 sr} bdef
c8
0 2758 110 0 0 -2758 1239 3956 4 MP
PP
0 sg
-110 0 0 2758 110 0 0 -2758 1239 3956 5 MP stroke
c8
0 2645 110 0 0 -2645 2441 3956 4 MP
PP
0 sg
-110 0 0 2645 110 0 0 -2645 2441 3956 5 MP stroke
c8
0 2952 110 0 0 -2952 3643 3956 4 MP
PP
0 sg
-110 0 0 2952 110 0 0 -2952 3643 3956 5 MP stroke
c8
0 2751 110 0 0 -2751 4845 3956 4 MP
PP
0 sg
-110 0 0 2751 110 0 0 -2751 4845 3956 5 MP stroke
c8
0 1153 110 0 0 -1153 6047 3956 4 MP
PP
0 sg
-110 0 0 1153 110 0 0 -1153 6047 3956 5 MP stroke
c8
0 2179 110 0 0 -2179 7249 3956 4 MP
PP
0 sg
-110 0 0 2179 110 0 0 -2179 7249 3956 5 MP stroke
c8
0 1850 110 0 0 -1850 8451 3956 4 MP
PP
0 sg
-110 0 0 1850 110 0 0 -1850 8451 3956 5 MP stroke
c8
0 3385 109 0 0 -3385 9653 3956 4 MP
PP
0 sg
-109 0 0 3385 109 0 0 -3385 9653 3956 5 MP stroke
10817 0 505 3956 2 MP stroke
/c9 { 0.000000 0.187500 1.000000 sr} bdef
c9
0 2478 110 0 0 -2478 1377 3956 4 MP
PP
0 sg
-110 0 0 2478 110 0 0 -2478 1377 3956 5 MP stroke
c9
0 2311 110 0 0 -2311 2579 3956 4 MP
PP
0 sg
-110 0 0 2311 110 0 0 -2311 2579 3956 5 MP stroke
c9
0 2663 109 0 0 -2663 3781 3956 4 MP
PP
0 sg
-109 0 0 2663 109 0 0 -2663 3781 3956 5 MP stroke
c9
0 2519 110 0 0 -2519 4982 3956 4 MP
PP
0 sg
-110 0 0 2519 110 0 0 -2519 4982 3956 5 MP stroke
c9
0 1410 110 0 0 -1410 6184 3956 4 MP
PP
0 sg
-110 0 0 1410 110 0 0 -1410 6184 3956 5 MP stroke
c9
0 2242 110 0 0 -2242 7386 3956 4 MP
PP
0 sg
-110 0 0 2242 110 0 0 -2242 7386 3956 5 MP stroke
c9
0 1636 110 0 0 -1636 8588 3956 4 MP
PP
0 sg
-110 0 0 1636 110 0 0 -1636 8588 3956 5 MP stroke
c9
0 3132 110 0 0 -3132 9790 3956 4 MP
PP
0 sg
-110 0 0 3132 110 0 0 -3132 9790 3956 5 MP stroke
/c10 { 0.000000 0.875000 1.000000 sr} bdef
c10
0 2514 110 0 0 -2514 1514 3956 4 MP
PP
0 sg
-110 0 0 2514 110 0 0 -2514 1514 3956 5 MP stroke
c10
0 2412 110 0 0 -2412 2716 3956 4 MP
PP
0 sg
-110 0 0 2412 110 0 0 -2412 2716 3956 5 MP stroke
c10
0 2612 110 0 0 -2612 3918 3956 4 MP
PP
0 sg
-110 0 0 2612 110 0 0 -2612 3918 3956 5 MP stroke
c10
0 2431 110 0 0 -2431 5120 3956 4 MP
PP
0 sg
-110 0 0 2431 110 0 0 -2431 5120 3956 5 MP stroke
c10
0 1158 110 0 0 -1158 6322 3956 4 MP
PP
0 sg
-110 0 0 1158 110 0 0 -1158 6322 3956 5 MP stroke
c10
0 2728 109 0 0 -2728 7524 3956 4 MP
PP
0 sg
-109 0 0 2728 109 0 0 -2728 7524 3956 5 MP stroke
c10
0 1742 110 0 0 -1742 8725 3956 4 MP
PP
0 sg
-110 0 0 1742 110 0 0 -1742 8725 3956 5 MP stroke
c10
0 3040 110 0 0 -3040 9927 3956 4 MP
PP
0 sg
-110 0 0 3040 110 0 0 -3040 9927 3956 5 MP stroke
/c11 { 0.562500 1.000000 0.437500 sr} bdef
c11
0 2290 110 0 0 -2290 1651 3956 4 MP
PP
0 sg
-110 0 0 2290 110 0 0 -2290 1651 3956 5 MP stroke
c11
0 1742 110 0 0 -1742 2853 3956 4 MP
PP
0 sg
-110 0 0 1742 110 0 0 -1742 2853 3956 5 MP stroke
c11
0 2101 110 0 0 -2101 4055 3956 4 MP
PP
0 sg
-110 0 0 2101 110 0 0 -2101 4055 3956 5 MP stroke
c11
0 2195 110 0 0 -2195 5257 3956 4 MP
PP
0 sg
-110 0 0 2195 110 0 0 -2195 5257 3956 5 MP stroke
c11
0 722 110 0 0 -722 6459 3956 4 MP
PP
0 sg
-110 0 0 722 110 0 0 -722 6459 3956 5 MP stroke
c11
0 2248 110 0 0 -2248 7661 3956 4 MP
PP
0 sg
-110 0 0 2248 110 0 0 -2248 7661 3956 5 MP stroke
c11
0 1441 110 0 0 -1441 8863 3956 4 MP
PP
0 sg
-110 0 0 1441 110 0 0 -1441 8863 3956 5 MP stroke
c11
0 2971 110 0 0 -2971 10065 3956 4 MP
PP
0 sg
-110 0 0 2971 110 0 0 -2971 10065 3956 5 MP stroke
/c12 { 1.000000 0.812500 0.000000 sr} bdef
c12
0 2799 110 0 0 -2799 1789 3956 4 MP
PP
0 sg
-110 0 0 2799 110 0 0 -2799 1789 3956 5 MP stroke
c12
0 2813 110 0 0 -2813 2991 3956 4 MP
PP
0 sg
-110 0 0 2813 110 0 0 -2813 2991 3956 5 MP stroke
c12
0 2942 109 0 0 -2942 4193 3956 4 MP
PP
0 sg
-109 0 0 2942 109 0 0 -2942 4193 3956 5 MP stroke
c12
0 2841 110 0 0 -2841 5394 3956 4 MP
PP
0 sg
-110 0 0 2841 110 0 0 -2841 5394 3956 5 MP stroke
c12
0 1449 110 0 0 -1449 6596 3956 4 MP
PP
0 sg
-110 0 0 1449 110 0 0 -1449 6596 3956 5 MP stroke
c12
0 2182 110 0 0 -2182 7798 3956 4 MP
PP
0 sg
-110 0 0 2182 110 0 0 -2182 7798 3956 5 MP stroke
c12
0 1882 110 0 0 -1882 9000 3956 4 MP
PP
0 sg
-110 0 0 1882 110 0 0 -1882 9000 3956 5 MP stroke
c12
0 3485 110 0 0 -3485 10202 3956 4 MP
PP
0 sg
-110 0 0 3485 110 0 0 -3485 10202 3956 5 MP stroke
/c13 { 1.000000 0.125000 0.000000 sr} bdef
c13
0 2070 110 0 0 -2070 1926 3956 4 MP
PP
0 sg
-110 0 0 2070 110 0 0 -2070 1926 3956 5 MP stroke
c13
0 1796 110 0 0 -1796 3128 3956 4 MP
PP
0 sg
-110 0 0 1796 110 0 0 -1796 3128 3956 5 MP stroke
c13
0 2376 110 0 0 -2376 4330 3956 4 MP
PP
0 sg
-110 0 0 2376 110 0 0 -2376 4330 3956 5 MP stroke
c13
0 2268 110 0 0 -2268 5532 3956 4 MP
PP
0 sg
-110 0 0 2268 110 0 0 -2268 5532 3956 5 MP stroke
c13
0 922 110 0 0 -922 6734 3956 4 MP
PP
0 sg
-110 0 0 922 110 0 0 -922 6734 3956 5 MP stroke
c13
0 2197 109 0 0 -2197 7936 3956 4 MP
PP
0 sg
-109 0 0 2197 109 0 0 -2197 7936 3956 5 MP stroke
c13
0 1606 110 0 0 -1606 9137 3956 4 MP
PP
0 sg
-110 0 0 1606 110 0 0 -1606 9137 3956 5 MP stroke
c13
0 2938 110 0 0 -2938 10339 3956 4 MP
PP
0 sg
-110 0 0 2938 110 0 0 -2938 10339 3956 5 MP stroke
/c14 { 0.500000 0.000000 0.000000 sr} bdef
c14
0 2413 109 0 0 -2413 2064 3956 4 MP
PP
0 sg
-109 0 0 2413 109 0 0 -2413 2064 3956 5 MP stroke
c14
0 2158 110 0 0 -2158 3265 3956 4 MP
PP
0 sg
-110 0 0 2158 110 0 0 -2158 3265 3956 5 MP stroke
c14
0 2589 110 0 0 -2589 4467 3956 4 MP
PP
0 sg
-110 0 0 2589 110 0 0 -2589 4467 3956 5 MP stroke
c14
0 2628 110 0 0 -2628 5669 3956 4 MP
PP
0 sg
-110 0 0 2628 110 0 0 -2628 5669 3956 5 MP stroke
c14
0 1008 110 0 0 -1008 6871 3956 4 MP
PP
0 sg
-110 0 0 1008 110 0 0 -1008 6871 3956 5 MP stroke
c14
0 1114 110 0 0 -1114 8073 3956 4 MP
PP
0 sg
-110 0 0 1114 110 0 0 -1114 8073 3956 5 MP stroke
c14
0 1732 110 0 0 -1732 9275 3956 4 MP
PP
0 sg
-110 0 0 1732 110 0 0 -1732 9275 3956 5 MP stroke
c14
0 3094 110 0 0 -3094 10477 3956 4 MP
PP
0 sg
-110 0 0 3094 110 0 0 -3094 10477 3956 5 MP stroke
gr

5557 4308 mt 
(challenges) s
 169 2605 mt  -90 rotate
(success count) s
90 rotate
%%IncludeResource: font Helvetica
/Helvetica /WindowsLatin1Encoding 120 FMSR

 488 3999 mt 
( ) s
11306  375 mt 
( ) s
1 sg
0 1533 981 0 0 -1533 11343 1845 4 MP
PP
-981 0 0 1533 981 0 0 -1533 11343 1845 5 MP stroke
4 w
DO
SO
6 w
0 sg
11343  312 mt 12324  312 L
11343 1845 mt 12324 1845 L
12324 1845 mt 12324  312 L
11343 1845 mt 11343  312 L
11343 1845 mt 12324 1845 L
11343 1845 mt 11343  312 L
11343  312 mt 12324  312 L
11343 1845 mt 12324 1845 L
12324 1845 mt 12324  312 L
11343 1845 mt 11343  312 L
%%IncludeResource: font Times-Roman
/Times-Roman /WindowsLatin1Encoding 168 FMSR

11811  497 mt 
(FCLK) s
gs 11343 312 982 1534 rc
c8
-360 0 0 160 360 0 0 -160 11415 519 5 MP
PP
0 sg
0 0 -360 0 0 160 360 0 0 -160 11415 519 6 MP stroke
gr

11811  710 mt 
(ICLK) s
gs 11343 312 982 1534 rc
c9
-360 0 0 160 360 0 0 -160 11415 732 5 MP
PP
0 sg
0 0 -360 0 0 160 360 0 0 -160 11415 732 6 MP stroke
gr

11811  923 mt 
(FALK) s
gs 11343 312 982 1534 rc
c10
-360 0 0 160 360 0 0 -160 11415 945 5 MP
PP
0 sg
0 0 -360 0 0 160 360 0 0 -160 11415 945 6 MP stroke
gr

11811 1136 mt 
(IALK) s
gs 11343 312 982 1534 rc
c11
-360 0 0 160 360 0 0 -160 11415 1158 5 MP
PP
0 sg
0 0 -360 0 0 160 360 0 0 -160 11415 1158 6 MP stroke
gr

11811 1349 mt 
(ESM) s
gs 11343 312 982 1534 rc
c12
-360 0 0 160 360 0 0 -160 11415 1371 5 MP
PP
0 sg
0 0 -360 0 0 160 360 0 0 -160 11415 1371 6 MP stroke
gr

11811 1562 mt 
(AESM) s
gs 11343 312 982 1534 rc
c13
-360 0 0 160 360 0 0 -160 11415 1584 5 MP
PP
0 sg
0 0 -360 0 0 160 360 0 0 -160 11415 1584 6 MP stroke
gr

11811 1775 mt 
(NNIC) s
gs 11343 312 982 1534 rc
c14
-360 0 0 160 360 0 0 -160 11415 1797 5 MP
PP
0 sg
0 0 -360 0 0 160 360 0 0 -160 11415 1797 6 MP stroke
gr


end %%Color Dict

eplot
%%EndObject

epage
end

showpage

%%Trailer
%%EOF
