%!PS-Adobe-3.0 EPSF-3.0
%%Creator: MATLAB, The MathWorks, Inc. Version 8.1.0.604 (R2013a). Operating System: Microsoft Windows 8.
%%Title: E:\UofA\Thesis\ICRA 2016\sm_tags_scv_8.eps
%%CreationDate: 09/15/2015  03:29:38
%%DocumentNeededFonts: Times-Roman
%%+ Helvetica
%%+ Times-Bold
%%DocumentProcessColors: Cyan Magenta Yellow Black
%%LanguageLevel: 2
%%Pages: 1
%%BoundingBox:  -207   180   820   611
%%EndComments

%%BeginProlog
% MathWorks dictionary
/MathWorks 160 dict begin
% definition operators
/bdef {bind def} bind def
/ldef {load def} bind def
/xdef {exch def} bdef
/xstore {exch store} bdef
% operator abbreviations
/c  /clip ldef
/cc /concat ldef
/cp /closepath ldef
/gr /grestore ldef
/gs /gsave ldef
/mt /moveto ldef
/np /newpath ldef
/cm /currentmatrix ldef
/sm /setmatrix ldef
/rm /rmoveto ldef
/rl /rlineto ldef
/s {show newpath} bdef
/sc {setcmykcolor} bdef
/sr /setrgbcolor ldef
/sg /setgray ldef
/w /setlinewidth ldef
/j /setlinejoin ldef
/cap /setlinecap ldef
/rc {rectclip} bdef
/rf {rectfill} bdef
% page state control
/pgsv () def
/bpage {/pgsv save def} bdef
/epage {pgsv restore} bdef
/bplot /gsave ldef
/eplot {stroke grestore} bdef
% orientation switch
/portraitMode 0 def /landscapeMode 1 def /rotateMode 2 def
% coordinate system mappings
/dpi2point 0 def
% font control
/FontSize 0 def
/FMS {/FontSize xstore findfont [FontSize 0 0 FontSize neg 0 0]
  makefont setfont} bdef
/ISOLatin1Encoding where {pop /WindowsLatin1Encoding 256 array bdef
ISOLatin1Encoding WindowsLatin1Encoding copy pop
/.notdef/.notdef/quotesinglbase/florin/quotedblbase/ellipsis/dagger
/daggerdbl/circumflex/perthousand/Scaron/guilsinglleft/OE/.notdef/.notdef
/.notdef/.notdef/quoteleft/quoteright/quotedblleft/quotedblright/bullet
/endash/emdash/tilde/trademark/scaron/guilsinglright/oe/.notdef/.notdef
/Ydieresis WindowsLatin1Encoding 128 32 getinterval astore pop}
{/WindowsLatin1Encoding StandardEncoding bdef} ifelse
/reencode {exch dup where {pop load} {pop StandardEncoding} ifelse
  exch dup 3 1 roll findfont dup length dict begin
  { 1 index /FID ne {def}{pop pop} ifelse } forall
  /Encoding exch def currentdict end definefont pop} bdef
/isroman {findfont /CharStrings get /Agrave known} bdef
/FMSR {3 1 roll 1 index dup isroman {reencode} {pop pop} ifelse
  exch FMS} bdef
/csm {1 dpi2point div -1 dpi2point div scale neg translate
 dup landscapeMode eq {pop -90 rotate}
  {rotateMode eq {90 rotate} if} ifelse} bdef
% line types: solid, dotted, dashed, dotdash
/SO { [] 0 setdash } bdef
/DO { [.5 dpi2point mul 4 dpi2point mul] 0 setdash } bdef
/DA { [6 dpi2point mul] 0 setdash } bdef
/DD { [.5 dpi2point mul 4 dpi2point mul 6 dpi2point mul 4
  dpi2point mul] 0 setdash } bdef
% macros for lines and objects
/L {lineto stroke} bdef
/MP {3 1 roll moveto 1 sub {rlineto} repeat} bdef
/AP {{rlineto} repeat} bdef
/PDlw -1 def
/W {/PDlw currentlinewidth def setlinewidth} def
/PP {closepath eofill} bdef
/DP {closepath stroke} bdef
/MR {4 -2 roll moveto dup  0 exch rlineto exch 0 rlineto
  neg 0 exch rlineto closepath} bdef
/FR {MR stroke} bdef
/PR {MR fill} bdef
/L1i {{currentfile picstr readhexstring pop} image} bdef
/tMatrix matrix def
/MakeOval {newpath tMatrix currentmatrix pop translate scale
0 0 1 0 360 arc tMatrix setmatrix} bdef
/FO {MakeOval stroke} bdef
/PO {MakeOval fill} bdef
/PD {currentlinewidth 2 div 0 360 arc fill
   PDlw -1 eq not {PDlw w /PDlw -1 def} if} def
/FA {newpath tMatrix currentmatrix pop translate scale
  0 0 1 5 -2 roll arc tMatrix setmatrix stroke} bdef
/PA {newpath tMatrix currentmatrix pop	translate 0 0 moveto scale
  0 0 1 5 -2 roll arc closepath tMatrix setmatrix fill} bdef
/FAn {newpath tMatrix currentmatrix pop translate scale
  0 0 1 5 -2 roll arcn tMatrix setmatrix stroke} bdef
/PAn {newpath tMatrix currentmatrix pop translate 0 0 moveto scale
  0 0 1 5 -2 roll arcn closepath tMatrix setmatrix fill} bdef
/vradius 0 def /hradius 0 def /lry 0 def
/lrx 0 def /uly 0 def /ulx 0 def /rad 0 def
/MRR {/vradius xdef /hradius xdef /lry xdef /lrx xdef /uly xdef
  /ulx xdef newpath tMatrix currentmatrix pop ulx hradius add uly
  vradius add translate hradius vradius scale 0 0 1 180 270 arc 
  tMatrix setmatrix lrx hradius sub uly vradius add translate
  hradius vradius scale 0 0 1 270 360 arc tMatrix setmatrix
  lrx hradius sub lry vradius sub translate hradius vradius scale
  0 0 1 0 90 arc tMatrix setmatrix ulx hradius add lry vradius sub
  translate hradius vradius scale 0 0 1 90 180 arc tMatrix setmatrix
  closepath} bdef
/FRR {MRR stroke } bdef
/PRR {MRR fill } bdef
/MlrRR {/lry xdef /lrx xdef /uly xdef /ulx xdef /rad lry uly sub 2 div def
  newpath tMatrix currentmatrix pop ulx rad add uly rad add translate
  rad rad scale 0 0 1 90 270 arc tMatrix setmatrix lrx rad sub lry rad
  sub translate rad rad scale 0 0 1 270 90 arc tMatrix setmatrix
  closepath} bdef
/FlrRR {MlrRR stroke } bdef
/PlrRR {MlrRR fill } bdef
/MtbRR {/lry xdef /lrx xdef /uly xdef /ulx xdef /rad lrx ulx sub 2 div def
  newpath tMatrix currentmatrix pop ulx rad add uly rad add translate
  rad rad scale 0 0 1 180 360 arc tMatrix setmatrix lrx rad sub lry rad
  sub translate rad rad scale 0 0 1 0 180 arc tMatrix setmatrix
  closepath} bdef
/FtbRR {MtbRR stroke } bdef
/PtbRR {MtbRR fill } bdef
/stri 6 array def /dtri 6 array def
/smat 6 array def /dmat 6 array def
/tmat1 6 array def /tmat2 6 array def /dif 3 array def
/asub {/ind2 exch def /ind1 exch def dup dup
  ind1 get exch ind2 get sub exch } bdef
/tri_to_matrix {
  2 0 asub 3 1 asub 4 0 asub 5 1 asub
  dup 0 get exch 1 get 7 -1 roll astore } bdef
/compute_transform {
  dmat dtri tri_to_matrix tmat1 invertmatrix 
  smat stri tri_to_matrix tmat2 concatmatrix } bdef
/ds {stri astore pop} bdef
/dt {dtri astore pop} bdef
/db {2 copy /cols xdef /rows xdef mul dup 3 mul string
  currentfile 
  3 index 0 eq {/ASCIIHexDecode filter}
  {/ASCII85Decode filter 3 index 2 eq {/RunLengthDecode filter} if }
  ifelse exch readstring pop
  dup 0 3 index getinterval /rbmap xdef
  dup 2 index dup getinterval /gbmap xdef
  1 index dup 2 mul exch getinterval /bbmap xdef pop pop}bdef
/it {gs np dtri aload pop moveto lineto lineto cp c
  cols rows 8 compute_transform 
  rbmap gbmap bbmap true 3 colorimage gr}bdef
/il {newpath moveto lineto stroke}bdef
currentdict end def
%%EndProlog

%%BeginSetup
MathWorks begin

0 cap

end
%%EndSetup

%%Page: 1 1
%%BeginPageSetup
%%PageBoundingBox:  -207   180   820   611
MathWorks begin
bpage
%%EndPageSetup

%%BeginObject: obj1
bplot

/dpi2point 12 def
portraitMode -2484 7332 csm

    0     0 12330  5165 rc
85 dict begin %Colortable dictionary
/c0 { 0.000000 0.000000 0.000000 sr} bdef
/c1 { 1.000000 1.000000 1.000000 sr} bdef
/c2 { 0.900000 0.000000 0.000000 sr} bdef
/c3 { 0.000000 0.820000 0.000000 sr} bdef
/c4 { 0.000000 0.000000 0.800000 sr} bdef
/c5 { 0.910000 0.820000 0.320000 sr} bdef
/c6 { 1.000000 0.260000 0.820000 sr} bdef
/c7 { 0.000000 0.820000 0.820000 sr} bdef
c0
1 j
1 sg
   0    0 12331 5166 rf
6 w
0 4418 10836 0 0 -4418 522 4751 4 MP
PP
-10836 0 0 4418 10836 0 0 -4418 522 4751 5 MP stroke
4 w
DO
0 sg
 522 4751 mt  522  333 L
 522  333 mt  522  333 L
1726 4751 mt 1726  333 L
1726  333 mt 1726  333 L
2930 4751 mt 2930  333 L
2930  333 mt 2930  333 L
4134 4751 mt 4134  333 L
4134  333 mt 4134  333 L
5338 4751 mt 5338  333 L
5338  333 mt 5338  333 L
6542 4751 mt 6542  333 L
6542  333 mt 6542  333 L
7746 4751 mt 7746  333 L
7746  333 mt 7746  333 L
8950 4751 mt 8950  333 L
8950  333 mt 8950  333 L
10154 4751 mt 10154  333 L
10154  333 mt 10154  333 L
11358 4751 mt 11358  333 L
11358  333 mt 11358  333 L
 522 4751 mt 11358 4751 L
11358 4751 mt 11358 4751 L
 522 4309 mt 11358 4309 L
11358 4309 mt 11358 4309 L
 522 3867 mt 11358 3867 L
11358 3867 mt 11358 3867 L
 522 3425 mt 11358 3425 L
11358 3425 mt 11358 3425 L
 522 2983 mt 11358 2983 L
11358 2983 mt 11358 2983 L
 522 2542 mt 11358 2542 L
11358 2542 mt 11358 2542 L
 522 2100 mt 11358 2100 L
11358 2100 mt 11358 2100 L
 522 1658 mt 11358 1658 L
11358 1658 mt 11358 1658 L
 522 1216 mt 11358 1216 L
11358 1216 mt 11358 1216 L
 522  774 mt 11358  774 L
11358  774 mt 11358  774 L
 522  333 mt 11358  333 L
11358  333 mt 11358  333 L
SO
6 w
 522 4751 mt 11358 4751 L
 522 4751 mt  522  333 L
 522 4751 mt  522 4642 L
%%IncludeResource: font Times-Roman
/Times-Roman /WindowsLatin1Encoding 168 FMSR

 480 4935 mt 
(0) s
1726 4751 mt 1726 4642 L
1619 4935 mt 
(TR) s
2930 4751 mt 2930 4642 L
2817 4935 mt 
(RO) s
4134 4751 mt 4134 4642 L
4032 4935 mt 
(PR) s
5338 4751 mt 5338 4642 L
5236 4935 mt 
(SR) s
6542 4751 mt 6542 4642 L
6426 4935 mt 
(OC) s
7746 4751 mt 7746 4642 L
7635 4935 mt 
(TX) s
8950 4751 mt 8950 4642 L
8843 4935 mt 
(BL) s
10154 4751 mt 10154 4642 L
10052 4935 mt 
(SC) s
11358 4751 mt 11358 4642 L
11316 4935 mt 
(0) s
 522 4751 mt  630 4751 L
 403 4811 mt 
(0) s
 522 4309 mt  630 4309 L
 277 4369 mt 
(0.1) s
 522 3867 mt  630 3867 L
 277 3927 mt 
(0.2) s
 522 3425 mt  630 3425 L
 277 3485 mt 
(0.3) s
 522 2983 mt  630 2983 L
 277 3043 mt 
(0.4) s
 522 2542 mt  630 2542 L
 277 2602 mt 
(0.5) s
 522 2100 mt  630 2100 L
 277 2160 mt 
(0.6) s
 522 1658 mt  630 1658 L
 277 1718 mt 
(0.7) s
 522 1216 mt  630 1216 L
 277 1276 mt 
(0.8) s
 522  774 mt  630  774 L
 277  834 mt 
(0.9) s
 522  333 mt  630  333 L
 403  393 mt 
(1) s
%%IncludeResource: font Times-Bold
/Times-Bold /WindowsLatin1Encoding 168 FMSR

3824  245 mt 
(SM Success Rates for Different Challeges with SCV/8DOF ) s
gs 522 333 10837 4419 rc
/c8 { 0.000000 0.000000 0.562500 sr} bdef
c8
0 3153 110 0 0 -3153 1258 4751 4 MP
PP
0 sg
-110 0 0 3153 110 0 0 -3153 1258 4751 5 MP stroke
c8
0 2889 110 0 0 -2889 2462 4751 4 MP
PP
0 sg
-110 0 0 2889 110 0 0 -2889 2462 4751 5 MP stroke
c8
0 3335 110 0 0 -3335 3666 4751 4 MP
PP
0 sg
-110 0 0 3335 110 0 0 -3335 3666 4751 5 MP stroke
c8
0 3356 110 0 0 -3356 4870 4751 4 MP
PP
0 sg
-110 0 0 3356 110 0 0 -3356 4870 4751 5 MP stroke
c8
0 950 110 0 0 -950 6074 4751 4 MP
PP
0 sg
-110 0 0 950 110 0 0 -950 6074 4751 5 MP stroke
c8
0 3210 110 0 0 -3210 7278 4751 4 MP
PP
0 sg
-110 0 0 3210 110 0 0 -3210 7278 4751 5 MP stroke
c8
0 2129 110 0 0 -2129 8482 4751 4 MP
PP
0 sg
-110 0 0 2129 110 0 0 -2129 8482 4751 5 MP stroke
c8
0 3966 110 0 0 -3966 9686 4751 4 MP
PP
0 sg
-110 0 0 3966 110 0 0 -3966 9686 4751 5 MP stroke
10836 0 522 4751 2 MP stroke
/c9 { 0.000000 0.187500 1.000000 sr} bdef
c9
0 3141 110 0 0 -3141 1395 4751 4 MP
PP
0 sg
-110 0 0 3141 110 0 0 -3141 1395 4751 5 MP stroke
c9
0 2916 110 0 0 -2916 2599 4751 4 MP
PP
0 sg
-110 0 0 2916 110 0 0 -2916 2599 4751 5 MP stroke
c9
0 3413 110 0 0 -3413 3803 4751 4 MP
PP
0 sg
-110 0 0 3413 110 0 0 -3413 3803 4751 5 MP stroke
c9
0 3200 110 0 0 -3200 5007 4751 4 MP
PP
0 sg
-110 0 0 3200 110 0 0 -3200 5007 4751 5 MP stroke
c9
0 1112 110 0 0 -1112 6211 4751 4 MP
PP
0 sg
-110 0 0 1112 110 0 0 -1112 6211 4751 5 MP stroke
c9
0 2246 110 0 0 -2246 7415 4751 4 MP
PP
0 sg
-110 0 0 2246 110 0 0 -2246 7415 4751 5 MP stroke
c9
0 2069 110 0 0 -2069 8619 4751 4 MP
PP
0 sg
-110 0 0 2069 110 0 0 -2069 8619 4751 5 MP stroke
c9
0 3895 110 0 0 -3895 9823 4751 4 MP
PP
0 sg
-110 0 0 3895 110 0 0 -3895 9823 4751 5 MP stroke
/c10 { 0.000000 0.875000 1.000000 sr} bdef
c10
0 2962 110 0 0 -2962 1533 4751 4 MP
PP
0 sg
-110 0 0 2962 110 0 0 -2962 1533 4751 5 MP stroke
c10
0 2761 110 0 0 -2761 2737 4751 4 MP
PP
0 sg
-110 0 0 2761 110 0 0 -2761 2737 4751 5 MP stroke
c10
0 3159 110 0 0 -3159 3941 4751 4 MP
PP
0 sg
-110 0 0 3159 110 0 0 -3159 3941 4751 5 MP stroke
c10
0 3138 110 0 0 -3138 5145 4751 4 MP
PP
0 sg
-110 0 0 3138 110 0 0 -3138 5145 4751 5 MP stroke
c10
0 959 110 0 0 -959 6349 4751 4 MP
PP
0 sg
-110 0 0 959 110 0 0 -959 6349 4751 5 MP stroke
c10
0 2628 110 0 0 -2628 7553 4751 4 MP
PP
0 sg
-110 0 0 2628 110 0 0 -2628 7553 4751 5 MP stroke
c10
0 1974 110 0 0 -1974 8757 4751 4 MP
PP
0 sg
-110 0 0 1974 110 0 0 -1974 8757 4751 5 MP stroke
c10
0 3678 110 0 0 -3678 9961 4751 4 MP
PP
0 sg
-110 0 0 3678 110 0 0 -3678 9961 4751 5 MP stroke
/c11 { 0.562500 1.000000 0.437500 sr} bdef
c11
0 2918 111 0 0 -2918 1670 4751 4 MP
PP
0 sg
-111 0 0 2918 111 0 0 -2918 1670 4751 5 MP stroke
c11
0 2305 111 0 0 -2305 2874 4751 4 MP
PP
0 sg
-111 0 0 2305 111 0 0 -2305 2874 4751 5 MP stroke
c11
0 2988 111 0 0 -2988 4078 4751 4 MP
PP
0 sg
-111 0 0 2988 111 0 0 -2988 4078 4751 5 MP stroke
c11
0 2900 111 0 0 -2900 5282 4751 4 MP
PP
0 sg
-111 0 0 2900 111 0 0 -2900 5282 4751 5 MP stroke
c11
0 914 111 0 0 -914 6486 4751 4 MP
PP
0 sg
-111 0 0 914 111 0 0 -914 6486 4751 5 MP stroke
c11
0 2577 111 0 0 -2577 7690 4751 4 MP
PP
0 sg
-111 0 0 2577 111 0 0 -2577 7690 4751 5 MP stroke
c11
0 1927 111 0 0 -1927 8894 4751 4 MP
PP
0 sg
-111 0 0 1927 111 0 0 -1927 8894 4751 5 MP stroke
c11
0 3655 111 0 0 -3655 10098 4751 4 MP
PP
0 sg
-111 0 0 3655 111 0 0 -3655 10098 4751 5 MP stroke
/c12 { 1.000000 0.812500 0.000000 sr} bdef
c12
0 3375 110 0 0 -3375 1808 4751 4 MP
PP
0 sg
-110 0 0 3375 110 0 0 -3375 1808 4751 5 MP stroke
c12
0 3301 110 0 0 -3301 3012 4751 4 MP
PP
0 sg
-110 0 0 3301 110 0 0 -3301 3012 4751 5 MP stroke
c12
0 3592 110 0 0 -3592 4216 4751 4 MP
PP
0 sg
-110 0 0 3592 110 0 0 -3592 4216 4751 5 MP stroke
c12
0 3474 110 0 0 -3474 5420 4751 4 MP
PP
0 sg
-110 0 0 3474 110 0 0 -3474 5420 4751 5 MP stroke
c12
0 1229 110 0 0 -1229 6624 4751 4 MP
PP
0 sg
-110 0 0 1229 110 0 0 -1229 6624 4751 5 MP stroke
c12
0 2632 110 0 0 -2632 7828 4751 4 MP
PP
0 sg
-110 0 0 2632 110 0 0 -2632 7828 4751 5 MP stroke
c12
0 2283 110 0 0 -2283 9032 4751 4 MP
PP
0 sg
-110 0 0 2283 110 0 0 -2283 9032 4751 5 MP stroke
c12
0 4236 110 0 0 -4236 10236 4751 4 MP
PP
0 sg
-110 0 0 4236 110 0 0 -4236 10236 4751 5 MP stroke
/c13 { 1.000000 0.125000 0.000000 sr} bdef
c13
0 2473 110 0 0 -2473 1946 4751 4 MP
PP
0 sg
-110 0 0 2473 110 0 0 -2473 1946 4751 5 MP stroke
c13
0 1841 110 0 0 -1841 3150 4751 4 MP
PP
0 sg
-110 0 0 1841 110 0 0 -1841 3150 4751 5 MP stroke
c13
0 2959 110 0 0 -2959 4354 4751 4 MP
PP
0 sg
-110 0 0 2959 110 0 0 -2959 4354 4751 5 MP stroke
c13
0 2596 110 0 0 -2596 5558 4751 4 MP
PP
0 sg
-110 0 0 2596 110 0 0 -2596 5558 4751 5 MP stroke
c13
0 1013 110 0 0 -1013 6762 4751 4 MP
PP
0 sg
-110 0 0 1013 110 0 0 -1013 6762 4751 5 MP stroke
c13
0 3330 110 0 0 -3330 7966 4751 4 MP
PP
0 sg
-110 0 0 3330 110 0 0 -3330 7966 4751 5 MP stroke
c13
0 1889 110 0 0 -1889 9170 4751 4 MP
PP
0 sg
-110 0 0 1889 110 0 0 -1889 9170 4751 5 MP stroke
c13
0 3588 110 0 0 -3588 10374 4751 4 MP
PP
0 sg
-110 0 0 3588 110 0 0 -3588 10374 4751 5 MP stroke
/c14 { 0.500000 0.000000 0.000000 sr} bdef
c14
0 3036 110 0 0 -3036 2083 4751 4 MP
PP
0 sg
-110 0 0 3036 110 0 0 -3036 2083 4751 5 MP stroke
c14
0 2525 110 0 0 -2525 3287 4751 4 MP
PP
0 sg
-110 0 0 2525 110 0 0 -2525 3287 4751 5 MP stroke
c14
0 2113 110 0 0 -2113 4491 4751 4 MP
PP
0 sg
-110 0 0 2113 110 0 0 -2113 4491 4751 5 MP stroke
c14
0 2579 110 0 0 -2579 5695 4751 4 MP
PP
0 sg
-110 0 0 2579 110 0 0 -2579 5695 4751 5 MP stroke
c14
0 423 110 0 0 -423 6899 4751 4 MP
PP
0 sg
-110 0 0 423 110 0 0 -423 6899 4751 5 MP stroke
c14
0 121 110 0 0 -121 8103 4751 4 MP
PP
0 sg
-110 0 0 121 110 0 0 -121 8103 4751 5 MP stroke
c14
0 2013 110 0 0 -2013 9307 4751 4 MP
PP
0 sg
-110 0 0 2013 110 0 0 -2013 9307 4751 5 MP stroke
c14
0 3790 110 0 0 -3790 10511 4751 4 MP
PP
0 sg
-110 0 0 3790 110 0 0 -3790 10511 4751 5 MP stroke
gr

%%IncludeResource: font Times-Roman
/Times-Roman /WindowsLatin1Encoding 168 FMSR

5584 5103 mt 
(challenges) s
 186 3003 mt  -90 rotate
(success count) s
90 rotate
%%IncludeResource: font Helvetica
/Helvetica /WindowsLatin1Encoding 120 FMSR

 505 4794 mt 
( ) s
11342  375 mt 
( ) s
1 sg
0 1533 981 0 0 -1533 11343 1863 4 MP
PP
-981 0 0 1533 981 0 0 -1533 11343 1863 5 MP stroke
4 w
DO
SO
6 w
0 sg
11343  330 mt 12324  330 L
11343 1863 mt 12324 1863 L
12324 1863 mt 12324  330 L
11343 1863 mt 11343  330 L
11343 1863 mt 12324 1863 L
11343 1863 mt 11343  330 L
11343  330 mt 12324  330 L
11343 1863 mt 12324 1863 L
12324 1863 mt 12324  330 L
11343 1863 mt 11343  330 L
%%IncludeResource: font Times-Roman
/Times-Roman /WindowsLatin1Encoding 168 FMSR

11811  515 mt 
(FCLK) s
gs 11343 330 982 1534 rc
c8
-360 0 0 160 360 0 0 -160 11415 537 5 MP
PP
0 sg
0 0 -360 0 0 160 360 0 0 -160 11415 537 6 MP stroke
gr

11811  728 mt 
(ICLK) s
gs 11343 330 982 1534 rc
c9
-360 0 0 160 360 0 0 -160 11415 750 5 MP
PP
0 sg
0 0 -360 0 0 160 360 0 0 -160 11415 750 6 MP stroke
gr

11811  941 mt 
(FALK) s
gs 11343 330 982 1534 rc
c10
-360 0 0 160 360 0 0 -160 11415 963 5 MP
PP
0 sg
0 0 -360 0 0 160 360 0 0 -160 11415 963 6 MP stroke
gr

11811 1154 mt 
(IALK) s
gs 11343 330 982 1534 rc
c11
-360 0 0 160 360 0 0 -160 11415 1176 5 MP
PP
0 sg
0 0 -360 0 0 160 360 0 0 -160 11415 1176 6 MP stroke
gr

11811 1367 mt 
(ESM) s
gs 11343 330 982 1534 rc
c12
-360 0 0 160 360 0 0 -160 11415 1389 5 MP
PP
0 sg
0 0 -360 0 0 160 360 0 0 -160 11415 1389 6 MP stroke
gr

11811 1580 mt 
(AESM) s
gs 11343 330 982 1534 rc
c13
-360 0 0 160 360 0 0 -160 11415 1602 5 MP
PP
0 sg
0 0 -360 0 0 160 360 0 0 -160 11415 1602 6 MP stroke
gr

11811 1793 mt 
(NNIC) s
gs 11343 330 982 1534 rc
c14
-360 0 0 160 360 0 0 -160 11415 1815 5 MP
PP
0 sg
0 0 -360 0 0 160 360 0 0 -160 11415 1815 6 MP stroke
gr


end %%Color Dict

eplot
%%EndObject

epage
end

showpage

%%Trailer
%%EOF
